(export (version D)
  (design
    (source /home/casper/projects/keybs/third/corne-cherry.sch)
    (date "Tue 20 Nov 2018 01:50:30 AM CET")
    (tool "Eeschema 5.0.1")
    (sheet (number 1) (name /) (tstamps /)
      (title_block
        (title "Corne Cherry")
        (company foostan)
        (rev 2.0)
        (date 2018-08-25)
        (source corne-cherry.sch)
        (comment (number 1) (value ""))
        (comment (number 2) (value ""))
        (comment (number 3) (value ""))
        (comment (number 4) (value "")))))
  (components
    (comp (ref SW2)
      (value SW_PUSH)
      (footprint kbd:CherryMX_Hotswap)
      (libsource (lib corne-cherry-rescue) (part SW_PUSH-kbd) (description ""))
      (sheetpath (names /) (tstamps /))
      (tstamp 5BFAC492))
    (comp (ref D2)
      (value D)
      (footprint kbd:D3_SMD)
      (libsource (lib corne-cherry-rescue) (part D-Device) (description ""))
      (sheetpath (names /) (tstamps /))
      (tstamp 5BFAC493))
    (comp (ref SW3)
      (value SW_PUSH)
      (footprint kbd:CherryMX_Hotswap)
      (libsource (lib corne-cherry-rescue) (part SW_PUSH-kbd) (description ""))
      (sheetpath (names /) (tstamps /))
      (tstamp 5BFAC494))
    (comp (ref D3)
      (value D)
      (footprint kbd:D3_SMD)
      (libsource (lib corne-cherry-rescue) (part D-Device) (description ""))
      (sheetpath (names /) (tstamps /))
      (tstamp 5BFAC495))
    (comp (ref SW4)
      (value SW_PUSH)
      (footprint kbd:CherryMX_Hotswap)
      (libsource (lib corne-cherry-rescue) (part SW_PUSH-kbd) (description ""))
      (sheetpath (names /) (tstamps /))
      (tstamp 5A5E2908))
    (comp (ref SW5)
      (value SW_PUSH)
      (footprint kbd:CherryMX_Hotswap)
      (libsource (lib corne-cherry-rescue) (part SW_PUSH-kbd) (description ""))
      (sheetpath (names /) (tstamps /))
      (tstamp 5A5E2933))
    (comp (ref SW6)
      (value SW_PUSH)
      (footprint kbd:CherryMX_Hotswap)
      (libsource (lib corne-cherry-rescue) (part SW_PUSH-kbd) (description ""))
      (sheetpath (names /) (tstamps /))
      (tstamp 5A5E295E))
    (comp (ref D4)
      (value D)
      (footprint kbd:D3_SMD)
      (libsource (lib corne-cherry-rescue) (part D-Device) (description ""))
      (sheetpath (names /) (tstamps /))
      (tstamp 5A5E29BF))
    (comp (ref D5)
      (value D)
      (footprint kbd:D3_SMD)
      (libsource (lib corne-cherry-rescue) (part D-Device) (description ""))
      (sheetpath (names /) (tstamps /))
      (tstamp 5BFAC49A))
    (comp (ref D6)
      (value D)
      (footprint kbd:D3_SMD)
      (libsource (lib corne-cherry-rescue) (part D-Device) (description ""))
      (sheetpath (names /) (tstamps /))
      (tstamp 5BFAC49B))
    (comp (ref SW1)
      (value SW_PUSH)
      (footprint kbd:CherryMX_Hotswap)
      (libsource (lib corne-cherry-rescue) (part SW_PUSH-kbd) (description ""))
      (sheetpath (names /) (tstamps /))
      (tstamp 5A5E2B19))
    (comp (ref D1)
      (value D)
      (footprint kbd:D3_SMD)
      (libsource (lib corne-cherry-rescue) (part D-Device) (description ""))
      (sheetpath (names /) (tstamps /))
      (tstamp 5BFAC49D))
    (comp (ref SW8)
      (value SW_PUSH)
      (footprint kbd:CherryMX_Hotswap)
      (libsource (lib corne-cherry-rescue) (part SW_PUSH-kbd) (description ""))
      (sheetpath (names /) (tstamps /))
      (tstamp 5BFAC49E))
    (comp (ref D8)
      (value D)
      (footprint kbd:D3_SMD)
      (libsource (lib corne-cherry-rescue) (part D-Device) (description ""))
      (sheetpath (names /) (tstamps /))
      (tstamp 5BFAC49F))
    (comp (ref SW9)
      (value SW_PUSH)
      (footprint kbd:CherryMX_Hotswap)
      (libsource (lib corne-cherry-rescue) (part SW_PUSH-kbd) (description ""))
      (sheetpath (names /) (tstamps /))
      (tstamp 5BFAC4A0))
    (comp (ref D9)
      (value D)
      (footprint kbd:D3_SMD)
      (libsource (lib corne-cherry-rescue) (part D-Device) (description ""))
      (sheetpath (names /) (tstamps /))
      (tstamp 5BFAC4A1))
    (comp (ref SW10)
      (value SW_PUSH)
      (footprint kbd:CherryMX_Hotswap)
      (libsource (lib corne-cherry-rescue) (part SW_PUSH-kbd) (description ""))
      (sheetpath (names /) (tstamps /))
      (tstamp 5A5E2D3E))
    (comp (ref SW11)
      (value SW_PUSH)
      (footprint kbd:CherryMX_Hotswap)
      (libsource (lib corne-cherry-rescue) (part SW_PUSH-kbd) (description ""))
      (sheetpath (names /) (tstamps /))
      (tstamp 5A5E2D44))
    (comp (ref SW12)
      (value SW_PUSH)
      (footprint kbd:CherryMX_Hotswap)
      (libsource (lib corne-cherry-rescue) (part SW_PUSH-kbd) (description ""))
      (sheetpath (names /) (tstamps /))
      (tstamp 5A5E2D4A))
    (comp (ref D10)
      (value D)
      (footprint kbd:D3_SMD)
      (libsource (lib corne-cherry-rescue) (part D-Device) (description ""))
      (sheetpath (names /) (tstamps /))
      (tstamp 5A5E2D56))
    (comp (ref D11)
      (value D)
      (footprint kbd:D3_SMD)
      (libsource (lib corne-cherry-rescue) (part D-Device) (description ""))
      (sheetpath (names /) (tstamps /))
      (tstamp 5BFAC4A6))
    (comp (ref D12)
      (value D)
      (footprint kbd:D3_SMD)
      (libsource (lib corne-cherry-rescue) (part D-Device) (description ""))
      (sheetpath (names /) (tstamps /))
      (tstamp 5A5E2D62))
    (comp (ref SW7)
      (value SW_PUSH)
      (footprint kbd:CherryMX_Hotswap)
      (libsource (lib corne-cherry-rescue) (part SW_PUSH-kbd) (description ""))
      (sheetpath (names /) (tstamps /))
      (tstamp 5A5E2D6E))
    (comp (ref D7)
      (value D)
      (footprint kbd:D3_SMD)
      (libsource (lib corne-cherry-rescue) (part D-Device) (description ""))
      (sheetpath (names /) (tstamps /))
      (tstamp 5BFAC4A9))
    (comp (ref SW14)
      (value SW_PUSH)
      (footprint kbd:CherryMX_Hotswap)
      (libsource (lib corne-cherry-rescue) (part SW_PUSH-kbd) (description ""))
      (sheetpath (names /) (tstamps /))
      (tstamp 5BFAC4AA))
    (comp (ref D14)
      (value D)
      (footprint kbd:D3_SMD)
      (libsource (lib corne-cherry-rescue) (part D-Device) (description ""))
      (sheetpath (names /) (tstamps /))
      (tstamp 5BFAC4AB))
    (comp (ref SW15)
      (value SW_PUSH)
      (footprint kbd:CherryMX_Hotswap)
      (libsource (lib corne-cherry-rescue) (part SW_PUSH-kbd) (description ""))
      (sheetpath (names /) (tstamps /))
      (tstamp 5BFAC4AC))
    (comp (ref D15)
      (value D)
      (footprint kbd:D3_SMD)
      (libsource (lib corne-cherry-rescue) (part D-Device) (description ""))
      (sheetpath (names /) (tstamps /))
      (tstamp 5BFAC4AD))
    (comp (ref SW16)
      (value SW_PUSH)
      (footprint kbd:CherryMX_Hotswap)
      (libsource (lib corne-cherry-rescue) (part SW_PUSH-kbd) (description ""))
      (sheetpath (names /) (tstamps /))
      (tstamp 5BFAC4AE))
    (comp (ref SW17)
      (value SW_PUSH)
      (footprint kbd:CherryMX_Hotswap)
      (libsource (lib corne-cherry-rescue) (part SW_PUSH-kbd) (description ""))
      (sheetpath (names /) (tstamps /))
      (tstamp 5BFAC4AF))
    (comp (ref SW18)
      (value SW_PUSH)
      (footprint kbd:CherryMX_Hotswap)
      (libsource (lib corne-cherry-rescue) (part SW_PUSH-kbd) (description ""))
      (sheetpath (names /) (tstamps /))
      (tstamp 5BFAC4B0))
    (comp (ref D16)
      (value D)
      (footprint kbd:D3_SMD)
      (libsource (lib corne-cherry-rescue) (part D-Device) (description ""))
      (sheetpath (names /) (tstamps /))
      (tstamp 5BFAC4B1))
    (comp (ref D17)
      (value D)
      (footprint kbd:D3_SMD)
      (libsource (lib corne-cherry-rescue) (part D-Device) (description ""))
      (sheetpath (names /) (tstamps /))
      (tstamp 5BFAC4B2))
    (comp (ref D18)
      (value D)
      (footprint kbd:D3_SMD)
      (libsource (lib corne-cherry-rescue) (part D-Device) (description ""))
      (sheetpath (names /) (tstamps /))
      (tstamp 5A5E35ED))
    (comp (ref SW13)
      (value SW_PUSH)
      (footprint kbd:CherryMX_Hotswap)
      (libsource (lib corne-cherry-rescue) (part SW_PUSH-kbd) (description ""))
      (sheetpath (names /) (tstamps /))
      (tstamp 5BFAC4B4))
    (comp (ref D13)
      (value D)
      (footprint kbd:D3_SMD)
      (libsource (lib corne-cherry-rescue) (part D-Device) (description ""))
      (sheetpath (names /) (tstamps /))
      (tstamp 5A5E35FF))
    (comp (ref SW20)
      (value SW_PUSH)
      (footprint kbd:CherryMX_Hotswap)
      (libsource (lib corne-cherry-rescue) (part SW_PUSH-kbd) (description ""))
      (sheetpath (names /) (tstamps /))
      (tstamp 5A5E37A4))
    (comp (ref D20)
      (value D)
      (footprint kbd:D3_SMD)
      (libsource (lib corne-cherry-rescue) (part D-Device) (description ""))
      (sheetpath (names /) (tstamps /))
      (tstamp 5A5E37AA))
    (comp (ref SW21)
      (value SW_PUSH)
      (footprint kbd:CherryMX_Hotswap_1.5u)
      (libsource (lib corne-cherry-rescue) (part SW_PUSH-kbd) (description ""))
      (sheetpath (names /) (tstamps /))
      (tstamp 5A5E37B0))
    (comp (ref D21)
      (value D)
      (footprint kbd:D3_SMD)
      (libsource (lib corne-cherry-rescue) (part D-Device) (description ""))
      (sheetpath (names /) (tstamps /))
      (tstamp 5A5E37B6))
    (comp (ref SW19)
      (value SW_PUSH)
      (footprint kbd:CherryMX_Hotswap)
      (libsource (lib corne-cherry-rescue) (part SW_PUSH-kbd) (description ""))
      (sheetpath (names /) (tstamps /))
      (tstamp 5A5E37EC))
    (comp (ref D19)
      (value D)
      (footprint kbd:D3_SMD)
      (libsource (lib corne-cherry-rescue) (part D-Device) (description ""))
      (sheetpath (names /) (tstamps /))
      (tstamp 5A5E37F2))
    (comp (ref L2)
      (value SK6812MINI)
      (footprint kbd:SK6812MINI_rev)
      (libsource (lib corne-cherry-rescue) (part SK6812MINI-kbd) (description ""))
      (sheetpath (names /) (tstamps /))
      (tstamp 5A7737BA))
    (comp (ref L3)
      (value SK6812MINI)
      (footprint kbd:SK6812MINI_rev)
      (libsource (lib corne-cherry-rescue) (part SK6812MINI-kbd) (description ""))
      (sheetpath (names /) (tstamps /))
      (tstamp 5BFAC4BD))
    (comp (ref L4)
      (value SK6812MINI)
      (footprint kbd:SK6812MINI_rev)
      (libsource (lib corne-cherry-rescue) (part SK6812MINI-kbd) (description ""))
      (sheetpath (names /) (tstamps /))
      (tstamp 5BFAC4BE))
    (comp (ref L5)
      (value SK6812MINI)
      (footprint kbd:SK6812MINI_rev)
      (libsource (lib corne-cherry-rescue) (part SK6812MINI-kbd) (description ""))
      (sheetpath (names /) (tstamps /))
      (tstamp 5BFAC4BF))
    (comp (ref L6)
      (value SK6812MINI)
      (footprint kbd:SK6812MINI_rev)
      (libsource (lib corne-cherry-rescue) (part SK6812MINI-kbd) (description ""))
      (sheetpath (names /) (tstamps /))
      (tstamp 5BFAC4C0))
    (comp (ref L1)
      (value SK6812MINI)
      (footprint kbd:SK6812MINI_rev)
      (libsource (lib corne-cherry-rescue) (part SK6812MINI-kbd) (description ""))
      (sheetpath (names /) (tstamps /))
      (tstamp 5A774B99))
    (comp (ref L8)
      (value SK6812MINI)
      (footprint kbd:SK6812MINI_rev)
      (libsource (lib corne-cherry-rescue) (part SK6812MINI-kbd) (description ""))
      (sheetpath (names /) (tstamps /))
      (tstamp 5BFAC4C2))
    (comp (ref L9)
      (value SK6812MINI)
      (footprint kbd:SK6812MINI_rev)
      (libsource (lib corne-cherry-rescue) (part SK6812MINI-kbd) (description ""))
      (sheetpath (names /) (tstamps /))
      (tstamp 5BFAC4C3))
    (comp (ref L10)
      (value SK6812MINI)
      (footprint kbd:SK6812MINI_rev)
      (libsource (lib corne-cherry-rescue) (part SK6812MINI-kbd) (description ""))
      (sheetpath (names /) (tstamps /))
      (tstamp 5BFAC4C4))
    (comp (ref L11)
      (value SK6812MINI)
      (footprint kbd:SK6812MINI_rev)
      (libsource (lib corne-cherry-rescue) (part SK6812MINI-kbd) (description ""))
      (sheetpath (names /) (tstamps /))
      (tstamp 5BFAC4C5))
    (comp (ref L12)
      (value SK6812MINI)
      (footprint kbd:SK6812MINI_rev)
      (libsource (lib corne-cherry-rescue) (part SK6812MINI-kbd) (description ""))
      (sheetpath (names /) (tstamps /))
      (tstamp 5BFAC4C6))
    (comp (ref L7)
      (value SK6812MINI)
      (footprint kbd:SK6812MINI_rev)
      (libsource (lib corne-cherry-rescue) (part SK6812MINI-kbd) (description ""))
      (sheetpath (names /) (tstamps /))
      (tstamp 5A774F6C))
    (comp (ref L14)
      (value SK6812MINI)
      (footprint kbd:SK6812MINI_rev)
      (libsource (lib corne-cherry-rescue) (part SK6812MINI-kbd) (description ""))
      (sheetpath (names /) (tstamps /))
      (tstamp 5A775150))
    (comp (ref L15)
      (value SK6812MINI)
      (footprint kbd:SK6812MINI_rev)
      (libsource (lib corne-cherry-rescue) (part SK6812MINI-kbd) (description ""))
      (sheetpath (names /) (tstamps /))
      (tstamp 5A775156))
    (comp (ref L16)
      (value SK6812MINI)
      (footprint kbd:SK6812MINI_rev)
      (libsource (lib corne-cherry-rescue) (part SK6812MINI-kbd) (description ""))
      (sheetpath (names /) (tstamps /))
      (tstamp 5A77515C))
    (comp (ref L17)
      (value SK6812MINI)
      (footprint kbd:SK6812MINI_rev)
      (libsource (lib corne-cherry-rescue) (part SK6812MINI-kbd) (description ""))
      (sheetpath (names /) (tstamps /))
      (tstamp 5A775162))
    (comp (ref L18)
      (value SK6812MINI)
      (footprint kbd:SK6812MINI_rev)
      (libsource (lib corne-cherry-rescue) (part SK6812MINI-kbd) (description ""))
      (sheetpath (names /) (tstamps /))
      (tstamp 5A775168))
    (comp (ref L13)
      (value SK6812MINI)
      (footprint kbd:SK6812MINI_rev)
      (libsource (lib corne-cherry-rescue) (part SK6812MINI-kbd) (description ""))
      (sheetpath (names /) (tstamps /))
      (tstamp 5A77516E))
    (comp (ref L20)
      (value SK6812MINI)
      (footprint kbd:SK6812MINI_rev)
      (libsource (lib corne-cherry-rescue) (part SK6812MINI-kbd) (description ""))
      (sheetpath (names /) (tstamps /))
      (tstamp 5BFAC4CE))
    (comp (ref L21)
      (value SK6812MINI)
      (footprint kbd:SK6812MINI_rev)
      (libsource (lib corne-cherry-rescue) (part SK6812MINI-kbd) (description ""))
      (sheetpath (names /) (tstamps /))
      (tstamp 5A77517A))
    (comp (ref L19)
      (value SK6812MINI)
      (footprint kbd:SK6812MINI_rev)
      (libsource (lib corne-cherry-rescue) (part SK6812MINI-kbd) (description ""))
      (sheetpath (names /) (tstamps /))
      (tstamp 5BFAC4D0))
    (comp (ref L24)
      (value SK6812MINI)
      (footprint kbd:SK6812MINI_underglow_rev)
      (libsource (lib corne-cherry-rescue) (part SK6812MINI-kbd) (description ""))
      (sheetpath (names /) (tstamps /))
      (tstamp 5BFAC4D8))
    (comp (ref L23)
      (value SK6812MINI)
      (footprint kbd:SK6812MINI_underglow_rev)
      (libsource (lib corne-cherry-rescue) (part SK6812MINI-kbd) (description ""))
      (sheetpath (names /) (tstamps /))
      (tstamp 5BFAC4D9))
    (comp (ref L22)
      (value SK6812MINI)
      (footprint kbd:SK6812MINI_underglow_rev)
      (libsource (lib corne-cherry-rescue) (part SK6812MINI-kbd) (description ""))
      (sheetpath (names /) (tstamps /))
      (tstamp 5BFAC4DA))
    (comp (ref L27)
      (value SK6812MINI)
      (footprint kbd:SK6812MINI_underglow_rev)
      (libsource (lib corne-cherry-rescue) (part SK6812MINI-kbd) (description ""))
      (sheetpath (names /) (tstamps /))
      (tstamp 5AD78CF3))
    (comp (ref L26)
      (value SK6812MINI)
      (footprint kbd:SK6812MINI_underglow_rev)
      (libsource (lib corne-cherry-rescue) (part SK6812MINI-kbd) (description ""))
      (sheetpath (names /) (tstamps /))
      (tstamp 5BFAC4DC))
    (comp (ref L25)
      (value SK6812MINI)
      (footprint kbd:SK6812MINI_underglow_rev)
      (libsource (lib corne-cherry-rescue) (part SK6812MINI-kbd) (description ""))
      (sheetpath (names /) (tstamps /))
      (tstamp 5BFAC4DD))
    (comp (ref J1)
      (value LED)
      (footprint kbd:StripLED_rev)
      (libsource (lib corne-cherry-rescue) (part Conn_01x03-Connector_Generic) (description ""))
      (sheetpath (names /) (tstamps /))
      (tstamp 5ACCF3D8))
    (comp (ref BT_LEFT1)
      (value Device_Battery_Cell)
      (footprint redox_w_footprints:BatteryHolder_Keystone_3034_1x20mm)
      (libsource (lib redox_rev1-cache) (part Device_Battery_Cell) (description ""))
      (sheetpath (names /) (tstamps /))
      (tstamp 5C0219D5))
    (comp (ref U_RIGHT1)
      (value core51822b_Core51822B)
      (footprint redox_w_footprints:MY-YJ-14015-Module)
      (libsource (lib redox_rev1-cache) (part core51822b_Core51822B) (description ""))
      (sheetpath (names /) (tstamps /))
      (tstamp 5C022796))
    (comp (ref U_RIGHT2)
      (value core51822b_Core51822B)
      (footprint redox_w_footprints:MY-YJ-14015-Module)
      (libsource (lib redox_rev1-cache) (part core51822b_Core51822B) (description ""))
      (sheetpath (names /) (tstamps /))
      (tstamp 5C16E205))
    (comp (ref J_PROG_PORT1)
      (value Conn_01_X04_MALE)
      (footprint redox_w_footprints:PinHeader_1x04_P2.54mm_Horizontal)
      (libsource (lib redox_rev1-cache) (part Connector_Conn_01x04_Male) (description ""))
      (sheetpath (names /) (tstamps /))
      (tstamp 5C2EFD07))
    (comp (ref BT_RIGHT1)
      (value Device_Battery_Cell)
      (footprint redox_w_footprints:BatteryHolder_Keystone_3034_1x20mm)
      (libsource (lib redox_rev1-cache) (part Device_Battery_Cell) (description ""))
      (sheetpath (names /) (tstamps /))
      (tstamp 5C377512))
    (comp (ref SW_RIGHT1)
      (value Switch_SW_SPDT)
      (footprint redox_w_footprints:SW_SPDT_CK-JS102011SAQN)
      (libsource (lib redox_rev1-cache) (part Switch_SW_SPDT) (description ""))
      (sheetpath (names /) (tstamps /))
      (tstamp 5C3B3007))
    (comp (ref SW_LEFT1)
      (value Switch_SW_SPDT)
      (footprint redox_w_footprints:SW_SPDT_CK-JS102011SAQN)
      (libsource (lib redox_rev1-cache) (part Switch_SW_SPDT) (description ""))
      (sheetpath (names /) (tstamps /))
      (tstamp 5C3B3133)))
  (libparts
    (libpart (lib corne-cherry-rescue) (part Conn_01x03-Connector_Generic)
      (footprints
        (fp Connector*:*_1x??_*))
      (fields
        (field (name Reference) J)
        (field (name Value) Conn_01x03-Connector_Generic))
      (pins
        (pin (num 1) (name Pin_1) (type passive))
        (pin (num 2) (name Pin_2) (type passive))
        (pin (num 3) (name Pin_3) (type passive))))
    (libpart (lib corne-cherry-rescue) (part D-Device)
      (footprints
        (fp TO-???*)
        (fp *_Diode_*)
        (fp *SingleDiode*)
        (fp D_*))
      (fields
        (field (name Reference) D)
        (field (name Value) D-Device))
      (pins
        (pin (num 1) (name K) (type passive))
        (pin (num 2) (name A) (type passive))))
    (libpart (lib corne-cherry-rescue) (part SK6812MINI-kbd)
      (fields
        (field (name Reference) L)
        (field (name Value) SK6812MINI-kbd))
      (pins
        (pin (num 1) (name DOUT) (type output))
        (pin (num 2) (name VSS) (type power_in))
        (pin (num 3) (name DIN) (type input))
        (pin (num 4) (name VDD) (type power_in))))
    (libpart (lib corne-cherry-rescue) (part SW_PUSH-kbd)
      (fields
        (field (name Reference) SW)
        (field (name Value) SW_PUSH-kbd))
      (pins
        (pin (num 1) (name 1) (type passive))
        (pin (num 2) (name 2) (type passive))))
    (libpart (lib redox_rev1-cache) (part Connector_Conn_01x04_Male)
      (footprints
        (fp Connector*:*_1x??_*))
      (fields
        (field (name Reference) J)
        (field (name Value) Connector_Conn_01x04_Male))
      (pins
        (pin (num 1) (name Pin_1) (type passive))
        (pin (num 2) (name Pin_2) (type passive))
        (pin (num 3) (name Pin_3) (type passive))
        (pin (num 4) (name Pin_4) (type passive))))
    (libpart (lib redox_rev1-cache) (part Device_Battery_Cell)
      (fields
        (field (name Reference) BT)
        (field (name Value) Device_Battery_Cell))
      (pins
        (pin (num 1) (name +) (type passive))
        (pin (num 2) (name -) (type passive))))
    (libpart (lib redox_rev1-cache) (part Switch_SW_SPDT)
      (fields
        (field (name Reference) SW)
        (field (name Value) Switch_SW_SPDT))
      (pins
        (pin (num 1) (name A) (type passive))
        (pin (num 2) (name B) (type passive))
        (pin (num 3) (name C) (type passive))))
    (libpart (lib redox_rev1-cache) (part core51822b_Core51822B)
      (fields
        (field (name Reference) U)
        (field (name Value) core51822b_Core51822B))
      (pins
        (pin (num 1) (name GND) (type BiDi))
        (pin (num 2) (name P21) (type BiDi))
        (pin (num 3) (name P22) (type BiDi))
        (pin (num 4) (name P23) (type BiDi))
        (pin (num 5) (name P24) (type BiDi))
        (pin (num 6) (name P25) (type BiDi))
        (pin (num 7) (name NC) (type BiDi))
        (pin (num 8) (name NC) (type BiDi))
        (pin (num 9) (name P28) (type BiDi))
        (pin (num 10) (name P29) (type BiDi))
        (pin (num 11) (name GND) (type BiDi))
        (pin (num 12) (name VCC) (type BiDi))
        (pin (num 13) (name P30) (type BiDi))
        (pin (num 14) (name P00) (type BiDi))
        (pin (num 15) (name P01) (type BiDi))
        (pin (num 16) (name P02) (type BiDi))
        (pin (num 17) (name P03) (type BiDi))
        (pin (num 18) (name P04) (type BiDi))
        (pin (num 19) (name P05) (type BiDi))
        (pin (num 20) (name P06) (type BiDi))
        (pin (num 21) (name P07) (type BiDi))
        (pin (num 22) (name P08) (type BiDi))
        (pin (num 23) (name P09) (type BiDi))
        (pin (num 24) (name P10) (type BiDi))
        (pin (num 25) (name P11) (type BiDi))
        (pin (num 26) (name P12) (type BiDi))
        (pin (num 27) (name P13) (type BiDi))
        (pin (num 28) (name P14) (type BiDi))
        (pin (num 29) (name P15) (type BiDi))
        (pin (num 30) (name P16) (type BiDi))
        (pin (num 31) (name SWDIO) (type BiDi))
        (pin (num 32) (name SWCLK) (type BiDi))
        (pin (num 33) (name P17) (type BiDi))
        (pin (num 34) (name P18) (type BiDi))
        (pin (num 35) (name P19) (type BiDi))
        (pin (num 36) (name P20) (type BiDi)))))
  (libraries
    (library (logical corne-cherry-rescue)
      (uri /home/casper/projects/keybs/Symbols/corne-cherry-rescue.lib))
    (library (logical redox_rev1-cache)
      (uri /home/casper/projects/keybs/redox-keyboard/redox-w/pcb/rev1.0W/kicad_files/redox_rev1-cache.lib)))
  (nets
    (net (code 1) (name GND)
      (node (ref L5) (pin 2))
      (node (ref L23) (pin 2))
      (node (ref BT_RIGHT1) (pin 2))
      (node (ref L11) (pin 2))
      (node (ref L6) (pin 2))
      (node (ref L10) (pin 2))
      (node (ref L9) (pin 2))
      (node (ref L4) (pin 2))
      (node (ref L3) (pin 2))
      (node (ref L1) (pin 2))
      (node (ref L2) (pin 2))
      (node (ref L24) (pin 2))
      (node (ref L8) (pin 2))
      (node (ref J1) (pin 1))
      (node (ref L27) (pin 2))
      (node (ref J_PROG_PORT1) (pin 4))
      (node (ref L21) (pin 2))
      (node (ref L22) (pin 2))
      (node (ref L26) (pin 2))
      (node (ref L19) (pin 2))
      (node (ref L17) (pin 2))
      (node (ref L12) (pin 2))
      (node (ref L16) (pin 2))
      (node (ref L15) (pin 2))
      (node (ref U_RIGHT2) (pin 11))
      (node (ref U_RIGHT1) (pin 11))
      (node (ref L7) (pin 2))
      (node (ref BT_LEFT1) (pin 2))
      (node (ref L14) (pin 2))
      (node (ref L18) (pin 2))
      (node (ref U_RIGHT1) (pin 1))
      (node (ref L13) (pin 2))
      (node (ref L25) (pin 2))
      (node (ref U_RIGHT2) (pin 1))
      (node (ref L20) (pin 2)))
    (net (code 2) (name LED)
      (node (ref L24) (pin 3))
      (node (ref J1) (pin 2)))
    (net (code 3) (name "Net-(L25-Pad1)")
      (node (ref L25) (pin 1))
      (node (ref L26) (pin 3)))
    (net (code 4) (name "Net-(L23-Pad3)")
      (node (ref L23) (pin 3))
      (node (ref L24) (pin 1)))
    (net (code 5) (name "Net-(L22-Pad3)")
      (node (ref L22) (pin 3))
      (node (ref L23) (pin 1)))
    (net (code 6) (name "Net-(L22-Pad1)")
      (node (ref L22) (pin 1))
      (node (ref L25) (pin 3)))
    (net (code 7) (name "Net-(L26-Pad1)")
      (node (ref L26) (pin 1))
      (node (ref L27) (pin 3)))
    (net (code 8) (name "Net-(L21-Pad3)")
      (node (ref L21) (pin 3))
      (node (ref L27) (pin 1)))
    (net (code 9) (name VCC)
      (node (ref L23) (pin 4))
      (node (ref U_RIGHT2) (pin 12))
      (node (ref U_RIGHT1) (pin 12))
      (node (ref L8) (pin 4))
      (node (ref L24) (pin 4))
      (node (ref L1) (pin 4))
      (node (ref L6) (pin 4))
      (node (ref L27) (pin 4))
      (node (ref L14) (pin 4))
      (node (ref L12) (pin 4))
      (node (ref L7) (pin 4))
      (node (ref L22) (pin 4))
      (node (ref L15) (pin 4))
      (node (ref L16) (pin 4))
      (node (ref L19) (pin 4))
      (node (ref L3) (pin 4))
      (node (ref L10) (pin 4))
      (node (ref L11) (pin 4))
      (node (ref L2) (pin 4))
      (node (ref L9) (pin 4))
      (node (ref L4) (pin 4))
      (node (ref L5) (pin 4))
      (node (ref L17) (pin 4))
      (node (ref L25) (pin 4))
      (node (ref L18) (pin 4))
      (node (ref L13) (pin 4))
      (node (ref L26) (pin 4))
      (node (ref L20) (pin 4))
      (node (ref L21) (pin 4))
      (node (ref J1) (pin 3))
      (node (ref SW_RIGHT1) (pin 1))
      (node (ref SW_LEFT1) (pin 1))
      (node (ref J_PROG_PORT1) (pin 1)))
    (net (code 10) (name "Net-(BT_RIGHT1-Pad1)")
      (node (ref BT_RIGHT1) (pin 1))
      (node (ref SW_RIGHT1) (pin 2)))
    (net (code 11) (name "Net-(SW_RIGHT1-Pad3)")
      (node (ref SW_RIGHT1) (pin 3)))
    (net (code 12) (name "Net-(BT_LEFT1-Pad1)")
      (node (ref SW_LEFT1) (pin 2))
      (node (ref BT_LEFT1) (pin 1)))
    (net (code 13) (name "Net-(SW_LEFT1-Pad3)")
      (node (ref SW_LEFT1) (pin 3)))
    (net (code 14) (name "Net-(U_RIGHT2-Pad26)")
      (node (ref U_RIGHT2) (pin 26)))
    (net (code 15) (name "Net-(U_RIGHT2-Pad25)")
      (node (ref U_RIGHT2) (pin 25)))
    (net (code 16) (name "Net-(U_RIGHT2-Pad29)")
      (node (ref U_RIGHT2) (pin 29)))
    (net (code 17) (name "Net-(U_RIGHT2-Pad30)")
      (node (ref U_RIGHT2) (pin 30)))
    (net (code 18) (name "Net-(U_RIGHT2-Pad36)")
      (node (ref U_RIGHT2) (pin 36)))
    (net (code 19) (name "Net-(U_RIGHT2-Pad2)")
      (node (ref U_RIGHT2) (pin 2)))
    (net (code 20) (name SWCLK)
      (node (ref J_PROG_PORT1) (pin 2))
      (node (ref U_RIGHT2) (pin 32))
      (node (ref U_RIGHT1) (pin 32)))
    (net (code 21) (name SWDIO)
      (node (ref J_PROG_PORT1) (pin 3))
      (node (ref U_RIGHT1) (pin 31))
      (node (ref U_RIGHT2) (pin 31)))
    (net (code 22) (name "Net-(U_RIGHT1-Pad3)")
      (node (ref U_RIGHT1) (pin 3)))
    (net (code 23) (name "Net-(U_RIGHT1-Pad29)")
      (node (ref U_RIGHT1) (pin 29)))
    (net (code 24) (name "Net-(U_RIGHT1-Pad30)")
      (node (ref U_RIGHT1) (pin 30)))
    (net (code 25) (name "Net-(U_RIGHT1-Pad33)")
      (node (ref U_RIGHT1) (pin 33)))
    (net (code 26) (name "Net-(U_RIGHT1-Pad34)")
      (node (ref U_RIGHT1) (pin 34)))
    (net (code 27) (name "Net-(U_RIGHT1-Pad35)")
      (node (ref U_RIGHT1) (pin 35)))
    (net (code 28) (name "Net-(U_RIGHT1-Pad36)")
      (node (ref U_RIGHT1) (pin 36)))
    (net (code 29) (name "Net-(U_RIGHT1-Pad9)")
      (node (ref U_RIGHT1) (pin 9)))
    (net (code 30) (name "Net-(U_RIGHT1-Pad28)")
      (node (ref U_RIGHT1) (pin 28)))
    (net (code 31) (name "Net-(U_RIGHT1-Pad4)")
      (node (ref U_RIGHT1) (pin 4)))
    (net (code 32) (name "Net-(U_RIGHT1-Pad15)")
      (node (ref U_RIGHT1) (pin 15)))
    (net (code 35) (name "Net-(U_RIGHT2-Pad22)")
      (node (ref U_RIGHT2) (pin 22)))
    (net (code 36) (name "Net-(U_RIGHT2-Pad3)")
      (node (ref U_RIGHT2) (pin 3)))
    (net (code 37) (name "Net-(U_RIGHT2-Pad4)")
      (node (ref U_RIGHT2) (pin 4)))
    (net (code 38) (name "Net-(U_RIGHT2-Pad5)")
      (node (ref U_RIGHT2) (pin 5)))
    (net (code 39) (name "Net-(U_RIGHT2-Pad6)")
      (node (ref U_RIGHT2) (pin 6)))
    (net (code 40) (name "Net-(U_RIGHT2-Pad7)")
      (node (ref U_RIGHT2) (pin 7)))
    (net (code 41) (name "Net-(U_RIGHT2-Pad8)")
      (node (ref U_RIGHT2) (pin 8)))
    (net (code 42) (name "Net-(U_RIGHT2-Pad9)")
      (node (ref U_RIGHT2) (pin 9)))
    (net (code 43) (name "Net-(U_RIGHT2-Pad10)")
      (node (ref U_RIGHT2) (pin 10)))
    (net (code 44) (name "Net-(U_RIGHT2-Pad16)")
      (node (ref U_RIGHT2) (pin 16)))
    (net (code 45) (name "Net-(U_RIGHT2-Pad17)")
      (node (ref U_RIGHT2) (pin 17)))
    (net (code 46) (name "Net-(U_RIGHT1-Pad5)")
      (node (ref U_RIGHT1) (pin 5)))
    (net (code 47) (name "Net-(U_RIGHT1-Pad6)")
      (node (ref U_RIGHT1) (pin 6)))
    (net (code 48) (name "Net-(U_RIGHT1-Pad7)")
      (node (ref U_RIGHT1) (pin 7)))
    (net (code 49) (name "Net-(U_RIGHT1-Pad8)")
      (node (ref U_RIGHT1) (pin 8)))
    (net (code 50) (name "Net-(U_RIGHT1-Pad10)")
      (node (ref U_RIGHT1) (pin 10)))
    (net (code 51) (name "Net-(U_RIGHT1-Pad20)")
      (node (ref U_RIGHT1) (pin 20)))
    (net (code 52) (name "Net-(U_RIGHT1-Pad21)")
      (node (ref U_RIGHT1) (pin 21)))
    (net (code 53) (name "Net-(U_RIGHT1-Pad25)")
      (node (ref U_RIGHT1) (pin 25)))
    (net (code 54) (name "Net-(U_RIGHT1-Pad26)")
      (node (ref U_RIGHT1) (pin 26)))
    (net (code 55) (name "Net-(U_RIGHT1-Pad27)")
      (node (ref U_RIGHT1) (pin 27)))
    (net (code 56) (name row3)
      (node (ref U_RIGHT1) (pin 22))
      (node (ref D20) (pin 1))
      (node (ref D19) (pin 1))
      (node (ref U_RIGHT2) (pin 15))
      (node (ref D21) (pin 1)))
    (net (code 57) (name col1)
      (node (ref SW2) (pin 1))
      (node (ref SW8) (pin 1))
      (node (ref SW14) (pin 1))
      (node (ref U_RIGHT1) (pin 14))
      (node (ref U_RIGHT2) (pin 23)))
    (net (code 58) (name col0)
      (node (ref SW13) (pin 1))
      (node (ref SW1) (pin 1))
      (node (ref SW7) (pin 1))
      (node (ref U_RIGHT2) (pin 24))
      (node (ref U_RIGHT1) (pin 13)))
    (net (code 59) (name "Net-(U_RIGHT2-Pad27)")
      (node (ref U_RIGHT2) (pin 27)))
    (net (code 60) (name "Net-(U_RIGHT2-Pad28)")
      (node (ref U_RIGHT2) (pin 28)))
    (net (code 61) (name col2)
      (node (ref U_RIGHT1) (pin 16))
      (node (ref SW15) (pin 1))
      (node (ref SW9) (pin 1))
      (node (ref U_RIGHT2) (pin 21))
      (node (ref SW3) (pin 1)))
    (net (code 62) (name "Net-(U_RIGHT2-Pad33)")
      (node (ref U_RIGHT2) (pin 33)))
    (net (code 63) (name "Net-(U_RIGHT2-Pad34)")
      (node (ref U_RIGHT2) (pin 34)))
    (net (code 64) (name row0)
      (node (ref D6) (pin 1))
      (node (ref D5) (pin 1))
      (node (ref D2) (pin 1))
      (node (ref D3) (pin 1))
      (node (ref D4) (pin 1))
      (node (ref U_RIGHT1) (pin 2))
      (node (ref U_RIGHT2) (pin 35))
      (node (ref D1) (pin 1)))
    (net (code 65) (name row1)
      (node (ref D7) (pin 1))
      (node (ref D10) (pin 1))
      (node (ref D11) (pin 1))
      (node (ref D9) (pin 1))
      (node (ref D12) (pin 1))
      (node (ref D8) (pin 1))
      (node (ref U_RIGHT2) (pin 13))
      (node (ref U_RIGHT1) (pin 24)))
    (net (code 66) (name row2)
      (node (ref D15) (pin 1))
      (node (ref D14) (pin 1))
      (node (ref D16) (pin 1))
      (node (ref D17) (pin 1))
      (node (ref D18) (pin 1))
      (node (ref D13) (pin 1))
      (node (ref U_RIGHT2) (pin 14))
      (node (ref U_RIGHT1) (pin 23)))
    (net (code 67) (name col5)
      (node (ref U_RIGHT2) (pin 18))
      (node (ref SW21) (pin 1))
      (node (ref SW12) (pin 1))
      (node (ref U_RIGHT1) (pin 19))
      (node (ref SW18) (pin 1))
      (node (ref SW6) (pin 1)))
    (net (code 68) (name col4)
      (node (ref U_RIGHT1) (pin 18))
      (node (ref SW20) (pin 1))
      (node (ref U_RIGHT2) (pin 19))
      (node (ref SW11) (pin 1))
      (node (ref SW5) (pin 1))
      (node (ref SW17) (pin 1)))
    (net (code 69) (name col3)
      (node (ref SW10) (pin 1))
      (node (ref SW4) (pin 1))
      (node (ref U_RIGHT1) (pin 17))
      (node (ref U_RIGHT2) (pin 20))
      (node (ref SW16) (pin 1))
      (node (ref SW19) (pin 1)))
    (net (code 70) (name "Net-(L2-Pad3)")
      (node (ref L8) (pin 1))
      (node (ref L2) (pin 3)))
    (net (code 71) (name "Net-(L3-Pad1)")
      (node (ref L9) (pin 3))
      (node (ref L3) (pin 1)))
    (net (code 72) (name "Net-(L10-Pad1)")
      (node (ref L10) (pin 1))
      (node (ref L4) (pin 3)))
    (net (code 73) (name "Net-(L11-Pad3)")
      (node (ref L5) (pin 1))
      (node (ref L11) (pin 3)))
    (net (code 74) (name "Net-(L1-Pad3)")
      (node (ref L2) (pin 1))
      (node (ref L1) (pin 3)))
    (net (code 75) (name "Net-(L12-Pad1)")
      (node (ref L12) (pin 1))
      (node (ref L6) (pin 3)))
    (net (code 76) (name "Net-(L3-Pad3)")
      (node (ref L3) (pin 3))
      (node (ref L4) (pin 1)))
    (net (code 77) (name "Net-(L5-Pad3)")
      (node (ref L5) (pin 3))
      (node (ref L6) (pin 1)))
    (net (code 78) (name "Net-(L17-Pad1)")
      (node (ref L20) (pin 3))
      (node (ref L17) (pin 1)))
    (net (code 79) (name "Net-(L12-Pad3)")
      (node (ref L18) (pin 1))
      (node (ref L12) (pin 3)))
    (net (code 80) (name "Net-(L13-Pad1)")
      (node (ref L13) (pin 1)))
    (net (code 81) (name "Net-(L13-Pad3)")
      (node (ref L7) (pin 1))
      (node (ref L13) (pin 3)))
    (net (code 82) (name "Net-(L19-Pad3)")
      (node (ref L19) (pin 3))
      (node (ref L20) (pin 1)))
    (net (code 83) (name "Net-(L11-Pad1)")
      (node (ref L17) (pin 3))
      (node (ref L11) (pin 1)))
    (net (code 84) (name "Net-(L18-Pad3)")
      (node (ref L18) (pin 3))
      (node (ref L21) (pin 1)))
    (net (code 85) (name "Net-(L1-Pad1)")
      (node (ref L1) (pin 1))
      (node (ref L7) (pin 3)))
    (net (code 86) (name "Net-(L14-Pad1)")
      (node (ref L14) (pin 1))
      (node (ref L8) (pin 3)))
    (net (code 87) (name "Net-(L14-Pad3)")
      (node (ref L14) (pin 3))
      (node (ref L15) (pin 1)))
    (net (code 88) (name "Net-(L10-Pad3)")
      (node (ref L10) (pin 3))
      (node (ref L16) (pin 1)))
    (net (code 89) (name "Net-(D1-Pad2)")
      (node (ref D1) (pin 2))
      (node (ref SW1) (pin 2)))
    (net (code 90) (name "Net-(D8-Pad2)")
      (node (ref D8) (pin 2))
      (node (ref SW8) (pin 2)))
    (net (code 91) (name "Net-(D9-Pad2)")
      (node (ref D9) (pin 2))
      (node (ref SW9) (pin 2)))
    (net (code 92) (name "Net-(D10-Pad2)")
      (node (ref SW10) (pin 2))
      (node (ref D10) (pin 2)))
    (net (code 93) (name "Net-(D11-Pad2)")
      (node (ref D11) (pin 2))
      (node (ref SW11) (pin 2)))
    (net (code 94) (name "Net-(D12-Pad2)")
      (node (ref D12) (pin 2))
      (node (ref SW12) (pin 2)))
    (net (code 95) (name "Net-(D5-Pad2)")
      (node (ref SW5) (pin 2))
      (node (ref D5) (pin 2)))
    (net (code 96) (name "Net-(D2-Pad2)")
      (node (ref SW2) (pin 2))
      (node (ref D2) (pin 2)))
    (net (code 97) (name "Net-(D3-Pad2)")
      (node (ref SW3) (pin 2))
      (node (ref D3) (pin 2)))
    (net (code 98) (name "Net-(D4-Pad2)")
      (node (ref D4) (pin 2))
      (node (ref SW4) (pin 2)))
    (net (code 99) (name "Net-(D7-Pad2)")
      (node (ref SW7) (pin 2))
      (node (ref D7) (pin 2)))
    (net (code 100) (name "Net-(D6-Pad2)")
      (node (ref SW6) (pin 2))
      (node (ref D6) (pin 2)))
    (net (code 101) (name "Net-(D13-Pad2)")
      (node (ref SW13) (pin 2))
      (node (ref D13) (pin 2)))
    (net (code 102) (name "Net-(D20-Pad2)")
      (node (ref SW20) (pin 2))
      (node (ref D20) (pin 2)))
    (net (code 103) (name "Net-(D21-Pad2)")
      (node (ref D21) (pin 2))
      (node (ref SW21) (pin 2)))
    (net (code 104) (name "Net-(D18-Pad2)")
      (node (ref D18) (pin 2))
      (node (ref SW18) (pin 2)))
    (net (code 105) (name "Net-(D19-Pad2)")
      (node (ref D19) (pin 2))
      (node (ref SW19) (pin 2)))
    (net (code 106) (name "Net-(D14-Pad2)")
      (node (ref D14) (pin 2))
      (node (ref SW14) (pin 2)))
    (net (code 107) (name "Net-(D15-Pad2)")
      (node (ref D15) (pin 2))
      (node (ref SW15) (pin 2)))
    (net (code 108) (name "Net-(D16-Pad2)")
      (node (ref D16) (pin 2))
      (node (ref SW16) (pin 2)))
    (net (code 109) (name "Net-(D17-Pad2)")
      (node (ref D17) (pin 2))
      (node (ref SW17) (pin 2)))
    (net (code 110) (name "Net-(L15-Pad3)")
      (node (ref L9) (pin 1))
      (node (ref L15) (pin 3)))
    (net (code 111) (name "Net-(L16-Pad3)")
      (node (ref L16) (pin 3))
      (node (ref L19) (pin 1)))))