EESchema Schematic File Version 4
LIBS:corne-cherry-cache
LIBS:new-cache
EELAYER 26 0
EELAYER END
$Descr A4 11693 8268
encoding utf-8
Sheet 1 1
Title "Corne Cherry"
Date "2018-08-25"
Rev "2.0"
Comp "foostan"
Comment1 ""
Comment2 ""
Comment3 ""
Comment4 ""
$EndDescr
$Comp
L corne-cherry-rescue:SW_PUSH-kbd SW8
U 1 1 5C1425EB
P 6100 300
F 0 "SW8" H 6250 410 50  0000 C CNN
F 1 "SW_PUSH" H 6100 220 50  0000 C CNN
F 2 "kbd:CherryMX_Hotswap" H 6100 300 50  0001 C CNN
F 3 "" H 6100 300 50  0000 C CNN
	1    6100 300 
	1    0    0    -1  
$EndComp
$Comp
L corne-cherry-rescue:D-Device D8
U 1 1 5C1425EC
P 6400 450
F 0 "D8" H 6400 550 50  0000 C CNN
F 1 "D" H 6400 350 50  0000 C CNN
F 2 "kbd:D3_TH_SMD" H 6400 450 50  0001 C CNN
F 3 "" H 6400 450 50  0001 C CNN
	1    6400 450 
	0    -1   -1   0   
$EndComp
$Comp
L corne-cherry-rescue:SW_PUSH-kbd SW13
U 1 1 5A5E27F9
P 6800 300
F 0 "SW13" H 6950 410 50  0000 C CNN
F 1 "SW_PUSH" H 6800 220 50  0000 C CNN
F 2 "kbd:CherryMX_Hotswap" H 6800 300 50  0001 C CNN
F 3 "" H 6800 300 50  0000 C CNN
	1    6800 300 
	1    0    0    -1  
$EndComp
$Comp
L corne-cherry-rescue:D-Device D13
U 1 1 5A5E281F
P 7100 450
F 0 "D13" H 7100 550 50  0000 C CNN
F 1 "D" H 7100 350 50  0000 C CNN
F 2 "kbd:D3_TH_SMD" H 7100 450 50  0001 C CNN
F 3 "" H 7100 450 50  0001 C CNN
	1    7100 450 
	0    -1   -1   0   
$EndComp
$Comp
L corne-cherry-rescue:SW_PUSH-kbd SW20
U 1 1 5C1425EF
P 7500 300
F 0 "SW20" H 7650 410 50  0000 C CNN
F 1 "SW_PUSH" H 7500 220 50  0000 C CNN
F 2 "kbd:CherryMX_Hotswap" H 7500 300 50  0001 C CNN
F 3 "" H 7500 300 50  0000 C CNN
	1    7500 300 
	1    0    0    -1  
$EndComp
$Comp
L corne-cherry-rescue:SW_PUSH-kbd SW27
U 1 1 5A5E2933
P 8200 300
F 0 "SW27" H 8350 410 50  0000 C CNN
F 1 "SW_PUSH" H 8200 220 50  0000 C CNN
F 2 "kbd:CherryMX_Hotswap" H 8200 300 50  0001 C CNN
F 3 "" H 8200 300 50  0000 C CNN
	1    8200 300 
	1    0    0    -1  
$EndComp
$Comp
L corne-cherry-rescue:SW_PUSH-kbd SW36
U 1 1 5C1425F1
P 8900 300
F 0 "SW36" H 9050 410 50  0000 C CNN
F 1 "SW_PUSH" H 8900 220 50  0000 C CNN
F 2 "kbd:CherryMX_Hotswap" H 8900 300 50  0001 C CNN
F 3 "" H 8900 300 50  0000 C CNN
	1    8900 300 
	1    0    0    -1  
$EndComp
$Comp
L corne-cherry-rescue:D-Device D19
U 1 1 5A5E29BF
P 7800 450
F 0 "D19" H 7800 550 50  0000 C CNN
F 1 "D" H 7800 350 50  0000 C CNN
F 2 "kbd:D3_TH_SMD" H 7800 450 50  0001 C CNN
F 3 "" H 7800 450 50  0001 C CNN
	1    7800 450 
	0    -1   -1   0   
$EndComp
$Comp
L corne-cherry-rescue:D-Device D28
U 1 1 5C1425F3
P 8500 450
F 0 "D28" H 8500 550 50  0000 C CNN
F 1 "D" H 8500 350 50  0000 C CNN
F 2 "kbd:D3_TH_SMD" H 8500 450 50  0001 C CNN
F 3 "" H 8500 450 50  0001 C CNN
	1    8500 450 
	0    -1   -1   0   
$EndComp
$Comp
L corne-cherry-rescue:D-Device D35
U 1 1 5A5E2A33
P 9200 450
F 0 "D35" H 9200 550 50  0000 C CNN
F 1 "D" H 9200 350 50  0000 C CNN
F 2 "kbd:D3_TH_SMD" H 9200 450 50  0001 C CNN
F 3 "" H 9200 450 50  0001 C CNN
	1    9200 450 
	0    -1   -1   0   
$EndComp
$Comp
L corne-cherry-rescue:D-Device D2
U 1 1 5C1425F6
P 5700 450
F 0 "D2" H 5700 550 50  0000 C CNN
F 1 "D" H 5700 350 50  0000 C CNN
F 2 "kbd:D3_TH_SMD" H 5700 450 50  0001 C CNN
F 3 "" H 5700 450 50  0001 C CNN
	1    5700 450 
	0    -1   -1   0   
$EndComp
$Comp
L corne-cherry-rescue:SW_PUSH-kbd SW10
U 1 1 5C1425F7
P 6100 900
F 0 "SW10" H 6250 1010 50  0000 C CNN
F 1 "SW_PUSH" H 6100 820 50  0000 C CNN
F 2 "kbd:CherryMX_Hotswap" H 6100 900 50  0001 C CNN
F 3 "" H 6100 900 50  0000 C CNN
	1    6100 900 
	1    0    0    -1  
$EndComp
$Comp
L corne-cherry-rescue:D-Device D9
U 1 1 5A5E2D2C
P 6400 1050
F 0 "D9" H 6400 1150 50  0000 C CNN
F 1 "D" H 6400 950 50  0000 C CNN
F 2 "kbd:D3_TH_SMD" H 6400 1050 50  0001 C CNN
F 3 "" H 6400 1050 50  0001 C CNN
	1    6400 1050
	0    -1   -1   0   
$EndComp
$Comp
L corne-cherry-rescue:SW_PUSH-kbd SW15
U 1 1 5A5E2D32
P 6800 900
F 0 "SW15" H 6950 1010 50  0000 C CNN
F 1 "SW_PUSH" H 6800 820 50  0000 C CNN
F 2 "kbd:CherryMX_Hotswap" H 6800 900 50  0001 C CNN
F 3 "" H 6800 900 50  0000 C CNN
	1    6800 900 
	1    0    0    -1  
$EndComp
$Comp
L corne-cherry-rescue:D-Device D15
U 1 1 5A5E2D38
P 7100 1050
F 0 "D15" H 7100 1150 50  0000 C CNN
F 1 "D" H 7100 950 50  0000 C CNN
F 2 "kbd:D3_TH_SMD" H 7100 1050 50  0001 C CNN
F 3 "" H 7100 1050 50  0001 C CNN
	1    7100 1050
	0    -1   -1   0   
$EndComp
$Comp
L corne-cherry-rescue:SW_PUSH-kbd SW22
U 1 1 5C1425FB
P 7500 900
F 0 "SW22" H 7650 1010 50  0000 C CNN
F 1 "SW_PUSH" H 7500 820 50  0000 C CNN
F 2 "kbd:CherryMX_Hotswap" H 7500 900 50  0001 C CNN
F 3 "" H 7500 900 50  0000 C CNN
	1    7500 900 
	1    0    0    -1  
$EndComp
$Comp
L corne-cherry-rescue:SW_PUSH-kbd SW29
U 1 1 5A5E2D44
P 8200 900
F 0 "SW29" H 8350 1010 50  0000 C CNN
F 1 "SW_PUSH" H 8200 820 50  0000 C CNN
F 2 "kbd:CherryMX_Hotswap" H 8200 900 50  0001 C CNN
F 3 "" H 8200 900 50  0000 C CNN
	1    8200 900 
	1    0    0    -1  
$EndComp
$Comp
L corne-cherry-rescue:SW_PUSH-kbd SW37
U 1 1 5A5E2D4A
P 8900 900
F 0 "SW37" H 9050 1010 50  0000 C CNN
F 1 "SW_PUSH" H 8900 820 50  0000 C CNN
F 2 "kbd:CherryMX_Hotswap" H 8900 900 50  0001 C CNN
F 3 "" H 8900 900 50  0000 C CNN
	1    8900 900 
	1    0    0    -1  
$EndComp
$Comp
L corne-cherry-rescue:D-Device D22
U 1 1 5C1425FE
P 7800 1050
F 0 "D22" H 7800 1150 50  0000 C CNN
F 1 "D" H 7800 950 50  0000 C CNN
F 2 "kbd:D3_TH_SMD" H 7800 1050 50  0001 C CNN
F 3 "" H 7800 1050 50  0001 C CNN
	1    7800 1050
	0    -1   -1   0   
$EndComp
$Comp
L corne-cherry-rescue:D-Device D30
U 1 1 5C1425FF
P 8500 1050
F 0 "D30" H 8500 1150 50  0000 C CNN
F 1 "D" H 8500 950 50  0000 C CNN
F 2 "kbd:D3_TH_SMD" H 8500 1050 50  0001 C CNN
F 3 "" H 8500 1050 50  0001 C CNN
	1    8500 1050
	0    -1   -1   0   
$EndComp
$Comp
L corne-cherry-rescue:D-Device D38
U 1 1 5C142600
P 9200 1050
F 0 "D38" H 9200 1150 50  0000 C CNN
F 1 "D" H 9200 950 50  0000 C CNN
F 2 "kbd:D3_TH_SMD" H 9200 1050 50  0001 C CNN
F 3 "" H 9200 1050 50  0001 C CNN
	1    9200 1050
	0    -1   -1   0   
$EndComp
$Comp
L corne-cherry-rescue:SW_PUSH-kbd SW3
U 1 1 5A5E2D6E
P 5400 900
F 0 "SW3" H 5550 1010 50  0000 C CNN
F 1 "SW_PUSH" H 5400 820 50  0000 C CNN
F 2 "kbd:CherryMX_Hotswap" H 5400 900 50  0001 C CNN
F 3 "" H 5400 900 50  0000 C CNN
	1    5400 900 
	1    0    0    -1  
$EndComp
$Comp
L corne-cherry-rescue:D-Device D3
U 1 1 5A5E2D74
P 5700 1050
F 0 "D3" H 5700 1150 50  0000 C CNN
F 1 "D" H 5700 950 50  0000 C CNN
F 2 "kbd:D3_TH_SMD" H 5700 1050 50  0001 C CNN
F 3 "" H 5700 1050 50  0001 C CNN
	1    5700 1050
	0    -1   -1   0   
$EndComp
$Comp
L corne-cherry-rescue:SW_PUSH-kbd SW12
U 1 1 5C142603
P 6100 1500
F 0 "SW12" H 6250 1610 50  0000 C CNN
F 1 "SW_PUSH" H 6100 1420 50  0000 C CNN
F 2 "kbd:CherryMX_Hotswap" H 6100 1500 50  0001 C CNN
F 3 "" H 6100 1500 50  0000 C CNN
	1    6100 1500
	1    0    0    -1  
$EndComp
$Comp
L corne-cherry-rescue:D-Device D11
U 1 1 5A5E35B7
P 6400 1650
F 0 "D11" H 6400 1750 50  0000 C CNN
F 1 "D" H 6400 1550 50  0000 C CNN
F 2 "kbd:D3_TH_SMD" H 6400 1650 50  0001 C CNN
F 3 "" H 6400 1650 50  0001 C CNN
	1    6400 1650
	0    -1   -1   0   
$EndComp
$Comp
L corne-cherry-rescue:SW_PUSH-kbd SW17
U 1 1 5A5E35BD
P 6800 1500
F 0 "SW17" H 6950 1610 50  0000 C CNN
F 1 "SW_PUSH" H 6800 1420 50  0000 C CNN
F 2 "kbd:CherryMX_Hotswap" H 6800 1500 50  0001 C CNN
F 3 "" H 6800 1500 50  0000 C CNN
	1    6800 1500
	1    0    0    -1  
$EndComp
$Comp
L corne-cherry-rescue:D-Device D17
U 1 1 5A5E35C3
P 7100 1650
F 0 "D17" H 7100 1750 50  0000 C CNN
F 1 "D" H 7100 1550 50  0000 C CNN
F 2 "kbd:D3_TH_SMD" H 7100 1650 50  0001 C CNN
F 3 "" H 7100 1650 50  0001 C CNN
	1    7100 1650
	0    -1   -1   0   
$EndComp
$Comp
L corne-cherry-rescue:SW_PUSH-kbd SW31
U 1 1 5A5E35CF
P 8200 1500
F 0 "SW31" H 8350 1610 50  0000 C CNN
F 1 "SW_PUSH" H 8200 1420 50  0000 C CNN
F 2 "kbd:CherryMX_Hotswap" H 8200 1500 50  0001 C CNN
F 3 "" H 8200 1500 50  0000 C CNN
	1    8200 1500
	1    0    0    -1  
$EndComp
$Comp
L corne-cherry-rescue:D-Device D23
U 1 1 5A5E35E1
P 7800 1650
F 0 "D23" H 7800 1750 50  0000 C CNN
F 1 "D" H 7800 1550 50  0000 C CNN
F 2 "kbd:D3_TH_SMD" H 7800 1650 50  0001 C CNN
F 3 "" H 7800 1650 50  0001 C CNN
	1    7800 1650
	0    -1   -1   0   
$EndComp
$Comp
L corne-cherry-rescue:D-Device D32
U 1 1 5C14260B
P 8500 1650
F 0 "D32" H 8500 1750 50  0000 C CNN
F 1 "D" H 8500 1550 50  0000 C CNN
F 2 "kbd:D3_TH_SMD" H 8500 1650 50  0001 C CNN
F 3 "" H 8500 1650 50  0001 C CNN
	1    8500 1650
	0    -1   -1   0   
$EndComp
$Comp
L corne-cherry-rescue:D-Device D40
U 1 1 5C14260C
P 9200 1650
F 0 "D40" H 9200 1750 50  0000 C CNN
F 1 "D" H 9200 1550 50  0000 C CNN
F 2 "kbd:D3_TH_SMD" H 9200 1650 50  0001 C CNN
F 3 "" H 9200 1650 50  0001 C CNN
	1    9200 1650
	0    -1   -1   0   
$EndComp
$Comp
L corne-cherry-rescue:SW_PUSH-kbd SW6
U 1 1 5C14260D
P 5400 1500
F 0 "SW6" H 5550 1610 50  0000 C CNN
F 1 "SW_PUSH" H 5400 1420 50  0000 C CNN
F 2 "kbd:CherryMX_Hotswap" H 5400 1500 50  0001 C CNN
F 3 "" H 5400 1500 50  0000 C CNN
	1    5400 1500
	1    0    0    -1  
$EndComp
$Comp
L corne-cherry-rescue:D-Device D6
U 1 1 5C14260E
P 5700 1650
F 0 "D6" H 5700 1750 50  0000 C CNN
F 1 "D" H 5700 1550 50  0000 C CNN
F 2 "kbd:D3_TH_SMD" H 5700 1650 50  0001 C CNN
F 3 "" H 5700 1650 50  0001 C CNN
	1    5700 1650
	0    -1   -1   0   
$EndComp
$Comp
L corne-cherry-rescue:SW_PUSH-kbd SW34
U 1 1 5C14260F
P 8200 2100
F 0 "SW34" H 8350 2210 50  0000 C CNN
F 1 "SW_PUSH" H 8200 2020 50  0000 C CNN
F 2 "kbd:CherryMX_Hotswap" H 8200 2100 50  0001 C CNN
F 3 "" H 8200 2100 50  0000 C CNN
	1    8200 2100
	1    0    0    -1  
$EndComp
$Comp
L corne-cherry-rescue:SW_PUSH-kbd SW42
U 1 1 5C142611
P 8900 2100
F 0 "SW42" H 9050 2210 50  0000 C CNN
F 1 "SW_PUSH" H 8900 2020 50  0000 C CNN
F 2 "kbd:CherryMX_Hotswap_1.5u" H 8900 2100 50  0001 C CNN
F 3 "" H 8900 2100 50  0000 C CNN
	1    8900 2100
	1    0    0    -1  
$EndComp
Text GLabel 5800 150  1    60   Input ~ 0
col1
Text GLabel 5100 150  1    60   Input ~ 0
col0
Text GLabel 6500 150  1    60   Input ~ 0
col2
Text GLabel 7200 150  1    60   Input ~ 0
col3
Text GLabel 7900 150  1    60   Input ~ 0
col4
Text GLabel 8600 150  1    60   Input ~ 0
col5
Text GLabel 5550 600  0    60   Input ~ 0
row0
Text GLabel 5550 1200 0    60   Input ~ 0
row1
Text GLabel 5550 1800 0    60   Input ~ 0
row2
Text GLabel 7650 2400 0    60   Input ~ 0
row3
$Comp
L corne-cherry-rescue:GND-power #PWR0101
U 1 1 5A5E9252
P 10500 800
F 0 "#PWR0101" H 10500 550 50  0001 C CNN
F 1 "GND" H 10500 650 50  0000 C CNN
F 2 "" H 10500 800 50  0001 C CNN
F 3 "" H 10500 800 50  0001 C CNN
	1    10500 800 
	1    0    0    -1  
$EndComp
$Comp
L corne-cherry-rescue:VCC-power #PWR0102
U 1 1 5A5E9332
P 10900 800
F 0 "#PWR0102" H 10900 650 50  0001 C CNN
F 1 "VCC" H 10900 950 50  0000 C CNN
F 2 "" H 10900 800 50  0001 C CNN
F 3 "" H 10900 800 50  0001 C CNN
	1    10900 800 
	1    0    0    -1  
$EndComp
$Comp
L corne-cherry-rescue:PWR_FLAG-power #FLG0101
U 1 1 5A5E94F5
P 10900 800
F 0 "#FLG0101" H 10900 875 50  0001 C CNN
F 1 "PWR_FLAG" H 10900 950 50  0000 C CNN
F 2 "" H 10900 800 50  0001 C CNN
F 3 "" H 10900 800 50  0001 C CNN
	1    10900 800 
	-1   0    0    1   
$EndComp
$Comp
L corne-cherry-rescue:PWR_FLAG-power #FLG0102
U 1 1 5A5E9623
P 10500 800
F 0 "#FLG0102" H 10500 875 50  0001 C CNN
F 1 "PWR_FLAG" H 10500 950 50  0000 C CNN
F 2 "" H 10500 800 50  0001 C CNN
F 3 "" H 10500 800 50  0001 C CNN
	1    10500 800 
	1    0    0    -1  
$EndComp
$Comp
L corne-cherry-rescue:SK6812MINI-kbd L6
U 1 1 5A7737BA
P 5625 5075
F 0 "L6" H 5625 5075 59  0000 C CNN
F 1 "SK6812MINI" H 5625 5025 16  0000 C CNN
F 2 "kbd:SK6812MINI_rev" H 5625 5075 60  0001 C CNN
F 3 "" H 5625 5075 60  0001 C CNN
	1    5625 5075
	1    0    0    -1  
$EndComp
$Comp
L corne-cherry-rescue:SK6812MINI-kbd L9
U 1 1 5A77395F
P 6225 5075
F 0 "L9" H 6225 5075 59  0000 C CNN
F 1 "SK6812MINI" H 6225 5025 16  0000 C CNN
F 2 "kbd:SK6812MINI_rev" H 6225 5075 60  0001 C CNN
F 3 "" H 6225 5075 60  0001 C CNN
	1    6225 5075
	-1   0    0    1   
$EndComp
$Comp
L corne-cherry-rescue:SK6812MINI-kbd L15
U 1 1 5A77468D
P 6825 5075
F 0 "L15" H 6825 5075 59  0000 C CNN
F 1 "SK6812MINI" H 6825 5025 16  0000 C CNN
F 2 "kbd:SK6812MINI_rev" H 6825 5075 60  0001 C CNN
F 3 "" H 6825 5075 60  0001 C CNN
	1    6825 5075
	1    0    0    -1  
$EndComp
$Comp
L corne-cherry-rescue:SK6812MINI-kbd L19
U 1 1 5A774838
P 7425 5075
F 0 "L19" H 7425 5075 59  0000 C CNN
F 1 "SK6812MINI" H 7425 5025 16  0000 C CNN
F 2 "kbd:SK6812MINI_rev" H 7425 5075 60  0001 C CNN
F 3 "" H 7425 5075 60  0001 C CNN
	1    7425 5075
	-1   0    0    1   
$EndComp
$Comp
L corne-cherry-rescue:SK6812MINI-kbd L25
U 1 1 5A7749E7
P 8025 5075
F 0 "L25" H 8025 5075 59  0000 C CNN
F 1 "SK6812MINI" H 8025 5025 16  0000 C CNN
F 2 "kbd:SK6812MINI_rev" H 8025 5075 60  0001 C CNN
F 3 "" H 8025 5075 60  0001 C CNN
	1    8025 5075
	1    0    0    -1  
$EndComp
$Comp
L corne-cherry-rescue:SK6812MINI-kbd L1
U 1 1 5A774B99
P 5025 5075
F 0 "L1" H 5025 5075 59  0000 C CNN
F 1 "SK6812MINI" H 5025 5025 16  0000 C CNN
F 2 "kbd:SK6812MINI_rev" H 5025 5075 60  0001 C CNN
F 3 "" H 5025 5075 60  0001 C CNN
	1    5025 5075
	-1   0    0    1   
$EndComp
$Comp
L corne-cherry-rescue:SK6812MINI-kbd L7
U 1 1 5A774F4E
P 5625 5575
F 0 "L7" H 5625 5575 59  0000 C CNN
F 1 "SK6812MINI" H 5625 5525 16  0000 C CNN
F 2 "kbd:SK6812MINI_rev" H 5625 5575 60  0001 C CNN
F 3 "" H 5625 5575 60  0001 C CNN
	1    5625 5575
	1    0    0    -1  
$EndComp
$Comp
L corne-cherry-rescue:SK6812MINI-kbd L10
U 1 1 5A774F54
P 6225 5575
F 0 "L10" H 6225 5575 59  0000 C CNN
F 1 "SK6812MINI" H 6225 5525 16  0000 C CNN
F 2 "kbd:SK6812MINI_rev" H 6225 5575 60  0001 C CNN
F 3 "" H 6225 5575 60  0001 C CNN
	1    6225 5575
	-1   0    0    1   
$EndComp
$Comp
L corne-cherry-rescue:SK6812MINI-kbd L16
U 1 1 5A774F5A
P 6825 5575
F 0 "L16" H 6825 5575 59  0000 C CNN
F 1 "SK6812MINI" H 6825 5525 16  0000 C CNN
F 2 "kbd:SK6812MINI_rev" H 6825 5575 60  0001 C CNN
F 3 "" H 6825 5575 60  0001 C CNN
	1    6825 5575
	1    0    0    -1  
$EndComp
$Comp
L corne-cherry-rescue:SK6812MINI-kbd L20
U 1 1 5A774F60
P 7425 5575
F 0 "L20" H 7425 5575 59  0000 C CNN
F 1 "SK6812MINI" H 7425 5525 16  0000 C CNN
F 2 "kbd:SK6812MINI_rev" H 7425 5575 60  0001 C CNN
F 3 "" H 7425 5575 60  0001 C CNN
	1    7425 5575
	-1   0    0    1   
$EndComp
$Comp
L corne-cherry-rescue:SK6812MINI-kbd L26
U 1 1 5A774F66
P 8025 5575
F 0 "L26" H 8025 5575 59  0000 C CNN
F 1 "SK6812MINI" H 8025 5525 16  0000 C CNN
F 2 "kbd:SK6812MINI_rev" H 8025 5575 60  0001 C CNN
F 3 "" H 8025 5575 60  0001 C CNN
	1    8025 5575
	1    0    0    -1  
$EndComp
$Comp
L corne-cherry-rescue:SK6812MINI-kbd L2
U 1 1 5A774F6C
P 5025 5575
F 0 "L2" H 5025 5575 59  0000 C CNN
F 1 "SK6812MINI" H 5025 5525 16  0000 C CNN
F 2 "kbd:SK6812MINI_rev" H 5025 5575 60  0001 C CNN
F 3 "" H 5025 5575 60  0001 C CNN
	1    5025 5575
	-1   0    0    1   
$EndComp
$Comp
L corne-cherry-rescue:SK6812MINI-kbd L8
U 1 1 5A775150
P 5625 6075
F 0 "L8" H 5625 6075 59  0000 C CNN
F 1 "SK6812MINI" H 5625 6025 16  0000 C CNN
F 2 "kbd:SK6812MINI_rev" H 5625 6075 60  0001 C CNN
F 3 "" H 5625 6075 60  0001 C CNN
	1    5625 6075
	1    0    0    -1  
$EndComp
$Comp
L corne-cherry-rescue:SK6812MINI-kbd L11
U 1 1 5A775156
P 6225 6075
F 0 "L11" H 6225 6075 59  0000 C CNN
F 1 "SK6812MINI" H 6225 6025 16  0000 C CNN
F 2 "kbd:SK6812MINI_rev" H 6225 6075 60  0001 C CNN
F 3 "" H 6225 6075 60  0001 C CNN
	1    6225 6075
	-1   0    0    1   
$EndComp
$Comp
L corne-cherry-rescue:SK6812MINI-kbd L17
U 1 1 5A77515C
P 6825 6075
F 0 "L17" H 6825 6075 59  0000 C CNN
F 1 "SK6812MINI" H 6825 6025 16  0000 C CNN
F 2 "kbd:SK6812MINI_rev" H 6825 6075 60  0001 C CNN
F 3 "" H 6825 6075 60  0001 C CNN
	1    6825 6075
	1    0    0    -1  
$EndComp
$Comp
L corne-cherry-rescue:SK6812MINI-kbd L21
U 1 1 5A775162
P 7425 6075
F 0 "L21" H 7425 6075 59  0000 C CNN
F 1 "SK6812MINI" H 7425 6025 16  0000 C CNN
F 2 "kbd:SK6812MINI_rev" H 7425 6075 60  0001 C CNN
F 3 "" H 7425 6075 60  0001 C CNN
	1    7425 6075
	-1   0    0    1   
$EndComp
$Comp
L corne-cherry-rescue:SK6812MINI-kbd L27
U 1 1 5A775168
P 8025 6075
F 0 "L27" H 8025 6075 59  0000 C CNN
F 1 "SK6812MINI" H 8025 6025 16  0000 C CNN
F 2 "kbd:SK6812MINI_rev" H 8025 6075 60  0001 C CNN
F 3 "" H 8025 6075 60  0001 C CNN
	1    8025 6075
	1    0    0    -1  
$EndComp
$Comp
L corne-cherry-rescue:SK6812MINI-kbd L3
U 1 1 5A77516E
P 5025 6075
F 0 "L3" H 5025 6075 59  0000 C CNN
F 1 "SK6812MINI" H 5025 6025 16  0000 C CNN
F 2 "kbd:SK6812MINI_rev" H 5025 6075 60  0001 C CNN
F 3 "" H 5025 6075 60  0001 C CNN
	1    5025 6075
	-1   0    0    1   
$EndComp
$Comp
L corne-cherry-rescue:SK6812MINI-kbd L22
U 1 1 5A775174
P 7425 6575
F 0 "L22" H 7425 6575 59  0000 C CNN
F 1 "SK6812MINI" H 7425 6525 16  0000 C CNN
F 2 "kbd:SK6812MINI_rev" H 7425 6575 60  0001 C CNN
F 3 "" H 7425 6575 60  0001 C CNN
	1    7425 6575
	-1   0    0    1   
$EndComp
$Comp
L corne-cherry-rescue:SK6812MINI-kbd L28
U 1 1 5A77517A
P 8025 6575
F 0 "L28" H 8025 6575 59  0000 C CNN
F 1 "SK6812MINI" H 8025 6525 16  0000 C CNN
F 2 "kbd:SK6812MINI_rev" H 8025 6575 60  0001 C CNN
F 3 "" H 8025 6575 60  0001 C CNN
	1    8025 6575
	1    0    0    -1  
$EndComp
$Comp
L corne-cherry-rescue:SK6812MINI-kbd L18
U 1 1 5A775192
P 6825 6575
F 0 "L18" H 6825 6575 59  0000 C CNN
F 1 "SK6812MINI" H 6825 6525 16  0000 C CNN
F 2 "kbd:SK6812MINI_rev" H 6825 6575 60  0001 C CNN
F 3 "" H 6825 6575 60  0001 C CNN
	1    6825 6575
	1    0    0    -1  
$EndComp
NoConn ~ 5225 6175
$Comp
L corne-cherry-rescue:VCC-power #PWR0103
U 1 1 5A939D19
P 8325 4825
F 0 "#PWR0103" H 8325 4675 50  0001 C CNN
F 1 "VCC" H 8325 4975 50  0000 C CNN
F 2 "" H 8325 4825 50  0001 C CNN
F 3 "" H 8325 4825 50  0001 C CNN
	1    8325 4825
	1    0    0    -1  
$EndComp
$Comp
L corne-cherry-rescue:VCC-power #PWR0104
U 1 1 5A939EB6
P 7125 4825
F 0 "#PWR0104" H 7125 4675 50  0001 C CNN
F 1 "VCC" H 7125 4975 50  0000 C CNN
F 2 "" H 7125 4825 50  0001 C CNN
F 3 "" H 7125 4825 50  0001 C CNN
	1    7125 4825
	1    0    0    -1  
$EndComp
$Comp
L corne-cherry-rescue:VCC-power #PWR0105
U 1 1 5A93A2E2
P 5925 4825
F 0 "#PWR0105" H 5925 4675 50  0001 C CNN
F 1 "VCC" H 5925 4975 50  0000 C CNN
F 2 "" H 5925 4825 50  0001 C CNN
F 3 "" H 5925 4825 50  0001 C CNN
	1    5925 4825
	1    0    0    -1  
$EndComp
$Comp
L corne-cherry-rescue:VCC-power #PWR0106
U 1 1 5A93A47F
P 4725 4825
F 0 "#PWR0106" H 4725 4675 50  0001 C CNN
F 1 "VCC" H 4725 4975 50  0000 C CNN
F 2 "" H 4725 4825 50  0001 C CNN
F 3 "" H 4725 4825 50  0001 C CNN
	1    4725 4825
	1    0    0    -1  
$EndComp
$Comp
L corne-cherry-rescue:GND-power #PWR0107
U 1 1 5A93B0DB
P 7725 6825
F 0 "#PWR0107" H 7725 6575 50  0001 C CNN
F 1 "GND" H 7725 6675 50  0000 C CNN
F 2 "" H 7725 6825 50  0001 C CNN
F 3 "" H 7725 6825 50  0001 C CNN
	1    7725 6825
	1    0    0    -1  
$EndComp
$Comp
L corne-cherry-rescue:GND-power #PWR0108
U 1 1 5A93B401
P 6525 6825
F 0 "#PWR0108" H 6525 6575 50  0001 C CNN
F 1 "GND" H 6525 6675 50  0000 C CNN
F 2 "" H 6525 6825 50  0001 C CNN
F 3 "" H 6525 6825 50  0001 C CNN
	1    6525 6825
	1    0    0    -1  
$EndComp
$Comp
L corne-cherry-rescue:GND-power #PWR0109
U 1 1 5A93C05D
P 5325 6325
F 0 "#PWR0109" H 5325 6075 50  0001 C CNN
F 1 "GND" H 5325 6175 50  0000 C CNN
F 2 "" H 5325 6325 50  0001 C CNN
F 3 "" H 5325 6325 50  0001 C CNN
	1    5325 6325
	1    0    0    -1  
$EndComp
$Comp
L corne-cherry-rescue:SK6812MINI-kbd L23
U 1 1 5AD785A7
P 8025 3675
F 0 "L23" H 8025 3675 59  0000 C CNN
F 1 "SK6812MINI" H 8025 3625 16  0000 C CNN
F 2 "kbd:SK6812MINI_underglow_rev" H 8025 3675 60  0001 C CNN
F 3 "" H 8025 3675 60  0001 C CNN
	1    8025 3675
	1    0    0    -1  
$EndComp
$Comp
L corne-cherry-rescue:SK6812MINI-kbd L13
U 1 1 5AD7881D
P 6825 3675
F 0 "L13" H 6825 3675 59  0000 C CNN
F 1 "SK6812MINI" H 6825 3625 16  0000 C CNN
F 2 "kbd:SK6812MINI_underglow_rev" H 6825 3675 60  0001 C CNN
F 3 "" H 6825 3675 60  0001 C CNN
	1    6825 3675
	1    0    0    -1  
$EndComp
$Comp
L corne-cherry-rescue:SK6812MINI-kbd L4
U 1 1 5AD78A03
P 5625 3675
F 0 "L4" H 5625 3675 59  0000 C CNN
F 1 "SK6812MINI" H 5625 3625 16  0000 C CNN
F 2 "kbd:SK6812MINI_underglow_rev" H 5625 3675 60  0001 C CNN
F 3 "" H 5625 3675 60  0001 C CNN
	1    5625 3675
	1    0    0    -1  
$EndComp
$Comp
L corne-cherry-rescue:SK6812MINI-kbd L24
U 1 1 5AD78CF3
P 8025 4250
F 0 "L24" H 8025 4250 59  0000 C CNN
F 1 "SK6812MINI" H 8025 4200 16  0000 C CNN
F 2 "kbd:SK6812MINI_underglow_rev" H 8025 4250 60  0001 C CNN
F 3 "" H 8025 4250 60  0001 C CNN
	1    8025 4250
	-1   0    0    1   
$EndComp
$Comp
L corne-cherry-rescue:SK6812MINI-kbd L14
U 1 1 5AD78CF9
P 6825 4250
F 0 "L14" H 6825 4250 59  0000 C CNN
F 1 "SK6812MINI" H 6825 4200 16  0000 C CNN
F 2 "kbd:SK6812MINI_underglow_rev" H 6825 4250 60  0001 C CNN
F 3 "" H 6825 4250 60  0001 C CNN
	1    6825 4250
	-1   0    0    1   
$EndComp
$Comp
L corne-cherry-rescue:SK6812MINI-kbd L5
U 1 1 5AD78CFF
P 5625 4250
F 0 "L5" H 5625 4250 59  0000 C CNN
F 1 "SK6812MINI" H 5625 4200 16  0000 C CNN
F 2 "kbd:SK6812MINI_underglow_rev" H 5625 4250 60  0001 C CNN
F 3 "" H 5625 4250 60  0001 C CNN
	1    5625 4250
	-1   0    0    1   
$EndComp
Text GLabel 8225 3775 2    60   Input ~ 0
LED
Wire Wire Line
	5550 1800 5700 1800
Wire Wire Line
	5550 1200 5700 1200
Wire Wire Line
	5550 600  5700 600 
Wire Wire Line
	8600 150  8600 300 
Wire Wire Line
	7900 150  7900 300 
Wire Wire Line
	7200 150  7200 300 
Wire Wire Line
	6500 150  6500 300 
Wire Wire Line
	5800 150  5800 300 
Connection ~ 8600 300 
Connection ~ 7900 300 
Connection ~ 6500 300 
Connection ~ 5800 300 
Connection ~ 5100 900 
Connection ~ 8600 1500
Connection ~ 8600 900 
Connection ~ 7900 1500
Connection ~ 7900 900 
Connection ~ 7200 1500
Connection ~ 7200 300 
Connection ~ 7200 900 
Connection ~ 6500 900 
Connection ~ 5800 900 
Connection ~ 5700 1800
Connection ~ 6400 1800
Connection ~ 7100 1800
Connection ~ 7800 1800
Connection ~ 8500 1800
Connection ~ 5700 1200
Connection ~ 6400 1200
Connection ~ 7100 1200
Connection ~ 7800 1200
Connection ~ 8500 1200
Connection ~ 5700 600 
Connection ~ 6400 600 
Connection ~ 7100 600 
Connection ~ 7800 600 
Connection ~ 8500 600 
Wire Wire Line
	7825 6475 7825 6325
Wire Wire Line
	7825 6325 8225 6325
Wire Wire Line
	8225 6325 8225 6175
Wire Wire Line
	7825 5975 7825 5825
Wire Wire Line
	7825 5825 8225 5825
Wire Wire Line
	8225 5825 8225 5675
Wire Wire Line
	7825 5475 7825 5325
Wire Wire Line
	7825 5325 8225 5325
Wire Wire Line
	8225 5325 8225 5175
Wire Wire Line
	7225 5475 7225 5325
Wire Wire Line
	7225 5325 7625 5325
Wire Wire Line
	7625 5325 7625 5175
Wire Wire Line
	7225 5975 7225 5825
Wire Wire Line
	7225 5825 7625 5825
Wire Wire Line
	7625 5825 7625 5675
Wire Wire Line
	7225 6475 7225 6325
Wire Wire Line
	7225 6325 7625 6325
Wire Wire Line
	7625 6325 7625 6175
Wire Wire Line
	6625 6475 6625 6325
Wire Wire Line
	6625 6325 7025 6325
Wire Wire Line
	7025 6325 7025 6175
Wire Wire Line
	6625 5975 6625 5825
Wire Wire Line
	6625 5825 7025 5825
Wire Wire Line
	7025 5825 7025 5675
Wire Wire Line
	6625 5475 6625 5325
Wire Wire Line
	6625 5325 7025 5325
Wire Wire Line
	7025 5325 7025 5175
Wire Wire Line
	6025 5475 6025 5325
Wire Wire Line
	6025 5325 6425 5325
Wire Wire Line
	6425 5325 6425 5175
Wire Wire Line
	6025 5975 6025 5825
Wire Wire Line
	6025 5825 6425 5825
Wire Wire Line
	6425 5825 6425 5675
Wire Wire Line
	5425 5975 5425 5825
Wire Wire Line
	5425 5825 5825 5825
Wire Wire Line
	5825 5825 5825 5675
Wire Wire Line
	5425 5475 5425 5325
Wire Wire Line
	5425 5325 5825 5325
Wire Wire Line
	5825 5325 5825 5175
Wire Wire Line
	4825 5475 4825 5325
Wire Wire Line
	4825 5325 5225 5325
Wire Wire Line
	5225 5325 5225 5175
Wire Wire Line
	4825 5975 4825 5825
Wire Wire Line
	4825 5825 5225 5825
Wire Wire Line
	5225 5825 5225 5675
Wire Wire Line
	7825 4975 7825 4825
Wire Wire Line
	7825 4825 7225 4825
Wire Wire Line
	7225 4825 7225 4975
Wire Wire Line
	6625 4975 6625 4825
Wire Wire Line
	6625 4825 6025 4825
Wire Wire Line
	6025 4825 6025 4975
Wire Wire Line
	5425 4975 5425 4825
Wire Wire Line
	5425 4825 4825 4825
Wire Wire Line
	4825 4825 4825 4975
Wire Wire Line
	7625 6675 7625 6825
Wire Wire Line
	7625 6825 7025 6825
Wire Wire Line
	7025 6825 7025 6675
Wire Wire Line
	6425 6175 6425 6325
Wire Wire Line
	6425 6325 5825 6325
Wire Wire Line
	5825 6325 5825 6175
Wire Wire Line
	8325 6475 8225 6475
Wire Wire Line
	8325 4825 8325 4975
Wire Wire Line
	8225 4975 8325 4975
Connection ~ 8325 4975
Wire Wire Line
	8225 5475 8325 5475
Connection ~ 8325 5475
Wire Wire Line
	8225 5975 8325 5975
Connection ~ 8325 5975
Wire Wire Line
	7125 4825 7125 4975
Wire Wire Line
	7125 6675 7225 6675
Wire Wire Line
	7125 6175 7225 6175
Connection ~ 7125 6175
Wire Wire Line
	7125 5675 7225 5675
Connection ~ 7125 5675
Wire Wire Line
	7125 5175 7225 5175
Connection ~ 7125 5175
Wire Wire Line
	5925 4825 5925 4975
Wire Wire Line
	5925 6175 6025 6175
Wire Wire Line
	6025 5675 5925 5675
Connection ~ 5925 5675
Wire Wire Line
	6025 5175 5925 5175
Connection ~ 5925 5175
Wire Wire Line
	7025 4975 7125 4975
Connection ~ 7125 4975
Wire Wire Line
	7025 5475 7125 5475
Connection ~ 7125 5475
Wire Wire Line
	7025 5975 7125 5975
Connection ~ 7125 5975
Wire Wire Line
	7025 6475 7125 6475
Connection ~ 7125 6475
Wire Wire Line
	5825 4975 5925 4975
Connection ~ 5925 4975
Wire Wire Line
	5825 5475 5925 5475
Connection ~ 5925 5475
Wire Wire Line
	5825 5975 5925 5975
Connection ~ 5925 5975
Wire Wire Line
	4725 4825 4725 5175
Wire Wire Line
	4825 5175 4725 5175
Connection ~ 4725 5175
Wire Wire Line
	4825 5675 4725 5675
Connection ~ 4725 5675
Wire Wire Line
	4725 6175 4825 6175
Wire Wire Line
	7725 4975 7725 5175
Wire Wire Line
	7625 4975 7725 4975
Wire Wire Line
	7825 5175 7725 5175
Connection ~ 7725 5175
Wire Wire Line
	7625 5475 7725 5475
Connection ~ 7725 5475
Wire Wire Line
	7825 5675 7725 5675
Connection ~ 7725 5675
Wire Wire Line
	7625 5975 7725 5975
Connection ~ 7725 5975
Wire Wire Line
	7825 6175 7725 6175
Connection ~ 7725 6175
Wire Wire Line
	7625 6475 7725 6475
Connection ~ 7725 6475
Wire Wire Line
	7825 6675 7725 6675
Connection ~ 7725 6675
Wire Wire Line
	6525 4975 6525 5175
Wire Wire Line
	6625 6675 6525 6675
Connection ~ 6525 6675
Wire Wire Line
	6625 6175 6525 6175
Connection ~ 6525 6175
Wire Wire Line
	6425 5975 6525 5975
Connection ~ 6525 5975
Wire Wire Line
	6625 5675 6525 5675
Connection ~ 6525 5675
Wire Wire Line
	6425 5475 6525 5475
Connection ~ 6525 5475
Wire Wire Line
	6625 5175 6525 5175
Connection ~ 6525 5175
Wire Wire Line
	6425 4975 6525 4975
Wire Wire Line
	5325 4975 5325 5175
Wire Wire Line
	5225 4975 5325 4975
Wire Wire Line
	5425 5175 5325 5175
Connection ~ 5325 5175
Wire Wire Line
	5225 5475 5325 5475
Connection ~ 5325 5475
Wire Wire Line
	5425 5675 5325 5675
Connection ~ 5325 5675
Wire Wire Line
	5225 5975 5325 5975
Connection ~ 5325 5975
Wire Wire Line
	5425 6175 5325 6175
Connection ~ 5325 6175
Wire Wire Line
	5825 3575 5825 3450
Wire Wire Line
	5825 3450 7025 3450
Wire Wire Line
	7025 3575 7025 3450
Connection ~ 7025 3450
Wire Wire Line
	8225 3575 8225 3450
Connection ~ 8225 3450
Wire Wire Line
	5425 4350 5425 4525
Wire Wire Line
	5425 4525 6625 4525
Wire Wire Line
	7825 4350 7825 4525
Connection ~ 7825 4525
Wire Wire Line
	6625 4350 6625 4525
Connection ~ 6625 4525
Wire Wire Line
	8225 3975 8225 4150
Wire Wire Line
	5100 3975 5425 3975
Wire Wire Line
	7825 3775 7825 3975
Connection ~ 7825 3975
Wire Wire Line
	6625 3775 6625 3975
Connection ~ 6625 3975
Wire Wire Line
	5425 3775 5425 3975
Connection ~ 5425 3975
Wire Wire Line
	7825 3575 7450 3575
Wire Wire Line
	7450 3575 7450 3775
Wire Wire Line
	7450 3775 7025 3775
Wire Wire Line
	6625 3575 6225 3575
Wire Wire Line
	6225 3575 6225 3775
Wire Wire Line
	6225 3775 5825 3775
Wire Wire Line
	5425 3575 5300 3575
Wire Wire Line
	5300 3575 5300 4150
Wire Wire Line
	5300 4150 5425 4150
Wire Wire Line
	5825 4150 5825 3975
Connection ~ 5825 3975
Wire Wire Line
	7025 4150 7025 3975
Connection ~ 7025 3975
Wire Wire Line
	5825 4350 6250 4350
Wire Wire Line
	6250 4350 6250 4150
Wire Wire Line
	6250 4150 6625 4150
Wire Wire Line
	7025 4350 7450 4350
Wire Wire Line
	7450 4350 7450 4150
Wire Wire Line
	7450 4150 7825 4150
Wire Wire Line
	8225 4350 8475 4350
Wire Wire Line
	8475 4350 8475 6675
Wire Wire Line
	8475 6675 8225 6675
$Comp
L corne-cherry-rescue:VCC-power #PWR0110
U 1 1 5AD7B57B
P 8625 3450
F 0 "#PWR0110" H 8625 3300 50  0001 C CNN
F 1 "VCC" H 8625 3600 50  0000 C CNN
F 2 "" H 8625 3450 50  0001 C CNN
F 3 "" H 8625 3450 50  0001 C CNN
	1    8625 3450
	1    0    0    -1  
$EndComp
$Comp
L corne-cherry-rescue:VCC-power #PWR0111
U 1 1 5AD7B694
P 8675 4525
F 0 "#PWR0111" H 8675 4375 50  0001 C CNN
F 1 "VCC" H 8675 4675 50  0000 C CNN
F 2 "" H 8675 4525 50  0001 C CNN
F 3 "" H 8675 4525 50  0001 C CNN
	1    8675 4525
	1    0    0    -1  
$EndComp
$Comp
L corne-cherry-rescue:GND-power #PWR0112
U 1 1 5AD7B7AD
P 5100 3975
F 0 "#PWR0112" H 5100 3725 50  0001 C CNN
F 1 "GND" H 5100 3825 50  0000 C CNN
F 2 "" H 5100 3975 50  0001 C CNN
F 3 "" H 5100 3975 50  0001 C CNN
	1    5100 3975
	1    0    0    -1  
$EndComp
Wire Wire Line
	8600 300  8600 900 
Wire Wire Line
	7900 300  7900 900 
Wire Wire Line
	6500 300  6500 900 
Wire Wire Line
	5800 300  5800 900 
Wire Wire Line
	5100 900  5100 1500
Wire Wire Line
	8600 1500 8600 2100
Wire Wire Line
	8600 900  8600 1500
Wire Wire Line
	7900 1500 7900 2100
Wire Wire Line
	7900 900  7900 1500
Wire Wire Line
	7200 1500 7200 2100
Wire Wire Line
	7200 300  7200 900 
Wire Wire Line
	7200 900  7200 1500
Wire Wire Line
	6500 900  6500 1500
Wire Wire Line
	5800 900  5800 1500
Wire Wire Line
	5700 1800 6400 1800
Wire Wire Line
	6400 1800 7100 1800
Wire Wire Line
	7100 1800 7800 1800
Wire Wire Line
	7800 1800 8500 1800
Wire Wire Line
	8500 1800 9200 1800
Wire Wire Line
	5700 1200 6400 1200
Wire Wire Line
	6400 1200 7100 1200
Wire Wire Line
	7100 1200 7800 1200
Wire Wire Line
	7800 1200 8500 1200
Wire Wire Line
	8500 1200 9200 1200
Wire Wire Line
	5700 600  6400 600 
Wire Wire Line
	6400 600  7100 600 
Wire Wire Line
	7100 600  7800 600 
Wire Wire Line
	7800 600  8500 600 
Wire Wire Line
	8500 600  9200 600 
Wire Wire Line
	8325 4975 8325 5475
Wire Wire Line
	8325 5475 8325 5975
Wire Wire Line
	8325 5975 8325 6475
Wire Wire Line
	7125 6175 7125 6475
Wire Wire Line
	7125 5675 7125 5975
Wire Wire Line
	7125 5175 7125 5475
Wire Wire Line
	5925 5675 5925 5975
Wire Wire Line
	5925 5175 5925 5475
Wire Wire Line
	7125 4975 7125 5175
Wire Wire Line
	7125 5475 7125 5675
Wire Wire Line
	7125 5975 7125 6175
Wire Wire Line
	7125 6475 7125 6675
Wire Wire Line
	5925 4975 5925 5175
Wire Wire Line
	5925 5475 5925 5675
Wire Wire Line
	5925 5975 5925 6175
Wire Wire Line
	4725 5175 4725 5675
Wire Wire Line
	4725 5675 4725 6175
Wire Wire Line
	7725 5175 7725 5475
Wire Wire Line
	7725 5475 7725 5675
Wire Wire Line
	7725 5675 7725 5975
Wire Wire Line
	7725 5975 7725 6175
Wire Wire Line
	7725 6175 7725 6475
Wire Wire Line
	7725 6475 7725 6675
Wire Wire Line
	7725 6675 7725 6825
Wire Wire Line
	6525 6675 6525 6825
Wire Wire Line
	6525 6175 6525 6675
Wire Wire Line
	6525 5975 6525 6175
Wire Wire Line
	6525 5675 6525 5975
Wire Wire Line
	6525 5475 6525 5675
Wire Wire Line
	6525 5175 6525 5475
Wire Wire Line
	5325 5175 5325 5475
Wire Wire Line
	5325 5475 5325 5675
Wire Wire Line
	5325 5675 5325 5975
Wire Wire Line
	5325 5975 5325 6175
Wire Wire Line
	5325 6175 5325 6325
Wire Wire Line
	7025 3450 8225 3450
Wire Wire Line
	8225 3450 8625 3450
Wire Wire Line
	7825 4525 8675 4525
Wire Wire Line
	6625 4525 7825 4525
Wire Wire Line
	7825 3975 8225 3975
Wire Wire Line
	6625 3975 7025 3975
Wire Wire Line
	5425 3975 5825 3975
Wire Wire Line
	5825 3975 6625 3975
Wire Wire Line
	7025 3975 7825 3975
$Comp
L corne-cherry-rescue:D-Device D7
U 1 1 5A5E26C6
P 6400 450
F 0 "D7" H 6400 550 50  0000 C CNN
F 1 "D" H 6400 350 50  0000 C CNN
F 2 "kbd:D3_TH_SMD" H 6400 450 50  0001 C CNN
F 3 "" H 6400 450 50  0001 C CNN
	1    6400 450 
	0    -1   -1   0   
$EndComp
$Comp
L corne-cherry-rescue:D-Device D14
U 1 1 5C1425EE
P 7100 450
F 0 "D14" H 7100 550 50  0000 C CNN
F 1 "D" H 7100 350 50  0000 C CNN
F 2 "kbd:D3_TH_SMD" H 7100 450 50  0001 C CNN
F 3 "" H 7100 450 50  0001 C CNN
	1    7100 450 
	0    -1   -1   0   
$EndComp
$Comp
L corne-cherry-rescue:D-Device D20
U 1 1 5C1425F2
P 7800 450
F 0 "D20" H 7800 550 50  0000 C CNN
F 1 "D" H 7800 350 50  0000 C CNN
F 2 "kbd:D3_TH_SMD" H 7800 450 50  0001 C CNN
F 3 "" H 7800 450 50  0001 C CNN
	1    7800 450 
	0    -1   -1   0   
$EndComp
$Comp
L corne-cherry-rescue:D-Device D27
U 1 1 5A5E29F2
P 8500 450
F 0 "D27" H 8500 550 50  0000 C CNN
F 1 "D" H 8500 350 50  0000 C CNN
F 2 "kbd:D3_TH_SMD" H 8500 450 50  0001 C CNN
F 3 "" H 8500 450 50  0001 C CNN
	1    8500 450 
	0    -1   -1   0   
$EndComp
$Comp
L corne-cherry-rescue:D-Device D36
U 1 1 5C1425F4
P 9200 450
F 0 "D36" H 9200 550 50  0000 C CNN
F 1 "D" H 9200 350 50  0000 C CNN
F 2 "kbd:D3_TH_SMD" H 9200 450 50  0001 C CNN
F 3 "" H 9200 450 50  0001 C CNN
	1    9200 450 
	0    -1   -1   0   
$EndComp
$Comp
L corne-cherry-rescue:D-Device D1
U 1 1 5A5E2B5B
P 5700 450
F 0 "D1" H 5700 550 50  0000 C CNN
F 1 "D" H 5700 350 50  0000 C CNN
F 2 "kbd:D3_TH_SMD" H 5700 450 50  0001 C CNN
F 3 "" H 5700 450 50  0001 C CNN
	1    5700 450 
	0    -1   -1   0   
$EndComp
$Comp
L corne-cherry-rescue:D-Device D10
U 1 1 5C1425F8
P 6400 1050
F 0 "D10" H 6400 1150 50  0000 C CNN
F 1 "D" H 6400 950 50  0000 C CNN
F 2 "kbd:D3_TH_SMD" H 6400 1050 50  0001 C CNN
F 3 "" H 6400 1050 50  0001 C CNN
	1    6400 1050
	0    -1   -1   0   
$EndComp
$Comp
L corne-cherry-rescue:D-Device D16
U 1 1 5C1425FA
P 7100 1050
F 0 "D16" H 7100 1150 50  0000 C CNN
F 1 "D" H 7100 950 50  0000 C CNN
F 2 "kbd:D3_TH_SMD" H 7100 1050 50  0001 C CNN
F 3 "" H 7100 1050 50  0001 C CNN
	1    7100 1050
	0    -1   -1   0   
$EndComp
$Comp
L corne-cherry-rescue:D-Device D21
U 1 1 5A5E2D56
P 7800 1050
F 0 "D21" H 7800 1150 50  0000 C CNN
F 1 "D" H 7800 950 50  0000 C CNN
F 2 "kbd:D3_TH_SMD" H 7800 1050 50  0001 C CNN
F 3 "" H 7800 1050 50  0001 C CNN
	1    7800 1050
	0    -1   -1   0   
$EndComp
$Comp
L corne-cherry-rescue:D-Device D29
U 1 1 5A5E2D5C
P 8500 1050
F 0 "D29" H 8500 1150 50  0000 C CNN
F 1 "D" H 8500 950 50  0000 C CNN
F 2 "kbd:D3_TH_SMD" H 8500 1050 50  0001 C CNN
F 3 "" H 8500 1050 50  0001 C CNN
	1    8500 1050
	0    -1   -1   0   
$EndComp
$Comp
L corne-cherry-rescue:D-Device D37
U 1 1 5A5E2D62
P 9200 1050
F 0 "D37" H 9200 1150 50  0000 C CNN
F 1 "D" H 9200 950 50  0000 C CNN
F 2 "kbd:D3_TH_SMD" H 9200 1050 50  0001 C CNN
F 3 "" H 9200 1050 50  0001 C CNN
	1    9200 1050
	0    -1   -1   0   
$EndComp
$Comp
L corne-cherry-rescue:D-Device D4
U 1 1 5C142602
P 5700 1050
F 0 "D4" H 5700 1150 50  0000 C CNN
F 1 "D" H 5700 950 50  0000 C CNN
F 2 "kbd:D3_TH_SMD" H 5700 1050 50  0001 C CNN
F 3 "" H 5700 1050 50  0001 C CNN
	1    5700 1050
	0    -1   -1   0   
$EndComp
$Comp
L corne-cherry-rescue:D-Device D12
U 1 1 5C142604
P 6400 1650
F 0 "D12" H 6400 1750 50  0000 C CNN
F 1 "D" H 6400 1550 50  0000 C CNN
F 2 "kbd:D3_TH_SMD" H 6400 1650 50  0001 C CNN
F 3 "" H 6400 1650 50  0001 C CNN
	1    6400 1650
	0    -1   -1   0   
$EndComp
$Comp
L corne-cherry-rescue:D-Device D18
U 1 1 5C142606
P 7100 1650
F 0 "D18" H 7100 1750 50  0000 C CNN
F 1 "D" H 7100 1550 50  0000 C CNN
F 2 "kbd:D3_TH_SMD" H 7100 1650 50  0001 C CNN
F 3 "" H 7100 1650 50  0001 C CNN
	1    7100 1650
	0    -1   -1   0   
$EndComp
$Comp
L corne-cherry-rescue:SW_PUSH-kbd SW24
U 1 1 5C142607
P 7500 1500
F 0 "SW24" H 7650 1610 50  0000 C CNN
F 1 "SW_PUSH" H 7500 1420 50  0000 C CNN
F 2 "kbd:CherryMX_Hotswap" H 7500 1500 50  0001 C CNN
F 3 "" H 7500 1500 50  0000 C CNN
	1    7500 1500
	1    0    0    -1  
$EndComp
$Comp
L corne-cherry-rescue:SW_PUSH-kbd SW40
U 1 1 5C142609
P 8900 1500
F 0 "SW40" H 9050 1610 50  0000 C CNN
F 1 "SW_PUSH" H 8900 1420 50  0000 C CNN
F 2 "kbd:CherryMX_Hotswap" H 8900 1500 50  0001 C CNN
F 3 "" H 8900 1500 50  0000 C CNN
	1    8900 1500
	1    0    0    -1  
$EndComp
$Comp
L corne-cherry-rescue:D-Device D24
U 1 1 5C14260A
P 7800 1650
F 0 "D24" H 7800 1750 50  0000 C CNN
F 1 "D" H 7800 1550 50  0000 C CNN
F 2 "kbd:D3_TH_SMD" H 7800 1650 50  0001 C CNN
F 3 "" H 7800 1650 50  0001 C CNN
	1    7800 1650
	0    -1   -1   0   
$EndComp
$Comp
L corne-cherry-rescue:D-Device D31
U 1 1 5A5E35E7
P 8500 1650
F 0 "D31" H 8500 1750 50  0000 C CNN
F 1 "D" H 8500 1550 50  0000 C CNN
F 2 "kbd:D3_TH_SMD" H 8500 1650 50  0001 C CNN
F 3 "" H 8500 1650 50  0001 C CNN
	1    8500 1650
	0    -1   -1   0   
$EndComp
$Comp
L corne-cherry-rescue:D-Device D39
U 1 1 5A5E35ED
P 9200 1650
F 0 "D39" H 9200 1750 50  0000 C CNN
F 1 "D" H 9200 1550 50  0000 C CNN
F 2 "kbd:D3_TH_SMD" H 9200 1650 50  0001 C CNN
F 3 "" H 9200 1650 50  0001 C CNN
	1    9200 1650
	0    -1   -1   0   
$EndComp
$Comp
L corne-cherry-rescue:D-Device D5
U 1 1 5A5E35FF
P 5700 1650
F 0 "D5" H 5700 1750 50  0000 C CNN
F 1 "D" H 5700 1550 50  0000 C CNN
F 2 "kbd:D3_TH_SMD" H 5700 1650 50  0001 C CNN
F 3 "" H 5700 1650 50  0001 C CNN
	1    5700 1650
	0    -1   -1   0   
$EndComp
$Comp
L corne-cherry-rescue:SW_PUSH-kbd SW26
U 1 1 5C142613
P 7500 2100
F 0 "SW26" H 7650 2210 50  0000 C CNN
F 1 "SW_PUSH" H 7500 2020 50  0000 C CNN
F 2 "kbd:CherryMX_Hotswap" H 7500 2100 50  0001 C CNN
F 3 "" H 7500 2100 50  0000 C CNN
	1    7500 2100
	1    0    0    -1  
$EndComp
Text GLabel 5800 150  1    60   Input ~ 0
col1
Text GLabel 5100 150  1    60   Input ~ 0
col0
Text GLabel 6500 150  1    60   Input ~ 0
col2
Text GLabel 7200 150  1    60   Input ~ 0
col3
Text GLabel 7900 150  1    60   Input ~ 0
col4
Text GLabel 8600 150  1    60   Input ~ 0
col5
Text GLabel 5550 600  0    60   Input ~ 0
row0
Text GLabel 5550 1200 0    60   Input ~ 0
row1
Text GLabel 5550 1800 0    60   Input ~ 0
row2
Text GLabel 7650 2400 0    60   Input ~ 0
row3
$Comp
L corne-cherry-rescue:Conn_01x03-Connector_Generic J1
U 1 1 5ACCF3D8
P 1175 6625
F 0 "J1" H 1175 6400 50  0000 C CNN
F 1 "LED" H 1175 6875 50  0000 C CNN
F 2 "kbd:StripLED_rev" H 1175 6625 50  0001 C CNN
F 3 "" H 1175 6625 50  0001 C CNN
	1    1175 6625
	-1   0    0    1   
$EndComp
$Comp
L corne-cherry-rescue:VCC-power #PWR0113
U 1 1 5ACCF4EF
P 1525 6525
F 0 "#PWR0113" H 1525 6375 50  0001 C CNN
F 1 "VCC" H 1525 6675 50  0000 C CNN
F 2 "" H 1525 6525 50  0001 C CNN
F 3 "" H 1525 6525 50  0001 C CNN
	1    1525 6525
	1    0    0    -1  
$EndComp
$Comp
L corne-cherry-rescue:GND-power #PWR0114
U 1 1 5ACCF5F0
P 1525 6725
F 0 "#PWR0114" H 1525 6475 50  0001 C CNN
F 1 "GND" H 1525 6575 50  0000 C CNN
F 2 "" H 1525 6725 50  0001 C CNN
F 3 "" H 1525 6725 50  0001 C CNN
	1    1525 6725
	1    0    0    -1  
$EndComp
Text GLabel 1625 6625 2    60   Input ~ 0
LED
Wire Wire Line
	1375 6525 1525 6525
Wire Wire Line
	1375 6625 1625 6625
Wire Wire Line
	1375 6725 1525 6725
$Comp
L redox_rev1-cache:Device_Battery_Cell BT_LEFT1
U 1 1 5C0219D5
P 1250 5700
F 0 "BT_LEFT1" H 1368 5796 50  0000 L CNN
F 1 "Device_Battery_Cell" H 1368 5705 50  0000 L CNN
F 2 "redox_w_footprints:BatteryHolder_Keystone_3034_1x20mm" V 1250 5760 50  0001 C CNN
F 3 "" V 1250 5760 50  0001 C CNN
	1    1250 5700
	1    0    0    -1  
$EndComp
$Comp
L redox_rev1-cache:core51822b_Core51822B U_RIGHT1
U 1 1 5C022796
P 1850 1450
F 0 "U_RIGHT1" H 1850 2337 60  0000 C CNN
F 1 "core51822b_Core51822B" H 1850 2231 60  0000 C CNN
F 2 "redox_w_footprints:MY-YJ-14015-Module" H 1850 1550 60  0001 C CNN
F 3 "" H 1850 1550 60  0001 C CNN
	1    1850 1450
	1    0    0    -1  
$EndComp
Text GLabel 2800 1350 2    50   Input ~ 0
SWCLK
Text GLabel 2800 1450 2    50   Input ~ 0
SWDIO
Text GLabel 900  1050 0    50   Input ~ 0
row0
Text GLabel 900  1150 0    50   Input ~ 0
row1
Text GLabel 900  1250 0    50   Input ~ 0
row2
Text GLabel 1300 2500 3    50   Input ~ 0
col0
Text GLabel 1400 2500 3    50   Input ~ 0
col1
Text GLabel 1800 2500 3    50   Input ~ 0
col4
Text GLabel 1600 2500 3    50   Input ~ 0
col2
Text GLabel 1700 2500 3    50   Input ~ 0
col3
Text GLabel 1900 2500 3    50   Input ~ 0
col5
$Comp
L redox_rev1-cache:power_VCC #PWR0115
U 1 1 5C114870
P 900 2050
F 0 "#PWR0115" H 900 1900 50  0001 C CNN
F 1 "power_VCC" V 918 2178 50  0000 L CNN
F 2 "" H 900 2050 50  0001 C CNN
F 3 "" H 900 2050 50  0001 C CNN
	1    900  2050
	0    -1   -1   0   
$EndComp
$Comp
L redox_rev1-cache:power_GND #PWR0116
U 1 1 5C15EA95
P 900 1950
F 0 "#PWR0116" H 900 1700 50  0001 C CNN
F 1 "power_GND" V 905 1823 50  0000 R CNN
F 2 "" H 900 1950 50  0001 C CNN
F 3 "" H 900 1950 50  0001 C CNN
	1    900  1950
	0    1    1    0   
$EndComp
$Comp
L redox_rev1-cache:core51822b_Core51822B U_LEFT1
U 1 1 5C16E205
P 1950 3700
F 0 "U_LEFT1" H 1950 4587 60  0000 C CNN
F 1 "core51822b_Core51822B" H 1950 4481 60  0000 C CNN
F 2 "redox_w_footprints:MY-YJ-14015-Module" H 1950 3800 60  0001 C CNN
F 3 "" H 1950 3800 60  0001 C CNN
	1    1950 3700
	1    0    0    -1  
$EndComp
Text GLabel 2900 3600 2    50   Input ~ 0
SWCLK
Text GLabel 2900 3700 2    50   Input ~ 0
SWDIO
Text GLabel 2900 3300 2    50   Input ~ 0
row0
Text GLabel 2900 3400 2    50   Input ~ 0
row1
Text GLabel 2900 3500 2    50   Input ~ 0
row2
Text GLabel 1900 4750 3    50   Input ~ 0
col5
Text GLabel 2000 4750 3    50   Input ~ 0
col4
Text GLabel 2400 4750 3    50   Input ~ 0
col1
Text GLabel 2200 4750 3    50   Input ~ 0
col2
Text GLabel 2100 4750 3    50   Input ~ 0
col3
Text GLabel 2500 4750 3    50   Input ~ 0
col0
$Comp
L redox_rev1-cache:power_VCC #PWR0117
U 1 1 5C16E216
P 1000 4300
F 0 "#PWR0117" H 1000 4150 50  0001 C CNN
F 1 "power_VCC" V 1018 4428 50  0000 L CNN
F 2 "" H 1000 4300 50  0001 C CNN
F 3 "" H 1000 4300 50  0001 C CNN
	1    1000 4300
	0    -1   -1   0   
$EndComp
$Comp
L redox_rev1-cache:power_GND #PWR0118
U 1 1 5C16E21C
P 1000 4200
F 0 "#PWR0118" H 1000 3950 50  0001 C CNN
F 1 "power_GND" V 1005 4073 50  0000 R CNN
F 2 "" H 1000 4200 50  0001 C CNN
F 3 "" H 1000 4200 50  0001 C CNN
	1    1000 4200
	0    1    1    0   
$EndComp
$Comp
L redox_rev1-cache:Device_Battery_Cell BT_RIGHT1
U 1 1 5C377512
P 2650 5700
F 0 "BT_RIGHT1" H 2768 5796 50  0000 L CNN
F 1 "Device_Battery_Cell" H 2768 5705 50  0000 L CNN
F 2 "redox_w_footprints:BatteryHolder_Keystone_3034_1x20mm" V 2650 5760 50  0001 C CNN
F 3 "" V 2650 5760 50  0001 C CNN
	1    2650 5700
	1    0    0    -1  
$EndComp
$Comp
L redox_rev1-cache:Switch_SW_SPDT SW_RIGHT1
U 1 1 5C3B3007
P 2650 5300
F 0 "SW_RIGHT1" V 2696 5112 50  0000 R CNN
F 1 "Switch_SW_SPDT" V 2605 5112 50  0000 R CNN
F 2 "redox_w_footprints:SW_SPDT_CK-JS102011SAQN" H 2650 5300 50  0001 C CNN
F 3 "" H 2650 5300 50  0001 C CNN
	1    2650 5300
	0    -1   -1   0   
$EndComp
$Comp
L redox_rev1-cache:Switch_SW_SPDT SW_LEFT1
U 1 1 5C3B3133
P 1250 5300
F 0 "SW_LEFT1" V 1296 5112 50  0000 R CNN
F 1 "Switch_SW_SPDT" V 1205 5112 50  0000 R CNN
F 2 "redox_w_footprints:SW_SPDT_CK-JS102011SAQN" H 1250 5300 50  0001 C CNN
F 3 "" H 1250 5300 50  0001 C CNN
	1    1250 5300
	0    -1   -1   0   
$EndComp
$Comp
L redox_rev1-cache:power_GND #PWR0119
U 1 1 5C3B3AB3
P 1250 5800
F 0 "#PWR0119" H 1250 5550 50  0001 C CNN
F 1 "power_GND" H 1255 5627 50  0000 C CNN
F 2 "" H 1250 5800 50  0001 C CNN
F 3 "" H 1250 5800 50  0001 C CNN
	1    1250 5800
	1    0    0    -1  
$EndComp
$Comp
L redox_rev1-cache:power_GND #PWR0120
U 1 1 5C3B3BBC
P 2650 5800
F 0 "#PWR0120" H 2650 5550 50  0001 C CNN
F 1 "power_GND" H 2655 5627 50  0000 C CNN
F 2 "" H 2650 5800 50  0001 C CNN
F 3 "" H 2650 5800 50  0001 C CNN
	1    2650 5800
	1    0    0    -1  
$EndComp
Text GLabel 900  1750 0    50   Input ~ 0
row3
Text GLabel 2900 4000 2    50   Input ~ 0
row3
NoConn ~ 2900 4200
NoConn ~ 2900 4300
NoConn ~ 2900 3900
NoConn ~ 2900 3800
NoConn ~ 2900 3200
NoConn ~ 1000 3300
NoConn ~ 1000 3400
NoConn ~ 1000 3500
NoConn ~ 1000 3600
NoConn ~ 1000 3700
NoConn ~ 1000 3800
NoConn ~ 1000 3900
NoConn ~ 1000 4000
NoConn ~ 1000 4100
NoConn ~ 1400 4750
NoConn ~ 1500 4750
NoConn ~ 1600 4750
NoConn ~ 1700 4750
NoConn ~ 1800 4750
NoConn ~ 2300 4750
NoConn ~ 900  1350
NoConn ~ 900  1450
NoConn ~ 900  1550
NoConn ~ 900  1650
NoConn ~ 900  1850
NoConn ~ 1500 2500
NoConn ~ 2000 2500
NoConn ~ 2100 2500
NoConn ~ 2200 2500
NoConn ~ 2300 2500
NoConn ~ 2400 2500
NoConn ~ 2800 2050
NoConn ~ 2800 1950
NoConn ~ 2800 1850
NoConn ~ 2800 1750
NoConn ~ 2800 1650
NoConn ~ 2800 1550
NoConn ~ 2800 1250
NoConn ~ 2800 1150
NoConn ~ 2800 1050
NoConn ~ 2800 950 
$Comp
L redox_rev1-cache:power_GND #PWR0121
U 1 1 5C6200F9
P 900 950
F 0 "#PWR0121" H 900 700 50  0001 C CNN
F 1 "power_GND" V 905 823 50  0000 R CNN
F 2 "" H 900 950 50  0001 C CNN
F 3 "" H 900 950 50  0001 C CNN
	1    900  950 
	0    1    1    0   
$EndComp
$Comp
L redox_rev1-cache:power_GND #PWR0122
U 1 1 5C62041D
P 1000 3200
F 0 "#PWR0122" H 1000 2950 50  0001 C CNN
F 1 "power_GND" V 1005 3073 50  0000 R CNN
F 2 "" H 1000 3200 50  0001 C CNN
F 3 "" H 1000 3200 50  0001 C CNN
	1    1000 3200
	0    1    1    0   
$EndComp
$Comp
L corne-cherry-rescue:SK6812MINI-kbd L12
U 1 1 5BFF84E6
P 6300 4700
F 0 "L12" H 6300 4962 51  0000 C CNN
F 1 "SK6812MINI-kbd" H 6300 4897 16  0000 C CNN
F 2 "kbd:SK6812MINI_rev" H 6300 4700 60  0001 C CNN
F 3 "" H 6300 4700 60  0001 C CNN
	1    6300 4700
	1    0    0    -1  
$EndComp
Connection ~ 5700 900 
Connection ~ 5700 1500
Connection ~ 6400 300 
Connection ~ 6400 900 
Connection ~ 6400 1500
Connection ~ 7100 300 
Connection ~ 7100 900 
Connection ~ 7100 1500
Connection ~ 7800 300 
Connection ~ 7800 900 
Connection ~ 7800 1500
Connection ~ 8500 300 
Connection ~ 8500 900 
Connection ~ 8500 1500
Connection ~ 9200 300 
Connection ~ 9200 600 
Connection ~ 9200 900 
Connection ~ 9200 1200
Connection ~ 9200 1500
Connection ~ 9200 1800
NoConn ~ 2900 4100
Connection ~ 5700 300 
Wire Wire Line
	5100 300  5100 900 
Wire Wire Line
	5100 150  5100 300 
Connection ~ 5100 300 
$Comp
L corne-cherry-rescue:SW_PUSH-kbd SW1
U 1 1 5A5E2B19
P 5400 300
F 0 "SW1" H 5550 410 50  0000 C CNN
F 1 "SW_PUSH" H 5400 220 50  0000 C CNN
F 2 "kbd:CherryMX_Hotswap" H 5400 300 50  0001 C CNN
F 3 "" H 5400 300 50  0000 C CNN
	1    5400 300 
	1    0    0    -1  
$EndComp
$Comp
L corne-cherry-rescue:D-Device D25
U 1 1 5A5E37F2
P 7800 2250
F 0 "D25" H 7800 2350 50  0000 C CNN
F 1 "D" H 7800 2150 50  0000 C CNN
F 2 "kbd:D3_TH_SMD" H 7800 2250 50  0001 C CNN
F 3 "" H 7800 2250 50  0001 C CNN
	1    7800 2250
	0    -1   -1   0   
$EndComp
$Comp
L corne-cherry-rescue:D-Device D42
U 1 1 5C142612
P 9200 2250
F 0 "D42" H 9200 2350 50  0000 C CNN
F 1 "D" H 9200 2150 50  0000 C CNN
F 2 "kbd:D3_TH_SMD" H 9200 2250 50  0001 C CNN
F 3 "" H 9200 2250 50  0001 C CNN
	1    9200 2250
	0    -1   -1   0   
$EndComp
$Comp
L corne-cherry-rescue:D-Device D33
U 1 1 5A5E37AA
P 8500 2250
F 0 "D33" H 8500 2350 50  0000 C CNN
F 1 "D" H 8500 2150 50  0000 C CNN
F 2 "kbd:D3_TH_SMD" H 8500 2250 50  0001 C CNN
F 3 "" H 8500 2250 50  0001 C CNN
	1    8500 2250
	0    -1   -1   0   
$EndComp
Wire Wire Line
	8500 2400 9200 2400
Connection ~ 8500 2400
Wire Wire Line
	7800 2400 8500 2400
Wire Wire Line
	7650 2400 7800 2400
Connection ~ 7800 2400
$Comp
L corne-cherry-rescue:D-Device D26
U 1 1 5C142614
P 7800 2250
F 0 "D26" H 7800 2350 50  0000 C CNN
F 1 "D" H 7800 2150 50  0000 C CNN
F 2 "kbd:D3_TH_SMD" H 7800 2250 50  0001 C CNN
F 3 "" H 7800 2250 50  0001 C CNN
	1    7800 2250
	0    -1   -1   0   
$EndComp
Connection ~ 9200 2400
$Comp
L corne-cherry-rescue:D-Device D41
U 1 1 5A5E37B6
P 9200 2250
F 0 "D41" H 9200 2350 50  0000 C CNN
F 1 "D" H 9200 2150 50  0000 C CNN
F 2 "kbd:D3_TH_SMD" H 9200 2250 50  0001 C CNN
F 3 "" H 9200 2250 50  0001 C CNN
	1    9200 2250
	0    -1   -1   0   
$EndComp
$Comp
L corne-cherry-rescue:D-Device D34
U 1 1 5C142610
P 8500 2250
F 0 "D34" H 8500 2350 50  0000 C CNN
F 1 "D" H 8500 2150 50  0000 C CNN
F 2 "kbd:D3_TH_SMD" H 8500 2250 50  0001 C CNN
F 3 "" H 8500 2250 50  0001 C CNN
	1    8500 2250
	0    -1   -1   0   
$EndComp
Connection ~ 9200 2100
Connection ~ 8500 2100
Connection ~ 7800 2100
Connection ~ 8600 2100
$Comp
L corne-cherry-rescue:SW_PUSH-kbd SW41
U 1 1 5A5E37B0
P 8900 2100
F 0 "SW41" H 9050 2210 50  0000 C CNN
F 1 "SW_PUSH" H 8900 2020 50  0000 C CNN
F 2 "kbd:CherryMX_Hotswap_1.5u" H 8900 2100 50  0001 C CNN
F 3 "" H 8900 2100 50  0000 C CNN
	1    8900 2100
	1    0    0    -1  
$EndComp
Connection ~ 7900 2100
$Comp
L corne-cherry-rescue:SW_PUSH-kbd SW33
U 1 1 5A5E37A4
P 8200 2100
F 0 "SW33" H 8350 2210 50  0000 C CNN
F 1 "SW_PUSH" H 8200 2020 50  0000 C CNN
F 2 "kbd:CherryMX_Hotswap" H 8200 2100 50  0001 C CNN
F 3 "" H 8200 2100 50  0000 C CNN
	1    8200 2100
	1    0    0    -1  
$EndComp
Connection ~ 7200 2100
$Comp
L corne-cherry-rescue:SW_PUSH-kbd SW25
U 1 1 5A5E37EC
P 7500 2100
F 0 "SW25" H 7650 2210 50  0000 C CNN
F 1 "SW_PUSH" H 7500 2020 50  0000 C CNN
F 2 "kbd:CherryMX_Hotswap" H 7500 2100 50  0001 C CNN
F 3 "" H 7500 2100 50  0000 C CNN
	1    7500 2100
	1    0    0    -1  
$EndComp
$Comp
L corne-cherry-rescue:SW_PUSH-kbd SW39
U 1 1 5A5E35D5
P 8900 1500
F 0 "SW39" H 9050 1610 50  0000 C CNN
F 1 "SW_PUSH" H 8900 1420 50  0000 C CNN
F 2 "kbd:CherryMX_Hotswap" H 8900 1500 50  0001 C CNN
F 3 "" H 8900 1500 50  0000 C CNN
	1    8900 1500
	1    0    0    -1  
$EndComp
$Comp
L corne-cherry-rescue:SW_PUSH-kbd SW32
U 1 1 5C142608
P 8200 1500
F 0 "SW32" H 8350 1610 50  0000 C CNN
F 1 "SW_PUSH" H 8200 1420 50  0000 C CNN
F 2 "kbd:CherryMX_Hotswap" H 8200 1500 50  0001 C CNN
F 3 "" H 8200 1500 50  0000 C CNN
	1    8200 1500
	1    0    0    -1  
$EndComp
$Comp
L corne-cherry-rescue:SW_PUSH-kbd SW23
U 1 1 5A5E35C9
P 7500 1500
F 0 "SW23" H 7650 1610 50  0000 C CNN
F 1 "SW_PUSH" H 7500 1420 50  0000 C CNN
F 2 "kbd:CherryMX_Hotswap" H 7500 1500 50  0001 C CNN
F 3 "" H 7500 1500 50  0000 C CNN
	1    7500 1500
	1    0    0    -1  
$EndComp
Connection ~ 6500 1500
$Comp
L corne-cherry-rescue:SW_PUSH-kbd SW18
U 1 1 5C142605
P 6800 1500
F 0 "SW18" H 6950 1610 50  0000 C CNN
F 1 "SW_PUSH" H 6800 1420 50  0000 C CNN
F 2 "kbd:CherryMX_Hotswap" H 6800 1500 50  0001 C CNN
F 3 "" H 6800 1500 50  0000 C CNN
	1    6800 1500
	1    0    0    -1  
$EndComp
Connection ~ 5800 1500
$Comp
L corne-cherry-rescue:SW_PUSH-kbd SW11
U 1 1 5A5E35B1
P 6100 1500
F 0 "SW11" H 6250 1610 50  0000 C CNN
F 1 "SW_PUSH" H 6100 1420 50  0000 C CNN
F 2 "kbd:CherryMX_Hotswap" H 6100 1500 50  0001 C CNN
F 3 "" H 6100 1500 50  0000 C CNN
	1    6100 1500
	1    0    0    -1  
$EndComp
Connection ~ 5100 1500
$Comp
L corne-cherry-rescue:SW_PUSH-kbd SW5
U 1 1 5A5E35F9
P 5400 1500
F 0 "SW5" H 5550 1610 50  0000 C CNN
F 1 "SW_PUSH" H 5400 1420 50  0000 C CNN
F 2 "kbd:CherryMX_Hotswap" H 5400 1500 50  0001 C CNN
F 3 "" H 5400 1500 50  0000 C CNN
	1    5400 1500
	1    0    0    -1  
$EndComp
$Comp
L corne-cherry-rescue:SW_PUSH-kbd SW38
U 1 1 5C1425FD
P 8900 900
F 0 "SW38" H 9050 1010 50  0000 C CNN
F 1 "SW_PUSH" H 8900 820 50  0000 C CNN
F 2 "kbd:CherryMX_Hotswap" H 8900 900 50  0001 C CNN
F 3 "" H 8900 900 50  0000 C CNN
	1    8900 900 
	1    0    0    -1  
$EndComp
$Comp
L corne-cherry-rescue:SW_PUSH-kbd SW30
U 1 1 5C1425FC
P 8200 900
F 0 "SW30" H 8350 1010 50  0000 C CNN
F 1 "SW_PUSH" H 8200 820 50  0000 C CNN
F 2 "kbd:CherryMX_Hotswap" H 8200 900 50  0001 C CNN
F 3 "" H 8200 900 50  0000 C CNN
	1    8200 900 
	1    0    0    -1  
$EndComp
$Comp
L corne-cherry-rescue:SW_PUSH-kbd SW21
U 1 1 5A5E2D3E
P 7500 900
F 0 "SW21" H 7650 1010 50  0000 C CNN
F 1 "SW_PUSH" H 7500 820 50  0000 C CNN
F 2 "kbd:CherryMX_Hotswap" H 7500 900 50  0001 C CNN
F 3 "" H 7500 900 50  0000 C CNN
	1    7500 900 
	1    0    0    -1  
$EndComp
$Comp
L corne-cherry-rescue:SW_PUSH-kbd SW16
U 1 1 5C1425F9
P 6800 900
F 0 "SW16" H 6950 1010 50  0000 C CNN
F 1 "SW_PUSH" H 6800 820 50  0000 C CNN
F 2 "kbd:CherryMX_Hotswap" H 6800 900 50  0001 C CNN
F 3 "" H 6800 900 50  0000 C CNN
	1    6800 900 
	1    0    0    -1  
$EndComp
$Comp
L corne-cherry-rescue:SW_PUSH-kbd SW9
U 1 1 5A5E2D26
P 6100 900
F 0 "SW9" H 6250 1010 50  0000 C CNN
F 1 "SW_PUSH" H 6100 820 50  0000 C CNN
F 2 "kbd:CherryMX_Hotswap" H 6100 900 50  0001 C CNN
F 3 "" H 6100 900 50  0000 C CNN
	1    6100 900 
	1    0    0    -1  
$EndComp
$Comp
L corne-cherry-rescue:SW_PUSH-kbd SW4
U 1 1 5C142601
P 5400 900
F 0 "SW4" H 5550 1010 50  0000 C CNN
F 1 "SW_PUSH" H 5400 820 50  0000 C CNN
F 2 "kbd:CherryMX_Hotswap" H 5400 900 50  0001 C CNN
F 3 "" H 5400 900 50  0000 C CNN
	1    5400 900 
	1    0    0    -1  
$EndComp
$Comp
L corne-cherry-rescue:SW_PUSH-kbd SW35
U 1 1 5A5E295E
P 8900 300
F 0 "SW35" H 9050 410 50  0000 C CNN
F 1 "SW_PUSH" H 8900 220 50  0000 C CNN
F 2 "kbd:CherryMX_Hotswap" H 8900 300 50  0001 C CNN
F 3 "" H 8900 300 50  0000 C CNN
	1    8900 300 
	1    0    0    -1  
$EndComp
$Comp
L corne-cherry-rescue:SW_PUSH-kbd SW28
U 1 1 5C1425F0
P 8200 300
F 0 "SW28" H 8350 410 50  0000 C CNN
F 1 "SW_PUSH" H 8200 220 50  0000 C CNN
F 2 "kbd:CherryMX_Hotswap" H 8200 300 50  0001 C CNN
F 3 "" H 8200 300 50  0000 C CNN
	1    8200 300 
	1    0    0    -1  
$EndComp
$Comp
L corne-cherry-rescue:SW_PUSH-kbd SW19
U 1 1 5A5E2908
P 7500 300
F 0 "SW19" H 7650 410 50  0000 C CNN
F 1 "SW_PUSH" H 7500 220 50  0000 C CNN
F 2 "kbd:CherryMX_Hotswap" H 7500 300 50  0001 C CNN
F 3 "" H 7500 300 50  0000 C CNN
	1    7500 300 
	1    0    0    -1  
$EndComp
$Comp
L corne-cherry-rescue:SW_PUSH-kbd SW14
U 1 1 5C1425ED
P 6800 300
F 0 "SW14" H 6950 410 50  0000 C CNN
F 1 "SW_PUSH" H 6800 220 50  0000 C CNN
F 2 "kbd:CherryMX_Hotswap" H 6800 300 50  0001 C CNN
F 3 "" H 6800 300 50  0000 C CNN
	1    6800 300 
	1    0    0    -1  
$EndComp
$Comp
L corne-cherry-rescue:SW_PUSH-kbd SW7
U 1 1 5A5E2699
P 6100 300
F 0 "SW7" H 6250 410 50  0000 C CNN
F 1 "SW_PUSH" H 6100 220 50  0000 C CNN
F 2 "kbd:CherryMX_Hotswap" H 6100 300 50  0001 C CNN
F 3 "" H 6100 300 50  0000 C CNN
	1    6100 300 
	1    0    0    -1  
$EndComp
$Comp
L corne-cherry-rescue:SW_PUSH-kbd SW2
U 1 1 5C1425F5
P 5400 300
F 0 "SW2" H 5550 410 50  0000 C CNN
F 1 "SW_PUSH" H 5400 220 50  0000 C CNN
F 2 "kbd:CherryMX_Hotswap" H 5400 300 50  0001 C CNN
F 3 "" H 5400 300 50  0000 C CNN
	1    5400 300 
	1    0    0    -1  
$EndComp
$EndSCHEMATC
