EESchema Schematic File Version 4
LIBS:corne-cherry-cache
EELAYER 26 0
EELAYER END
$Descr A4 11693 8268
encoding utf-8
Sheet 1 1
Title "Corne Cherry"
Date "2018-08-25"
Rev "2.0"
Comp "foostan"
Comment1 ""
Comment2 ""
Comment3 ""
Comment4 ""
$EndDescr
$Comp
L corne-cherry-rescue:SW_PUSH-kbd SW2
U 1 1 5A5E2699
P 7000 1200
F 0 "SW2" H 7150 1310 50  0000 C CNN
F 1 "SW_PUSH" H 7000 1120 50  0000 C CNN
F 2 "kbd:CherryMX_Hotswap" H 7000 1200 50  0001 C CNN
F 3 "" H 7000 1200 50  0000 C CNN
	1    7000 1200
	1    0    0    -1  
$EndComp
$Comp
L corne-cherry-rescue:D-Device D2
U 1 1 5A5E26C6
P 7300 1350
F 0 "D2" H 7300 1450 50  0000 C CNN
F 1 "D" H 7300 1250 50  0000 C CNN
F 2 "kbd:D3_SMD" H 7300 1350 50  0001 C CNN
F 3 "" H 7300 1350 50  0001 C CNN
	1    7300 1350
	0    -1   -1   0   
$EndComp
$Comp
L corne-cherry-rescue:SW_PUSH-kbd SW3
U 1 1 5A5E27F9
P 7700 1200
F 0 "SW3" H 7850 1310 50  0000 C CNN
F 1 "SW_PUSH" H 7700 1120 50  0000 C CNN
F 2 "kbd:CherryMX_Hotswap" H 7700 1200 50  0001 C CNN
F 3 "" H 7700 1200 50  0000 C CNN
	1    7700 1200
	1    0    0    -1  
$EndComp
$Comp
L corne-cherry-rescue:D-Device D3
U 1 1 5A5E281F
P 8000 1350
F 0 "D3" H 8000 1450 50  0000 C CNN
F 1 "D" H 8000 1250 50  0000 C CNN
F 2 "kbd:D3_SMD" H 8000 1350 50  0001 C CNN
F 3 "" H 8000 1350 50  0001 C CNN
	1    8000 1350
	0    -1   -1   0   
$EndComp
$Comp
L corne-cherry-rescue:SW_PUSH-kbd SW4
U 1 1 5BFC130E
P 8400 1200
F 0 "SW4" H 8550 1310 50  0000 C CNN
F 1 "SW_PUSH" H 8400 1120 50  0000 C CNN
F 2 "kbd:CherryMX_Hotswap" H 8400 1200 50  0001 C CNN
F 3 "" H 8400 1200 50  0000 C CNN
	1    8400 1200
	1    0    0    -1  
$EndComp
$Comp
L corne-cherry-rescue:SW_PUSH-kbd SW5
U 1 1 5BFC130F
P 9100 1200
F 0 "SW5" H 9250 1310 50  0000 C CNN
F 1 "SW_PUSH" H 9100 1120 50  0000 C CNN
F 2 "kbd:CherryMX_Hotswap" H 9100 1200 50  0001 C CNN
F 3 "" H 9100 1200 50  0000 C CNN
	1    9100 1200
	1    0    0    -1  
$EndComp
$Comp
L corne-cherry-rescue:SW_PUSH-kbd SW6
U 1 1 5BFC1310
P 9800 1200
F 0 "SW6" H 9950 1310 50  0000 C CNN
F 1 "SW_PUSH" H 9800 1120 50  0000 C CNN
F 2 "kbd:CherryMX_Hotswap" H 9800 1200 50  0001 C CNN
F 3 "" H 9800 1200 50  0000 C CNN
	1    9800 1200
	1    0    0    -1  
$EndComp
$Comp
L corne-cherry-rescue:D-Device D4
U 1 1 5BFC1311
P 8700 1350
F 0 "D4" H 8700 1450 50  0000 C CNN
F 1 "D" H 8700 1250 50  0000 C CNN
F 2 "kbd:D3_SMD" H 8700 1350 50  0001 C CNN
F 3 "" H 8700 1350 50  0001 C CNN
	1    8700 1350
	0    -1   -1   0   
$EndComp
$Comp
L corne-cherry-rescue:D-Device D5
U 1 1 5A5E29F2
P 9400 1350
F 0 "D5" H 9400 1450 50  0000 C CNN
F 1 "D" H 9400 1250 50  0000 C CNN
F 2 "kbd:D3_SMD" H 9400 1350 50  0001 C CNN
F 3 "" H 9400 1350 50  0001 C CNN
	1    9400 1350
	0    -1   -1   0   
$EndComp
$Comp
L corne-cherry-rescue:D-Device D6
U 1 1 5A5E2A33
P 10100 1350
F 0 "D6" H 10100 1450 50  0000 C CNN
F 1 "D" H 10100 1250 50  0000 C CNN
F 2 "kbd:D3_SMD" H 10100 1350 50  0001 C CNN
F 3 "" H 10100 1350 50  0001 C CNN
	1    10100 1350
	0    -1   -1   0   
$EndComp
$Comp
L corne-cherry-rescue:SW_PUSH-kbd SW1
U 1 1 5A5E2B19
P 6300 1200
F 0 "SW1" H 6450 1310 50  0000 C CNN
F 1 "SW_PUSH" H 6300 1120 50  0000 C CNN
F 2 "kbd:CherryMX_Hotswap" H 6300 1200 50  0001 C CNN
F 3 "" H 6300 1200 50  0000 C CNN
	1    6300 1200
	1    0    0    -1  
$EndComp
$Comp
L corne-cherry-rescue:D-Device D1
U 1 1 5A5E2B5B
P 6600 1350
F 0 "D1" H 6600 1450 50  0000 C CNN
F 1 "D" H 6600 1250 50  0000 C CNN
F 2 "kbd:D3_SMD" H 6600 1350 50  0001 C CNN
F 3 "" H 6600 1350 50  0001 C CNN
	1    6600 1350
	0    -1   -1   0   
$EndComp
$Comp
L corne-cherry-rescue:SW_PUSH-kbd SW8
U 1 1 5A5E2D26
P 7000 1800
F 0 "SW8" H 7150 1910 50  0000 C CNN
F 1 "SW_PUSH" H 7000 1720 50  0000 C CNN
F 2 "kbd:CherryMX_Hotswap" H 7000 1800 50  0001 C CNN
F 3 "" H 7000 1800 50  0000 C CNN
	1    7000 1800
	1    0    0    -1  
$EndComp
$Comp
L corne-cherry-rescue:D-Device D8
U 1 1 5A5E2D2C
P 7300 1950
F 0 "D8" H 7300 2050 50  0000 C CNN
F 1 "D" H 7300 1850 50  0000 C CNN
F 2 "kbd:D3_SMD" H 7300 1950 50  0001 C CNN
F 3 "" H 7300 1950 50  0001 C CNN
	1    7300 1950
	0    -1   -1   0   
$EndComp
$Comp
L corne-cherry-rescue:SW_PUSH-kbd SW9
U 1 1 5A5E2D32
P 7700 1800
F 0 "SW9" H 7850 1910 50  0000 C CNN
F 1 "SW_PUSH" H 7700 1720 50  0000 C CNN
F 2 "kbd:CherryMX_Hotswap" H 7700 1800 50  0001 C CNN
F 3 "" H 7700 1800 50  0000 C CNN
	1    7700 1800
	1    0    0    -1  
$EndComp
$Comp
L corne-cherry-rescue:D-Device D9
U 1 1 5A5E2D38
P 8000 1950
F 0 "D9" H 8000 2050 50  0000 C CNN
F 1 "D" H 8000 1850 50  0000 C CNN
F 2 "kbd:D3_SMD" H 8000 1950 50  0001 C CNN
F 3 "" H 8000 1950 50  0001 C CNN
	1    8000 1950
	0    -1   -1   0   
$EndComp
$Comp
L corne-cherry-rescue:SW_PUSH-kbd SW10
U 1 1 5BFC1313
P 8400 1800
F 0 "SW10" H 8550 1910 50  0000 C CNN
F 1 "SW_PUSH" H 8400 1720 50  0000 C CNN
F 2 "kbd:CherryMX_Hotswap" H 8400 1800 50  0001 C CNN
F 3 "" H 8400 1800 50  0000 C CNN
	1    8400 1800
	1    0    0    -1  
$EndComp
$Comp
L corne-cherry-rescue:SW_PUSH-kbd SW11
U 1 1 5BFC1314
P 9100 1800
F 0 "SW11" H 9250 1910 50  0000 C CNN
F 1 "SW_PUSH" H 9100 1720 50  0000 C CNN
F 2 "kbd:CherryMX_Hotswap" H 9100 1800 50  0001 C CNN
F 3 "" H 9100 1800 50  0000 C CNN
	1    9100 1800
	1    0    0    -1  
$EndComp
$Comp
L corne-cherry-rescue:SW_PUSH-kbd SW12
U 1 1 5A5E2D4A
P 9800 1800
F 0 "SW12" H 9950 1910 50  0000 C CNN
F 1 "SW_PUSH" H 9800 1720 50  0000 C CNN
F 2 "kbd:CherryMX_Hotswap" H 9800 1800 50  0001 C CNN
F 3 "" H 9800 1800 50  0000 C CNN
	1    9800 1800
	1    0    0    -1  
$EndComp
$Comp
L corne-cherry-rescue:D-Device D10
U 1 1 5A5E2D56
P 8700 1950
F 0 "D10" H 8700 2050 50  0000 C CNN
F 1 "D" H 8700 1850 50  0000 C CNN
F 2 "kbd:D3_SMD" H 8700 1950 50  0001 C CNN
F 3 "" H 8700 1950 50  0001 C CNN
	1    8700 1950
	0    -1   -1   0   
$EndComp
$Comp
L corne-cherry-rescue:D-Device D11
U 1 1 5A5E2D5C
P 9400 1950
F 0 "D11" H 9400 2050 50  0000 C CNN
F 1 "D" H 9400 1850 50  0000 C CNN
F 2 "kbd:D3_SMD" H 9400 1950 50  0001 C CNN
F 3 "" H 9400 1950 50  0001 C CNN
	1    9400 1950
	0    -1   -1   0   
$EndComp
$Comp
L corne-cherry-rescue:D-Device D12
U 1 1 5BFC1317
P 10100 1950
F 0 "D12" H 10100 2050 50  0000 C CNN
F 1 "D" H 10100 1850 50  0000 C CNN
F 2 "kbd:D3_SMD" H 10100 1950 50  0001 C CNN
F 3 "" H 10100 1950 50  0001 C CNN
	1    10100 1950
	0    -1   -1   0   
$EndComp
$Comp
L corne-cherry-rescue:SW_PUSH-kbd SW7
U 1 1 5BFC1318
P 6300 1800
F 0 "SW7" H 6450 1910 50  0000 C CNN
F 1 "SW_PUSH" H 6300 1720 50  0000 C CNN
F 2 "kbd:CherryMX_Hotswap" H 6300 1800 50  0001 C CNN
F 3 "" H 6300 1800 50  0000 C CNN
	1    6300 1800
	1    0    0    -1  
$EndComp
$Comp
L corne-cherry-rescue:D-Device D7
U 1 1 5A5E2D74
P 6600 1950
F 0 "D7" H 6600 2050 50  0000 C CNN
F 1 "D" H 6600 1850 50  0000 C CNN
F 2 "kbd:D3_SMD" H 6600 1950 50  0001 C CNN
F 3 "" H 6600 1950 50  0001 C CNN
	1    6600 1950
	0    -1   -1   0   
$EndComp
$Comp
L corne-cherry-rescue:SW_PUSH-kbd SW14
U 1 1 5A5E35B1
P 7000 2400
F 0 "SW14" H 7150 2510 50  0000 C CNN
F 1 "SW_PUSH" H 7000 2320 50  0000 C CNN
F 2 "kbd:CherryMX_Hotswap" H 7000 2400 50  0001 C CNN
F 3 "" H 7000 2400 50  0000 C CNN
	1    7000 2400
	1    0    0    -1  
$EndComp
$Comp
L corne-cherry-rescue:D-Device D14
U 1 1 5A5E35B7
P 7300 2550
F 0 "D14" H 7300 2650 50  0000 C CNN
F 1 "D" H 7300 2450 50  0000 C CNN
F 2 "kbd:D3_SMD" H 7300 2550 50  0001 C CNN
F 3 "" H 7300 2550 50  0001 C CNN
	1    7300 2550
	0    -1   -1   0   
$EndComp
$Comp
L corne-cherry-rescue:SW_PUSH-kbd SW15
U 1 1 5A5E35BD
P 7700 2400
F 0 "SW15" H 7850 2510 50  0000 C CNN
F 1 "SW_PUSH" H 7700 2320 50  0000 C CNN
F 2 "kbd:CherryMX_Hotswap" H 7700 2400 50  0001 C CNN
F 3 "" H 7700 2400 50  0000 C CNN
	1    7700 2400
	1    0    0    -1  
$EndComp
$Comp
L corne-cherry-rescue:D-Device D15
U 1 1 5A5E35C3
P 8000 2550
F 0 "D15" H 8000 2650 50  0000 C CNN
F 1 "D" H 8000 2450 50  0000 C CNN
F 2 "kbd:D3_SMD" H 8000 2550 50  0001 C CNN
F 3 "" H 8000 2550 50  0001 C CNN
	1    8000 2550
	0    -1   -1   0   
$EndComp
$Comp
L corne-cherry-rescue:SW_PUSH-kbd SW16
U 1 1 5A5E35C9
P 8400 2400
F 0 "SW16" H 8550 2510 50  0000 C CNN
F 1 "SW_PUSH" H 8400 2320 50  0000 C CNN
F 2 "kbd:CherryMX_Hotswap" H 8400 2400 50  0001 C CNN
F 3 "" H 8400 2400 50  0000 C CNN
	1    8400 2400
	1    0    0    -1  
$EndComp
$Comp
L corne-cherry-rescue:SW_PUSH-kbd SW17
U 1 1 5A5E35CF
P 9100 2400
F 0 "SW17" H 9250 2510 50  0000 C CNN
F 1 "SW_PUSH" H 9100 2320 50  0000 C CNN
F 2 "kbd:CherryMX_Hotswap" H 9100 2400 50  0001 C CNN
F 3 "" H 9100 2400 50  0000 C CNN
	1    9100 2400
	1    0    0    -1  
$EndComp
$Comp
L corne-cherry-rescue:SW_PUSH-kbd SW18
U 1 1 5A5E35D5
P 9800 2400
F 0 "SW18" H 9950 2510 50  0000 C CNN
F 1 "SW_PUSH" H 9800 2320 50  0000 C CNN
F 2 "kbd:CherryMX_Hotswap" H 9800 2400 50  0001 C CNN
F 3 "" H 9800 2400 50  0000 C CNN
	1    9800 2400
	1    0    0    -1  
$EndComp
$Comp
L corne-cherry-rescue:D-Device D16
U 1 1 5A5E35E1
P 8700 2550
F 0 "D16" H 8700 2650 50  0000 C CNN
F 1 "D" H 8700 2450 50  0000 C CNN
F 2 "kbd:D3_SMD" H 8700 2550 50  0001 C CNN
F 3 "" H 8700 2550 50  0001 C CNN
	1    8700 2550
	0    -1   -1   0   
$EndComp
$Comp
L corne-cherry-rescue:D-Device D17
U 1 1 5A5E35E7
P 9400 2550
F 0 "D17" H 9400 2650 50  0000 C CNN
F 1 "D" H 9400 2450 50  0000 C CNN
F 2 "kbd:D3_SMD" H 9400 2550 50  0001 C CNN
F 3 "" H 9400 2550 50  0001 C CNN
	1    9400 2550
	0    -1   -1   0   
$EndComp
$Comp
L corne-cherry-rescue:D-Device D18
U 1 1 5A5E35ED
P 10100 2550
F 0 "D18" H 10100 2650 50  0000 C CNN
F 1 "D" H 10100 2450 50  0000 C CNN
F 2 "kbd:D3_SMD" H 10100 2550 50  0001 C CNN
F 3 "" H 10100 2550 50  0001 C CNN
	1    10100 2550
	0    -1   -1   0   
$EndComp
$Comp
L corne-cherry-rescue:SW_PUSH-kbd SW13
U 1 1 5A5E35F9
P 6300 2400
F 0 "SW13" H 6450 2510 50  0000 C CNN
F 1 "SW_PUSH" H 6300 2320 50  0000 C CNN
F 2 "kbd:CherryMX_Hotswap" H 6300 2400 50  0001 C CNN
F 3 "" H 6300 2400 50  0000 C CNN
	1    6300 2400
	1    0    0    -1  
$EndComp
$Comp
L corne-cherry-rescue:D-Device D13
U 1 1 5BFC131A
P 6600 2550
F 0 "D13" H 6600 2650 50  0000 C CNN
F 1 "D" H 6600 2450 50  0000 C CNN
F 2 "kbd:D3_SMD" H 6600 2550 50  0001 C CNN
F 3 "" H 6600 2550 50  0001 C CNN
	1    6600 2550
	0    -1   -1   0   
$EndComp
$Comp
L corne-cherry-rescue:SW_PUSH-kbd SW20
U 1 1 5A5E37A4
P 9100 3000
F 0 "SW20" H 9250 3110 50  0000 C CNN
F 1 "SW_PUSH" H 9100 2920 50  0000 C CNN
F 2 "kbd:CherryMX_Hotswap" H 9100 3000 50  0001 C CNN
F 3 "" H 9100 3000 50  0000 C CNN
	1    9100 3000
	1    0    0    -1  
$EndComp
$Comp
L corne-cherry-rescue:D-Device D20
U 1 1 5BFC131C
P 9400 3150
F 0 "D20" H 9400 3250 50  0000 C CNN
F 1 "D" H 9400 3050 50  0000 C CNN
F 2 "kbd:D3_SMD" H 9400 3150 50  0001 C CNN
F 3 "" H 9400 3150 50  0001 C CNN
	1    9400 3150
	0    -1   -1   0   
$EndComp
$Comp
L corne-cherry-rescue:SW_PUSH-kbd SW21
U 1 1 5A5E37B0
P 9800 3000
F 0 "SW21" H 9950 3110 50  0000 C CNN
F 1 "SW_PUSH" H 9800 2920 50  0000 C CNN
F 2 "kbd:CherryMX_Hotswap_1.5u" H 9800 3000 50  0001 C CNN
F 3 "" H 9800 3000 50  0000 C CNN
	1    9800 3000
	1    0    0    -1  
$EndComp
$Comp
L corne-cherry-rescue:D-Device D21
U 1 1 5A5E37B6
P 10100 3150
F 0 "D21" H 10100 3250 50  0000 C CNN
F 1 "D" H 10100 3050 50  0000 C CNN
F 2 "kbd:D3_SMD" H 10100 3150 50  0001 C CNN
F 3 "" H 10100 3150 50  0001 C CNN
	1    10100 3150
	0    -1   -1   0   
$EndComp
$Comp
L corne-cherry-rescue:SW_PUSH-kbd SW19
U 1 1 5A5E37EC
P 8400 3000
F 0 "SW19" H 8550 3110 50  0000 C CNN
F 1 "SW_PUSH" H 8400 2920 50  0000 C CNN
F 2 "kbd:CherryMX_Hotswap" H 8400 3000 50  0001 C CNN
F 3 "" H 8400 3000 50  0000 C CNN
	1    8400 3000
	1    0    0    -1  
$EndComp
$Comp
L corne-cherry-rescue:D-Device D19
U 1 1 5A5E37F2
P 8700 3150
F 0 "D19" H 8700 3250 50  0000 C CNN
F 1 "D" H 8700 3050 50  0000 C CNN
F 2 "kbd:D3_SMD" H 8700 3150 50  0001 C CNN
F 3 "" H 8700 3150 50  0001 C CNN
	1    8700 3150
	0    -1   -1   0   
$EndComp
Text GLabel 6700 1050 1    60   Input ~ 0
col1
Text GLabel 6000 1050 1    60   Input ~ 0
col0
Text GLabel 7400 1050 1    60   Input ~ 0
col2
Text GLabel 8100 1050 1    60   Input ~ 0
col3
Text GLabel 8800 1050 1    60   Input ~ 0
col4
Text GLabel 9500 1050 1    60   Input ~ 0
col5
Text GLabel 6450 1500 0    60   Input ~ 0
row0
Text GLabel 6450 2100 0    60   Input ~ 0
row1
Text GLabel 6450 2700 0    60   Input ~ 0
row2
Text GLabel 8550 3300 0    60   Input ~ 0
row3
$Comp
L corne-cherry-rescue:SK6812MINI-kbd L2
U 1 1 5A7737BA
P 7725 5325
F 0 "L2" H 7725 5325 59  0000 C CNN
F 1 "SK6812MINI" H 7725 5275 16  0000 C CNN
F 2 "kbd:SK6812MINI_rev" H 7725 5325 60  0001 C CNN
F 3 "" H 7725 5325 60  0001 C CNN
	1    7725 5325
	1    0    0    -1  
$EndComp
$Comp
L corne-cherry-rescue:SK6812MINI-kbd L3
U 1 1 5A77395F
P 8325 5325
F 0 "L3" H 8325 5325 59  0000 C CNN
F 1 "SK6812MINI" H 8325 5275 16  0000 C CNN
F 2 "kbd:SK6812MINI_rev" H 8325 5325 60  0001 C CNN
F 3 "" H 8325 5325 60  0001 C CNN
	1    8325 5325
	-1   0    0    1   
$EndComp
$Comp
L corne-cherry-rescue:SK6812MINI-kbd L4
U 1 1 5A77468D
P 8925 5325
F 0 "L4" H 8925 5325 59  0000 C CNN
F 1 "SK6812MINI" H 8925 5275 16  0000 C CNN
F 2 "kbd:SK6812MINI_rev" H 8925 5325 60  0001 C CNN
F 3 "" H 8925 5325 60  0001 C CNN
	1    8925 5325
	1    0    0    -1  
$EndComp
$Comp
L corne-cherry-rescue:SK6812MINI-kbd L5
U 1 1 5A774838
P 9525 5325
F 0 "L5" H 9525 5325 59  0000 C CNN
F 1 "SK6812MINI" H 9525 5275 16  0000 C CNN
F 2 "kbd:SK6812MINI_rev" H 9525 5325 60  0001 C CNN
F 3 "" H 9525 5325 60  0001 C CNN
	1    9525 5325
	-1   0    0    1   
$EndComp
$Comp
L corne-cherry-rescue:SK6812MINI-kbd L6
U 1 1 5A7749E7
P 10125 5325
F 0 "L6" H 10125 5325 59  0000 C CNN
F 1 "SK6812MINI" H 10125 5275 16  0000 C CNN
F 2 "kbd:SK6812MINI_rev" H 10125 5325 60  0001 C CNN
F 3 "" H 10125 5325 60  0001 C CNN
	1    10125 5325
	1    0    0    -1  
$EndComp
$Comp
L corne-cherry-rescue:SK6812MINI-kbd L1
U 1 1 5A774B99
P 7125 5325
F 0 "L1" H 7125 5325 59  0000 C CNN
F 1 "SK6812MINI" H 7125 5275 16  0000 C CNN
F 2 "kbd:SK6812MINI_rev" H 7125 5325 60  0001 C CNN
F 3 "" H 7125 5325 60  0001 C CNN
	1    7125 5325
	-1   0    0    1   
$EndComp
$Comp
L corne-cherry-rescue:SK6812MINI-kbd L8
U 1 1 5A774F4E
P 7725 5825
F 0 "L8" H 7725 5825 59  0000 C CNN
F 1 "SK6812MINI" H 7725 5775 16  0000 C CNN
F 2 "kbd:SK6812MINI_rev" H 7725 5825 60  0001 C CNN
F 3 "" H 7725 5825 60  0001 C CNN
	1    7725 5825
	1    0    0    -1  
$EndComp
$Comp
L corne-cherry-rescue:SK6812MINI-kbd L9
U 1 1 5A774F54
P 8325 5825
F 0 "L9" H 8325 5825 59  0000 C CNN
F 1 "SK6812MINI" H 8325 5775 16  0000 C CNN
F 2 "kbd:SK6812MINI_rev" H 8325 5825 60  0001 C CNN
F 3 "" H 8325 5825 60  0001 C CNN
	1    8325 5825
	-1   0    0    1   
$EndComp
$Comp
L corne-cherry-rescue:SK6812MINI-kbd L10
U 1 1 5A774F5A
P 8925 5825
F 0 "L10" H 8925 5825 59  0000 C CNN
F 1 "SK6812MINI" H 8925 5775 16  0000 C CNN
F 2 "kbd:SK6812MINI_rev" H 8925 5825 60  0001 C CNN
F 3 "" H 8925 5825 60  0001 C CNN
	1    8925 5825
	1    0    0    -1  
$EndComp
$Comp
L corne-cherry-rescue:SK6812MINI-kbd L11
U 1 1 5A774F60
P 9525 5825
F 0 "L11" H 9525 5825 59  0000 C CNN
F 1 "SK6812MINI" H 9525 5775 16  0000 C CNN
F 2 "kbd:SK6812MINI_rev" H 9525 5825 60  0001 C CNN
F 3 "" H 9525 5825 60  0001 C CNN
	1    9525 5825
	-1   0    0    1   
$EndComp
$Comp
L corne-cherry-rescue:SK6812MINI-kbd L12
U 1 1 5A774F66
P 10125 5825
F 0 "L12" H 10125 5825 59  0000 C CNN
F 1 "SK6812MINI" H 10125 5775 16  0000 C CNN
F 2 "kbd:SK6812MINI_rev" H 10125 5825 60  0001 C CNN
F 3 "" H 10125 5825 60  0001 C CNN
	1    10125 5825
	1    0    0    -1  
$EndComp
$Comp
L corne-cherry-rescue:SK6812MINI-kbd L7
U 1 1 5A774F6C
P 7125 5825
F 0 "L7" H 7125 5825 59  0000 C CNN
F 1 "SK6812MINI" H 7125 5775 16  0000 C CNN
F 2 "kbd:SK6812MINI_rev" H 7125 5825 60  0001 C CNN
F 3 "" H 7125 5825 60  0001 C CNN
	1    7125 5825
	-1   0    0    1   
$EndComp
$Comp
L corne-cherry-rescue:SK6812MINI-kbd L14
U 1 1 5A775150
P 7725 6325
F 0 "L14" H 7725 6325 59  0000 C CNN
F 1 "SK6812MINI" H 7725 6275 16  0000 C CNN
F 2 "kbd:SK6812MINI_rev" H 7725 6325 60  0001 C CNN
F 3 "" H 7725 6325 60  0001 C CNN
	1    7725 6325
	1    0    0    -1  
$EndComp
$Comp
L corne-cherry-rescue:SK6812MINI-kbd L15
U 1 1 5A775156
P 8325 6325
F 0 "L15" H 8325 6325 59  0000 C CNN
F 1 "SK6812MINI" H 8325 6275 16  0000 C CNN
F 2 "kbd:SK6812MINI_rev" H 8325 6325 60  0001 C CNN
F 3 "" H 8325 6325 60  0001 C CNN
	1    8325 6325
	-1   0    0    1   
$EndComp
$Comp
L corne-cherry-rescue:SK6812MINI-kbd L16
U 1 1 5A77515C
P 8925 6325
F 0 "L16" H 8925 6325 59  0000 C CNN
F 1 "SK6812MINI" H 8925 6275 16  0000 C CNN
F 2 "kbd:SK6812MINI_rev" H 8925 6325 60  0001 C CNN
F 3 "" H 8925 6325 60  0001 C CNN
	1    8925 6325
	1    0    0    -1  
$EndComp
$Comp
L corne-cherry-rescue:SK6812MINI-kbd L17
U 1 1 5A775162
P 9525 6325
F 0 "L17" H 9525 6325 59  0000 C CNN
F 1 "SK6812MINI" H 9525 6275 16  0000 C CNN
F 2 "kbd:SK6812MINI_rev" H 9525 6325 60  0001 C CNN
F 3 "" H 9525 6325 60  0001 C CNN
	1    9525 6325
	-1   0    0    1   
$EndComp
$Comp
L corne-cherry-rescue:SK6812MINI-kbd L18
U 1 1 5A775168
P 10125 6325
F 0 "L18" H 10125 6325 59  0000 C CNN
F 1 "SK6812MINI" H 10125 6275 16  0000 C CNN
F 2 "kbd:SK6812MINI_rev" H 10125 6325 60  0001 C CNN
F 3 "" H 10125 6325 60  0001 C CNN
	1    10125 6325
	1    0    0    -1  
$EndComp
$Comp
L corne-cherry-rescue:SK6812MINI-kbd L13
U 1 1 5A77516E
P 7125 6325
F 0 "L13" H 7125 6325 59  0000 C CNN
F 1 "SK6812MINI" H 7125 6275 16  0000 C CNN
F 2 "kbd:SK6812MINI_rev" H 7125 6325 60  0001 C CNN
F 3 "" H 7125 6325 60  0001 C CNN
	1    7125 6325
	-1   0    0    1   
$EndComp
$Comp
L corne-cherry-rescue:SK6812MINI-kbd L20
U 1 1 5A775174
P 9525 6825
F 0 "L20" H 9525 6825 59  0000 C CNN
F 1 "SK6812MINI" H 9525 6775 16  0000 C CNN
F 2 "kbd:SK6812MINI_rev" H 9525 6825 60  0001 C CNN
F 3 "" H 9525 6825 60  0001 C CNN
	1    9525 6825
	-1   0    0    1   
$EndComp
$Comp
L corne-cherry-rescue:SK6812MINI-kbd L21
U 1 1 5A77517A
P 10125 6825
F 0 "L21" H 10125 6825 59  0000 C CNN
F 1 "SK6812MINI" H 10125 6775 16  0000 C CNN
F 2 "kbd:SK6812MINI_rev" H 10125 6825 60  0001 C CNN
F 3 "" H 10125 6825 60  0001 C CNN
	1    10125 6825
	1    0    0    -1  
$EndComp
$Comp
L corne-cherry-rescue:SK6812MINI-kbd L19
U 1 1 5A775192
P 8925 6825
F 0 "L19" H 8925 6825 59  0000 C CNN
F 1 "SK6812MINI" H 8925 6775 16  0000 C CNN
F 2 "kbd:SK6812MINI_rev" H 8925 6825 60  0001 C CNN
F 3 "" H 8925 6825 60  0001 C CNN
	1    8925 6825
	1    0    0    -1  
$EndComp
NoConn ~ 7325 6425
$Comp
L corne-cherry-rescue:GND-power #PWR0101
U 1 1 5A93B0DB
P 9825 7075
F 0 "#PWR0101" H 9825 6825 50  0001 C CNN
F 1 "GND" H 9825 6925 50  0000 C CNN
F 2 "" H 9825 7075 50  0001 C CNN
F 3 "" H 9825 7075 50  0001 C CNN
	1    9825 7075
	1    0    0    -1  
$EndComp
$Comp
L corne-cherry-rescue:GND-power #PWR0102
U 1 1 5A93B401
P 8625 7075
F 0 "#PWR0102" H 8625 6825 50  0001 C CNN
F 1 "GND" H 8625 6925 50  0000 C CNN
F 2 "" H 8625 7075 50  0001 C CNN
F 3 "" H 8625 7075 50  0001 C CNN
	1    8625 7075
	1    0    0    -1  
$EndComp
$Comp
L corne-cherry-rescue:SK6812MINI-kbd L24
U 1 1 5AD785A7
P 10125 3925
F 0 "L24" H 10125 3925 59  0000 C CNN
F 1 "SK6812MINI" H 10125 3875 16  0000 C CNN
F 2 "kbd:SK6812MINI_underglow_rev" H 10125 3925 60  0001 C CNN
F 3 "" H 10125 3925 60  0001 C CNN
	1    10125 3925
	1    0    0    -1  
$EndComp
$Comp
L corne-cherry-rescue:SK6812MINI-kbd L23
U 1 1 5AD7881D
P 8925 3925
F 0 "L23" H 8925 3925 59  0000 C CNN
F 1 "SK6812MINI" H 8925 3875 16  0000 C CNN
F 2 "kbd:SK6812MINI_underglow_rev" H 8925 3925 60  0001 C CNN
F 3 "" H 8925 3925 60  0001 C CNN
	1    8925 3925
	1    0    0    -1  
$EndComp
$Comp
L corne-cherry-rescue:SK6812MINI-kbd L22
U 1 1 5AD78A03
P 7725 3925
F 0 "L22" H 7725 3925 59  0000 C CNN
F 1 "SK6812MINI" H 7725 3875 16  0000 C CNN
F 2 "kbd:SK6812MINI_underglow_rev" H 7725 3925 60  0001 C CNN
F 3 "" H 7725 3925 60  0001 C CNN
	1    7725 3925
	1    0    0    -1  
$EndComp
$Comp
L corne-cherry-rescue:SK6812MINI-kbd L27
U 1 1 5AD78CF3
P 10125 4500
F 0 "L27" H 10125 4500 59  0000 C CNN
F 1 "SK6812MINI" H 10125 4450 16  0000 C CNN
F 2 "kbd:SK6812MINI_underglow_rev" H 10125 4500 60  0001 C CNN
F 3 "" H 10125 4500 60  0001 C CNN
	1    10125 4500
	-1   0    0    1   
$EndComp
$Comp
L corne-cherry-rescue:SK6812MINI-kbd L26
U 1 1 5AD78CF9
P 8925 4500
F 0 "L26" H 8925 4500 59  0000 C CNN
F 1 "SK6812MINI" H 8925 4450 16  0000 C CNN
F 2 "kbd:SK6812MINI_underglow_rev" H 8925 4500 60  0001 C CNN
F 3 "" H 8925 4500 60  0001 C CNN
	1    8925 4500
	-1   0    0    1   
$EndComp
$Comp
L corne-cherry-rescue:SK6812MINI-kbd L25
U 1 1 5AD78CFF
P 7725 4500
F 0 "L25" H 7725 4500 59  0000 C CNN
F 1 "SK6812MINI" H 7725 4450 16  0000 C CNN
F 2 "kbd:SK6812MINI_underglow_rev" H 7725 4500 60  0001 C CNN
F 3 "" H 7725 4500 60  0001 C CNN
	1    7725 4500
	-1   0    0    1   
$EndComp
Text GLabel 10325 4025 2    60   Input ~ 0
LED
Connection ~ 8700 3300
Connection ~ 9400 3300
Wire Wire Line
	8550 3300 8700 3300
Wire Wire Line
	6450 2700 6600 2700
Wire Wire Line
	6450 2100 6600 2100
Wire Wire Line
	6450 1500 6600 1500
Wire Wire Line
	9500 1050 9500 1200
Wire Wire Line
	8800 1050 8800 1200
Wire Wire Line
	8100 1050 8100 1200
Wire Wire Line
	7400 1050 7400 1200
Wire Wire Line
	6700 1050 6700 1200
Wire Wire Line
	6000 1050 6000 1200
Connection ~ 9500 1200
Connection ~ 8800 1200
Connection ~ 7400 1200
Connection ~ 6700 1200
Connection ~ 6000 1200
Connection ~ 6000 1800
Connection ~ 9500 2400
Connection ~ 9500 1800
Connection ~ 8800 2400
Connection ~ 8800 1800
Connection ~ 8100 2400
Connection ~ 8100 1200
Connection ~ 8100 1800
Connection ~ 7400 1800
Connection ~ 6700 1800
Connection ~ 6600 2700
Connection ~ 7300 2700
Connection ~ 8000 2700
Connection ~ 8700 2700
Connection ~ 9400 2700
Connection ~ 6600 2100
Connection ~ 7300 2100
Connection ~ 8000 2100
Connection ~ 8700 2100
Connection ~ 9400 2100
Connection ~ 6600 1500
Connection ~ 7300 1500
Connection ~ 8000 1500
Connection ~ 8700 1500
Connection ~ 9400 1500
Wire Wire Line
	9925 6725 9925 6575
Wire Wire Line
	9925 6575 10325 6575
Wire Wire Line
	10325 6575 10325 6425
Wire Wire Line
	9925 6225 9925 6075
Wire Wire Line
	9925 6075 10325 6075
Wire Wire Line
	10325 6075 10325 5925
Wire Wire Line
	9925 5725 9925 5575
Wire Wire Line
	9925 5575 10325 5575
Wire Wire Line
	10325 5575 10325 5425
Wire Wire Line
	9325 5725 9325 5575
Wire Wire Line
	9325 5575 9725 5575
Wire Wire Line
	9725 5575 9725 5425
Wire Wire Line
	9325 6225 9325 6075
Wire Wire Line
	9325 6075 9725 6075
Wire Wire Line
	9725 6075 9725 5925
Wire Wire Line
	9325 6725 9325 6575
Wire Wire Line
	9325 6575 9725 6575
Wire Wire Line
	9725 6575 9725 6425
Wire Wire Line
	8725 6725 8725 6575
Wire Wire Line
	8725 6575 9125 6575
Wire Wire Line
	9125 6575 9125 6425
Wire Wire Line
	8725 6225 8725 6075
Wire Wire Line
	8725 6075 9125 6075
Wire Wire Line
	9125 6075 9125 5925
Wire Wire Line
	8725 5725 8725 5575
Wire Wire Line
	8725 5575 9125 5575
Wire Wire Line
	9125 5575 9125 5425
Wire Wire Line
	8125 5725 8125 5575
Wire Wire Line
	8125 5575 8525 5575
Wire Wire Line
	8525 5575 8525 5425
Wire Wire Line
	8125 6225 8125 6075
Wire Wire Line
	8125 6075 8525 6075
Wire Wire Line
	8525 6075 8525 5925
Wire Wire Line
	7525 6225 7525 6075
Wire Wire Line
	7525 6075 7925 6075
Wire Wire Line
	7925 6075 7925 5925
Wire Wire Line
	7525 5725 7525 5575
Wire Wire Line
	7525 5575 7925 5575
Wire Wire Line
	7925 5575 7925 5425
Wire Wire Line
	6925 5725 6925 5575
Wire Wire Line
	6925 5575 7325 5575
Wire Wire Line
	7325 5575 7325 5425
Wire Wire Line
	6925 6225 6925 6075
Wire Wire Line
	6925 6075 7325 6075
Wire Wire Line
	7325 6075 7325 5925
Wire Wire Line
	9925 5225 9925 5075
Wire Wire Line
	9925 5075 9325 5075
Wire Wire Line
	9325 5075 9325 5225
Wire Wire Line
	8725 5225 8725 5075
Wire Wire Line
	8725 5075 8125 5075
Wire Wire Line
	8125 5075 8125 5225
Wire Wire Line
	7525 5225 7525 5075
Wire Wire Line
	7525 5075 6925 5075
Wire Wire Line
	6925 5075 6925 5225
Wire Wire Line
	9725 6925 9725 7075
Wire Wire Line
	9725 7075 9125 7075
Wire Wire Line
	9125 7075 9125 6925
Wire Wire Line
	8525 6425 8525 6575
Wire Wire Line
	8525 6575 7925 6575
Wire Wire Line
	7925 6575 7925 6425
Wire Wire Line
	10425 6725 10325 6725
Wire Wire Line
	10425 5075 10425 5225
Wire Wire Line
	10325 5225 10425 5225
Connection ~ 10425 5225
Wire Wire Line
	10325 5725 10425 5725
Connection ~ 10425 5725
Wire Wire Line
	10325 6225 10425 6225
Connection ~ 10425 6225
Wire Wire Line
	9225 5075 9225 5225
Wire Wire Line
	9225 6925 9325 6925
Wire Wire Line
	9225 6425 9325 6425
Connection ~ 9225 6425
Wire Wire Line
	9225 5925 9325 5925
Connection ~ 9225 5925
Wire Wire Line
	9225 5425 9325 5425
Connection ~ 9225 5425
Wire Wire Line
	8025 5075 8025 5225
Wire Wire Line
	8025 6425 8125 6425
Wire Wire Line
	8125 5925 8025 5925
Connection ~ 8025 5925
Wire Wire Line
	8125 5425 8025 5425
Connection ~ 8025 5425
Wire Wire Line
	9125 5225 9225 5225
Connection ~ 9225 5225
Wire Wire Line
	9125 5725 9225 5725
Connection ~ 9225 5725
Wire Wire Line
	9125 6225 9225 6225
Connection ~ 9225 6225
Wire Wire Line
	9125 6725 9225 6725
Connection ~ 9225 6725
Wire Wire Line
	7925 5225 8025 5225
Connection ~ 8025 5225
Wire Wire Line
	7925 5725 8025 5725
Connection ~ 8025 5725
Wire Wire Line
	7925 6225 8025 6225
Connection ~ 8025 6225
Wire Wire Line
	6825 5075 6825 5425
Wire Wire Line
	6925 5425 6825 5425
Connection ~ 6825 5425
Wire Wire Line
	6925 5925 6825 5925
Connection ~ 6825 5925
Wire Wire Line
	6825 6425 6925 6425
Wire Wire Line
	9825 5225 9825 5425
Wire Wire Line
	9725 5225 9825 5225
Wire Wire Line
	9925 5425 9825 5425
Connection ~ 9825 5425
Wire Wire Line
	9725 5725 9825 5725
Connection ~ 9825 5725
Wire Wire Line
	9925 5925 9825 5925
Connection ~ 9825 5925
Wire Wire Line
	9725 6225 9825 6225
Connection ~ 9825 6225
Wire Wire Line
	9925 6425 9825 6425
Connection ~ 9825 6425
Wire Wire Line
	9725 6725 9825 6725
Connection ~ 9825 6725
Wire Wire Line
	9925 6925 9825 6925
Connection ~ 9825 6925
Wire Wire Line
	8625 5225 8625 5425
Wire Wire Line
	8725 6925 8625 6925
Connection ~ 8625 6925
Wire Wire Line
	8725 6425 8625 6425
Connection ~ 8625 6425
Wire Wire Line
	8525 6225 8625 6225
Connection ~ 8625 6225
Wire Wire Line
	8725 5925 8625 5925
Connection ~ 8625 5925
Wire Wire Line
	8525 5725 8625 5725
Connection ~ 8625 5725
Wire Wire Line
	8725 5425 8625 5425
Connection ~ 8625 5425
Wire Wire Line
	8525 5225 8625 5225
Wire Wire Line
	7425 5225 7425 5425
Wire Wire Line
	7325 5225 7425 5225
Wire Wire Line
	7525 5425 7425 5425
Connection ~ 7425 5425
Wire Wire Line
	7325 5725 7425 5725
Connection ~ 7425 5725
Wire Wire Line
	7525 5925 7425 5925
Connection ~ 7425 5925
Wire Wire Line
	7325 6225 7425 6225
Connection ~ 7425 6225
Wire Wire Line
	7525 6425 7425 6425
Connection ~ 7425 6425
Wire Wire Line
	7925 3825 7925 3700
Wire Wire Line
	7925 3700 9125 3700
Wire Wire Line
	9125 3825 9125 3700
Connection ~ 9125 3700
Wire Wire Line
	10325 3825 10325 3700
Connection ~ 10325 3700
Wire Wire Line
	7525 4600 7525 4775
Wire Wire Line
	7525 4775 8725 4775
Wire Wire Line
	9925 4600 9925 4775
Connection ~ 9925 4775
Wire Wire Line
	8725 4600 8725 4775
Connection ~ 8725 4775
Wire Wire Line
	10325 4225 10325 4400
Wire Wire Line
	7200 4225 7525 4225
Wire Wire Line
	9925 4025 9925 4225
Connection ~ 9925 4225
Wire Wire Line
	8725 4025 8725 4225
Connection ~ 8725 4225
Wire Wire Line
	7525 4025 7525 4225
Connection ~ 7525 4225
Wire Wire Line
	9925 3825 9550 3825
Wire Wire Line
	9550 3825 9550 4025
Wire Wire Line
	9550 4025 9125 4025
Wire Wire Line
	8725 3825 8325 3825
Wire Wire Line
	8325 3825 8325 4025
Wire Wire Line
	8325 4025 7925 4025
Wire Wire Line
	7525 3825 7400 3825
Wire Wire Line
	7400 3825 7400 4400
Wire Wire Line
	7400 4400 7525 4400
Wire Wire Line
	7925 4400 7925 4225
Connection ~ 7925 4225
Wire Wire Line
	9125 4400 9125 4225
Connection ~ 9125 4225
Wire Wire Line
	7925 4600 8350 4600
Wire Wire Line
	8350 4600 8350 4400
Wire Wire Line
	8350 4400 8725 4400
Wire Wire Line
	9125 4600 9550 4600
Wire Wire Line
	9550 4600 9550 4400
Wire Wire Line
	9550 4400 9925 4400
Wire Wire Line
	10325 4600 10575 4600
Wire Wire Line
	10575 4600 10575 6925
Wire Wire Line
	10575 6925 10325 6925
$Comp
L corne-cherry-rescue:VCC-power #PWR0103
U 1 1 5AD7B57B
P 10725 3700
F 0 "#PWR0103" H 10725 3550 50  0001 C CNN
F 1 "VCC" H 10725 3850 50  0000 C CNN
F 2 "" H 10725 3700 50  0001 C CNN
F 3 "" H 10725 3700 50  0001 C CNN
	1    10725 3700
	1    0    0    -1  
$EndComp
$Comp
L corne-cherry-rescue:VCC-power #PWR0104
U 1 1 5AD7B694
P 10775 4775
F 0 "#PWR0104" H 10775 4625 50  0001 C CNN
F 1 "VCC" H 10775 4925 50  0000 C CNN
F 2 "" H 10775 4775 50  0001 C CNN
F 3 "" H 10775 4775 50  0001 C CNN
	1    10775 4775
	1    0    0    -1  
$EndComp
$Comp
L corne-cherry-rescue:GND-power #PWR0105
U 1 1 5AD7B7AD
P 7200 4225
F 0 "#PWR0105" H 7200 3975 50  0001 C CNN
F 1 "GND" H 7200 4075 50  0000 C CNN
F 2 "" H 7200 4225 50  0001 C CNN
F 3 "" H 7200 4225 50  0001 C CNN
	1    7200 4225
	1    0    0    -1  
$EndComp
Wire Wire Line
	8700 3300 9400 3300
Wire Wire Line
	9400 3300 10100 3300
Wire Wire Line
	9500 1200 9500 1800
Wire Wire Line
	8800 1200 8800 1800
Wire Wire Line
	7400 1200 7400 1800
Wire Wire Line
	6700 1200 6700 1800
Wire Wire Line
	6000 1200 6000 1800
Wire Wire Line
	6000 1800 6000 2400
Wire Wire Line
	9500 2400 9500 3000
Wire Wire Line
	9500 1800 9500 2400
Wire Wire Line
	8800 2400 8800 3000
Wire Wire Line
	8800 1800 8800 2400
Wire Wire Line
	8100 2400 8100 3000
Wire Wire Line
	8100 1200 8100 1800
Wire Wire Line
	8100 1800 8100 2400
Wire Wire Line
	7400 1800 7400 2400
Wire Wire Line
	6700 1800 6700 2400
Wire Wire Line
	6600 2700 7300 2700
Wire Wire Line
	7300 2700 8000 2700
Wire Wire Line
	8000 2700 8700 2700
Wire Wire Line
	8700 2700 9400 2700
Wire Wire Line
	9400 2700 10100 2700
Wire Wire Line
	6600 2100 7300 2100
Wire Wire Line
	7300 2100 8000 2100
Wire Wire Line
	8000 2100 8700 2100
Wire Wire Line
	8700 2100 9400 2100
Wire Wire Line
	9400 2100 10100 2100
Wire Wire Line
	6600 1500 7300 1500
Wire Wire Line
	7300 1500 8000 1500
Wire Wire Line
	8000 1500 8700 1500
Wire Wire Line
	8700 1500 9400 1500
Wire Wire Line
	9400 1500 10100 1500
Wire Wire Line
	10425 5225 10425 5725
Wire Wire Line
	10425 5725 10425 6225
Wire Wire Line
	10425 6225 10425 6725
Wire Wire Line
	9225 6425 9225 6725
Wire Wire Line
	9225 5925 9225 6225
Wire Wire Line
	9225 5425 9225 5725
Wire Wire Line
	8025 5925 8025 6225
Wire Wire Line
	8025 5425 8025 5725
Wire Wire Line
	9225 5225 9225 5425
Wire Wire Line
	9225 5725 9225 5925
Wire Wire Line
	9225 6225 9225 6425
Wire Wire Line
	9225 6725 9225 6925
Wire Wire Line
	8025 5225 8025 5425
Wire Wire Line
	8025 5725 8025 5925
Wire Wire Line
	8025 6225 8025 6425
Wire Wire Line
	6825 5425 6825 5925
Wire Wire Line
	6825 5925 6825 6425
Wire Wire Line
	9825 5425 9825 5725
Wire Wire Line
	9825 5725 9825 5925
Wire Wire Line
	9825 5925 9825 6225
Wire Wire Line
	9825 6225 9825 6425
Wire Wire Line
	9825 6425 9825 6725
Wire Wire Line
	9825 6725 9825 6925
Wire Wire Line
	9825 6925 9825 7075
Wire Wire Line
	8625 6925 8625 7075
Wire Wire Line
	8625 6425 8625 6925
Wire Wire Line
	8625 6225 8625 6425
Wire Wire Line
	8625 5925 8625 6225
Wire Wire Line
	8625 5725 8625 5925
Wire Wire Line
	8625 5425 8625 5725
Wire Wire Line
	7425 5425 7425 5725
Wire Wire Line
	7425 5725 7425 5925
Wire Wire Line
	7425 5925 7425 6225
Wire Wire Line
	7425 6225 7425 6425
Wire Wire Line
	7425 6425 7425 6575
Wire Wire Line
	9125 3700 10325 3700
Wire Wire Line
	10325 3700 10725 3700
Wire Wire Line
	9925 4775 10775 4775
Wire Wire Line
	8725 4775 9925 4775
Wire Wire Line
	9925 4225 10325 4225
Wire Wire Line
	8725 4225 9125 4225
Wire Wire Line
	7525 4225 7925 4225
Wire Wire Line
	7925 4225 8725 4225
Wire Wire Line
	9125 4225 9925 4225
$Comp
L redox_rev1-cache:Device_Battery_Cell BT_LEFT1
U 1 1 5C0219D5
P 2300 6000
F 0 "BT_LEFT1" H 2418 6096 50  0000 L CNN
F 1 "Device_Battery_Cell" H 2418 6005 50  0000 L CNN
F 2 "redox_w_footprints:BatteryHolder_Keystone_3034_1x20mm" V 2300 6060 50  0001 C CNN
F 3 "" V 2300 6060 50  0001 C CNN
	1    2300 6000
	1    0    0    -1  
$EndComp
Text GLabel 2800 1350 2    50   Input ~ 0
SWCLK
Text GLabel 2800 1450 2    50   Input ~ 0
SWDIO
Text GLabel 2800 1150 2    50   Input ~ 0
row3
Text GLabel 2800 1050 2    50   Input ~ 0
row2
Text GLabel 2800 1750 2    50   Input ~ 0
row1
Text GLabel 2300 2500 3    50   Input ~ 0
col1
Text GLabel 2400 2500 3    50   Input ~ 0
col0
Text GLabel 2000 2500 3    50   Input ~ 0
col4
Text GLabel 2200 2500 3    50   Input ~ 0
col2
Text GLabel 2100 2500 3    50   Input ~ 0
col3
Text GLabel 1300 2500 3    50   Input ~ 0
col5
$Comp
L redox_rev1-cache:power_VCC #PWR0106
U 1 1 5C114870
P 900 2050
F 0 "#PWR0106" H 900 1900 50  0001 C CNN
F 1 "power_VCC" V 918 2178 50  0000 L CNN
F 2 "" H 900 2050 50  0001 C CNN
F 3 "" H 900 2050 50  0001 C CNN
	1    900  2050
	0    -1   -1   0   
$EndComp
$Comp
L redox_rev1-cache:power_GND #PWR0107
U 1 1 5C15EA95
P 900 1950
F 0 "#PWR0107" H 900 1700 50  0001 C CNN
F 1 "power_GND" V 905 1823 50  0000 R CNN
F 2 "" H 900 1950 50  0001 C CNN
F 3 "" H 900 1950 50  0001 C CNN
	1    900  1950
	0    1    1    0   
$EndComp
$Comp
L redox_rev1-cache:core51822b_Core51822B U_RIGHT1
U 1 1 5C16E205
P 1950 3700
F 0 "U_RIGHT1" H 1950 4587 60  0000 C CNN
F 1 "core51822b" H 1950 4481 60  0000 C CNN
F 2 "redox_w_footprints:MY-YJ-14015-Module" H 1950 3800 60  0001 C CNN
F 3 "" H 1950 3800 60  0001 C CNN
	1    1950 3700
	1    0    0    -1  
$EndComp
Text GLabel 2900 3600 2    50   Input ~ 0
SWCLK
Text GLabel 2900 3700 2    50   Input ~ 0
SWDIO
Text GLabel 1000 3400 0    50   Input ~ 0
row3
Text GLabel 1000 3300 0    50   Input ~ 0
row2
Text GLabel 1000 4000 0    50   Input ~ 0
row1
Text GLabel 2500 4750 3    50   Input ~ 0
col5
Text GLabel 1800 4750 3    50   Input ~ 0
col4
Text GLabel 1600 4750 3    50   Input ~ 0
col2
Text GLabel 1500 4750 3    50   Input ~ 0
col1
Text GLabel 1400 4750 3    50   Input ~ 0
col0
$Comp
L redox_rev1-cache:power_VCC #PWR0108
U 1 1 5C16E216
P 1000 4300
F 0 "#PWR0108" H 1000 4150 50  0001 C CNN
F 1 "power_VCC" V 1018 4428 50  0000 L CNN
F 2 "" H 1000 4300 50  0001 C CNN
F 3 "" H 1000 4300 50  0001 C CNN
	1    1000 4300
	0    -1   -1   0   
$EndComp
$Comp
L redox_rev1-cache:power_GND #PWR0109
U 1 1 5C16E21C
P 1000 4200
F 0 "#PWR0109" H 1000 3950 50  0001 C CNN
F 1 "power_GND" V 1005 4073 50  0000 R CNN
F 2 "" H 1000 4200 50  0001 C CNN
F 3 "" H 1000 4200 50  0001 C CNN
	1    1000 4200
	0    1    1    0   
$EndComp
$Comp
L redox_rev1-cache:Connector_Conn_01x04_Male J_PROG_PORT1
U 1 1 5C2EFD07
P 2350 7100
F 0 "J_PROG_PORT1" H 2456 7378 50  0000 C CNN
F 1 "Conn_01_X04_MALE" H 2456 7287 50  0000 C CNN
F 2 "redox_w_footprints:PinHeader_1x04_P2.54mm_Horizontal" H 2350 7100 50  0001 C CNN
F 3 "" H 2350 7100 50  0001 C CNN
	1    2350 7100
	1    0    0    -1  
$EndComp
Text GLabel 2550 7100 2    50   Input ~ 0
SWCLK
Text GLabel 2550 7200 2    50   Input ~ 0
SWDIO
$Comp
L redox_rev1-cache:Device_Battery_Cell BT_RIGHT1
U 1 1 5C377512
P 3600 6000
F 0 "BT_RIGHT1" H 3718 6096 50  0000 L CNN
F 1 "Device_Battery_Cell" H 3718 6005 50  0000 L CNN
F 2 "redox_w_footprints:BatteryHolder_Keystone_3034_1x20mm" V 3600 6060 50  0001 C CNN
F 3 "" V 3600 6060 50  0001 C CNN
	1    3600 6000
	1    0    0    -1  
$EndComp
$Comp
L redox_rev1-cache:Switch_SW_SPDT SW_RIGHT1
U 1 1 5C3B3007
P 3600 5600
F 0 "SW_RIGHT1" V 3646 5412 50  0000 R CNN
F 1 "Switch_SW_SPDT" V 3555 5412 50  0000 R CNN
F 2 "redox_w_footprints:SW_SPDT_CK-JS102011SAQN" H 3600 5600 50  0001 C CNN
F 3 "" H 3600 5600 50  0001 C CNN
	1    3600 5600
	0    -1   -1   0   
$EndComp
$Comp
L redox_rev1-cache:Switch_SW_SPDT SW_LEFT1
U 1 1 5C3B3133
P 2300 5600
F 0 "SW_LEFT1" V 2346 5412 50  0000 R CNN
F 1 "Switch_SW_SPDT" V 2255 5412 50  0000 R CNN
F 2 "redox_w_footprints:SW_SPDT_CK-JS102011SAQN" H 2300 5600 50  0001 C CNN
F 3 "" H 2300 5600 50  0001 C CNN
	1    2300 5600
	0    -1   -1   0   
$EndComp
Text GLabel 2800 1850 2    50   Input ~ 0
row0
NoConn ~ 2900 4300
NoConn ~ 2900 3900
NoConn ~ 2900 3800
NoConn ~ 1000 3600
NoConn ~ 1000 3700
NoConn ~ 1000 3800
NoConn ~ 1000 3900
NoConn ~ 2000 2500
NoConn ~ 2100 2500
NoConn ~ 2800 2050
NoConn ~ 2800 1950
NoConn ~ 2800 1750
NoConn ~ 2800 1650
NoConn ~ 2800 1550
NoConn ~ 2800 950 
$Comp
L redox_rev1-cache:power_GND #PWR0110
U 1 1 5C6200F9
P 900 950
F 0 "#PWR0110" H 900 700 50  0001 C CNN
F 1 "power_GND" V 905 823 50  0000 R CNN
F 2 "" H 900 950 50  0001 C CNN
F 3 "" H 900 950 50  0001 C CNN
	1    900  950 
	0    1    1    0   
$EndComp
$Comp
L redox_rev1-cache:power_GND #PWR0111
U 1 1 5C62041D
P 1000 3200
F 0 "#PWR0111" H 1000 2950 50  0001 C CNN
F 1 "power_GND" V 1005 3073 50  0000 R CNN
F 2 "" H 1000 3200 50  0001 C CNN
F 3 "" H 1000 3200 50  0001 C CNN
	1    1000 3200
	0    1    1    0   
$EndComp
NoConn ~ 1500 2500
NoConn ~ -5050 4900
NoConn ~ 2400 5400
NoConn ~ 3700 5400
$Comp
L redox_rev1-cache:core51822b_Core51822B U_LEFT1
U 1 1 5C022796
P 1850 1450
F 0 "U_LEFT1" H 1850 2337 60  0000 C CNN
F 1 "core51822b" H 1850 2231 60  0000 C CNN
F 2 "redox_w_footprints:MY-YJ-14015-Module" H 1850 1550 60  0001 C CNN
F 3 "" H 1850 1550 60  0001 C CNN
	1    1850 1450
	1    0    0    -1  
$EndComp
Text GLabel 1000 4100 0    50   Input ~ 0
row0
$Comp
L redox_rev1-cache:power_VCC #PWR0112
U 1 1 5C30F1B8
P 2550 7000
F 0 "#PWR0112" H 2550 6850 50  0001 C CNN
F 1 "power_VCC" V 2567 7128 50  0000 L CNN
F 2 "" H 2550 7000 50  0001 C CNN
F 3 "" H 2550 7000 50  0001 C CNN
	1    2550 7000
	0    1    1    0   
$EndComp
$Comp
L redox_rev1-cache:power_GND #PWR0113
U 1 1 5C31E74A
P 2550 7300
F 0 "#PWR0113" H 2550 7050 50  0001 C CNN
F 1 "power_GND" V 2555 7172 50  0000 R CNN
F 2 "" H 2550 7300 50  0001 C CNN
F 3 "" H 2550 7300 50  0001 C CNN
	1    2550 7300
	0    -1   -1   0   
$EndComp
$Comp
L redox_rev1-cache:power_GND #PWR0114
U 1 1 5C3B3AB3
P 2300 6100
F 0 "#PWR0114" H 2300 5850 50  0001 C CNN
F 1 "power_GND" H 2305 5927 50  0000 C CNN
F 2 "" H 2300 6100 50  0001 C CNN
F 3 "" H 2300 6100 50  0001 C CNN
	1    2300 6100
	1    0    0    -1  
$EndComp
$Comp
L redox_rev1-cache:power_GND #PWR0115
U 1 1 5C3B3BBC
P 3600 6100
F 0 "#PWR0115" H 3600 5850 50  0001 C CNN
F 1 "power_GND" H 3605 5927 50  0000 C CNN
F 2 "" H 3600 6100 50  0001 C CNN
F 3 "" H 3600 6100 50  0001 C CNN
	1    3600 6100
	1    0    0    -1  
$EndComp
$Comp
L redox_rev1-cache:power_VCC #PWR0116
U 1 1 5C1C673C
P 3500 5400
F 0 "#PWR0116" H 3500 5250 50  0001 C CNN
F 1 "power_VCC" H 3517 5573 50  0000 C CNN
F 2 "" H 3500 5400 50  0001 C CNN
F 3 "" H 3500 5400 50  0001 C CNN
	1    3500 5400
	1    0    0    -1  
$EndComp
$Comp
L redox_rev1-cache:power_VCC #PWR0117
U 1 1 5C1D5D19
P 2200 5400
F 0 "#PWR0117" H 2200 5250 50  0001 C CNN
F 1 "power_VCC" H 2217 5573 50  0000 C CNN
F 2 "" H 2200 5400 50  0001 C CNN
F 3 "" H 2200 5400 50  0001 C CNN
	1    2200 5400
	1    0    0    -1  
$EndComp
$Comp
L corne-cherry-rescue:GND-power #PWR0118
U 1 1 5A93C05D
P 7425 6575
F 0 "#PWR0118" H 7425 6325 50  0001 C CNN
F 1 "GND" H 7425 6425 50  0000 C CNN
F 2 "" H 7425 6575 50  0001 C CNN
F 3 "" H 7425 6575 50  0001 C CNN
	1    7425 6575
	1    0    0    -1  
$EndComp
$Comp
L corne-cherry-rescue:VCC-power #PWR0119
U 1 1 5A939D19
P 10425 5075
F 0 "#PWR0119" H 10425 4925 50  0001 C CNN
F 1 "VCC" H 10425 5225 50  0000 C CNN
F 2 "" H 10425 5075 50  0001 C CNN
F 3 "" H 10425 5075 50  0001 C CNN
	1    10425 5075
	1    0    0    -1  
$EndComp
$Comp
L corne-cherry-rescue:VCC-power #PWR0120
U 1 1 5A939EB6
P 9225 5075
F 0 "#PWR0120" H 9225 4925 50  0001 C CNN
F 1 "VCC" H 9225 5225 50  0000 C CNN
F 2 "" H 9225 5075 50  0001 C CNN
F 3 "" H 9225 5075 50  0001 C CNN
	1    9225 5075
	1    0    0    -1  
$EndComp
$Comp
L corne-cherry-rescue:VCC-power #PWR0121
U 1 1 5A93A2E2
P 8025 5075
F 0 "#PWR0121" H 8025 4925 50  0001 C CNN
F 1 "VCC" H 8025 5225 50  0000 C CNN
F 2 "" H 8025 5075 50  0001 C CNN
F 3 "" H 8025 5075 50  0001 C CNN
	1    8025 5075
	1    0    0    -1  
$EndComp
$Comp
L corne-cherry-rescue:VCC-power #PWR0122
U 1 1 5A93A47F
P 6825 5075
F 0 "#PWR0122" H 6825 4925 50  0001 C CNN
F 1 "VCC" H 6825 5225 50  0000 C CNN
F 2 "" H 6825 5075 50  0001 C CNN
F 3 "" H 6825 5075 50  0001 C CNN
	1    6825 5075
	1    0    0    -1  
$EndComp
Text GLabel 1900 4750 3    50   Input ~ 0
LED
Text GLabel 1900 2500 3    50   Input ~ 0
LED
Text GLabel 1700 4750 3    50   Input ~ 0
col3
$EndSCHEMATC
