EESchema Schematic File Version 4
LIBS:corne-cherry-cache
EELAYER 26 0
EELAYER END
$Descr A4 11693 8268
encoding utf-8
Sheet 1 1
Title "Corne Cherry"
Date "2018-08-25"
Rev "2.0"
Comp "foostan"
Comment1 ""
Comment2 ""
Comment3 ""
Comment4 ""
$EndDescr
$Comp
L corne-cherry-rescue:SW_PUSH-kbd SW4
U 1 1 5A5E2699
P 6100 2100
F 0 "SW4" H 6250 2210 50  0000 C CNN
F 1 "SW_PUSH" H 6100 2020 50  0000 C CNN
F 2 "kbd:MX_ALPS_PG1350_noLed" H 6100 2100 50  0001 C CNN
F 3 "" H 6100 2100 50  0000 C CNN
	1    6100 2100
	1    0    0    -1  
$EndComp
$Comp
L corne-cherry-rescue:D-Device D4
U 1 1 5A5E26C6
P 6400 2250
F 0 "D4" H 6400 2350 50  0000 C CNN
F 1 "D" H 6400 2150 50  0000 C CNN
F 2 "kbd:D3_SMD" H 6400 2250 50  0001 C CNN
F 3 "" H 6400 2250 50  0001 C CNN
	1    6400 2250
	0    -1   -1   0   
$EndComp
$Comp
L corne-cherry-rescue:SW_PUSH-kbd SW7
U 1 1 5A5E27F9
P 6800 2100
F 0 "SW7" H 6950 2210 50  0000 C CNN
F 1 "SW_PUSH" H 6800 2020 50  0000 C CNN
F 2 "kbd:MX_ALPS_PG1350_noLed" H 6800 2100 50  0001 C CNN
F 3 "" H 6800 2100 50  0000 C CNN
	1    6800 2100
	1    0    0    -1  
$EndComp
$Comp
L corne-cherry-rescue:D-Device D7
U 1 1 5A5E281F
P 7100 2250
F 0 "D7" H 7100 2350 50  0000 C CNN
F 1 "D" H 7100 2150 50  0000 C CNN
F 2 "kbd:D3_SMD" H 7100 2250 50  0001 C CNN
F 3 "" H 7100 2250 50  0001 C CNN
	1    7100 2250
	0    -1   -1   0   
$EndComp
$Comp
L corne-cherry-rescue:SW_PUSH-kbd SW10
U 1 1 5BF9F067
P 7500 2100
F 0 "SW10" H 7650 2210 50  0000 C CNN
F 1 "SW_PUSH" H 7500 2020 50  0000 C CNN
F 2 "kbd:MX_ALPS_PG1350_noLed" H 7500 2100 50  0001 C CNN
F 3 "" H 7500 2100 50  0000 C CNN
	1    7500 2100
	1    0    0    -1  
$EndComp
$Comp
L corne-cherry-rescue:SW_PUSH-kbd SW14
U 1 1 5BF9F068
P 8200 2100
F 0 "SW14" H 8350 2210 50  0000 C CNN
F 1 "SW_PUSH" H 8200 2020 50  0000 C CNN
F 2 "kbd:MX_ALPS_PG1350_noLed" H 8200 2100 50  0001 C CNN
F 3 "" H 8200 2100 50  0000 C CNN
	1    8200 2100
	1    0    0    -1  
$EndComp
$Comp
L corne-cherry-rescue:SW_PUSH-kbd SW18
U 1 1 5BF9F069
P 8900 2100
F 0 "SW18" H 9050 2210 50  0000 C CNN
F 1 "SW_PUSH" H 8900 2020 50  0000 C CNN
F 2 "kbd:MX_ALPS_PG1350_noLed" H 8900 2100 50  0001 C CNN
F 3 "" H 8900 2100 50  0000 C CNN
	1    8900 2100
	1    0    0    -1  
$EndComp
$Comp
L corne-cherry-rescue:D-Device D10
U 1 1 5BF9F06A
P 7800 2250
F 0 "D10" H 7800 2350 50  0000 C CNN
F 1 "D" H 7800 2150 50  0000 C CNN
F 2 "kbd:D3_SMD" H 7800 2250 50  0001 C CNN
F 3 "" H 7800 2250 50  0001 C CNN
	1    7800 2250
	0    -1   -1   0   
$EndComp
$Comp
L corne-cherry-rescue:D-Device D14
U 1 1 5A5E29F2
P 8500 2250
F 0 "D14" H 8500 2350 50  0000 C CNN
F 1 "D" H 8500 2150 50  0000 C CNN
F 2 "kbd:D3_SMD" H 8500 2250 50  0001 C CNN
F 3 "" H 8500 2250 50  0001 C CNN
	1    8500 2250
	0    -1   -1   0   
$EndComp
$Comp
L corne-cherry-rescue:D-Device D18
U 1 1 5A5E2A33
P 9200 2250
F 0 "D18" H 9200 2350 50  0000 C CNN
F 1 "D" H 9200 2150 50  0000 C CNN
F 2 "kbd:D3_SMD" H 9200 2250 50  0001 C CNN
F 3 "" H 9200 2250 50  0001 C CNN
	1    9200 2250
	0    -1   -1   0   
$EndComp
$Comp
L corne-cherry-rescue:SW_PUSH-kbd SW1
U 1 1 5A5E2B19
P 5400 2100
F 0 "SW1" H 5550 2210 50  0000 C CNN
F 1 "SW_PUSH" H 5400 2020 50  0000 C CNN
F 2 "kbd:MX_ALPS_PG1350_noLed" H 5400 2100 50  0001 C CNN
F 3 "" H 5400 2100 50  0000 C CNN
	1    5400 2100
	1    0    0    -1  
$EndComp
$Comp
L corne-cherry-rescue:D-Device D1
U 1 1 5A5E2B5B
P 5700 2250
F 0 "D1" H 5700 2350 50  0000 C CNN
F 1 "D" H 5700 2150 50  0000 C CNN
F 2 "kbd:D3_SMD" H 5700 2250 50  0001 C CNN
F 3 "" H 5700 2250 50  0001 C CNN
	1    5700 2250
	0    -1   -1   0   
$EndComp
$Comp
L corne-cherry-rescue:SW_PUSH-kbd SW5
U 1 1 5A5E2D26
P 6100 2700
F 0 "SW5" H 6250 2810 50  0000 C CNN
F 1 "SW_PUSH" H 6100 2620 50  0000 C CNN
F 2 "kbd:MX_ALPS_PG1350_noLed" H 6100 2700 50  0001 C CNN
F 3 "" H 6100 2700 50  0000 C CNN
	1    6100 2700
	1    0    0    -1  
$EndComp
$Comp
L corne-cherry-rescue:D-Device D5
U 1 1 5A5E2D2C
P 6400 2850
F 0 "D5" H 6400 2950 50  0000 C CNN
F 1 "D" H 6400 2750 50  0000 C CNN
F 2 "kbd:D3_SMD" H 6400 2850 50  0001 C CNN
F 3 "" H 6400 2850 50  0001 C CNN
	1    6400 2850
	0    -1   -1   0   
$EndComp
$Comp
L corne-cherry-rescue:SW_PUSH-kbd SW8
U 1 1 5A5E2D32
P 6800 2700
F 0 "SW8" H 6950 2810 50  0000 C CNN
F 1 "SW_PUSH" H 6800 2620 50  0000 C CNN
F 2 "kbd:MX_ALPS_PG1350_noLed" H 6800 2700 50  0001 C CNN
F 3 "" H 6800 2700 50  0000 C CNN
	1    6800 2700
	1    0    0    -1  
$EndComp
$Comp
L corne-cherry-rescue:D-Device D8
U 1 1 5A5E2D38
P 7100 2850
F 0 "D8" H 7100 2950 50  0000 C CNN
F 1 "D" H 7100 2750 50  0000 C CNN
F 2 "kbd:D3_SMD" H 7100 2850 50  0001 C CNN
F 3 "" H 7100 2850 50  0001 C CNN
	1    7100 2850
	0    -1   -1   0   
$EndComp
$Comp
L corne-cherry-rescue:SW_PUSH-kbd SW11
U 1 1 5BF9F06C
P 7500 2700
F 0 "SW11" H 7650 2810 50  0000 C CNN
F 1 "SW_PUSH" H 7500 2620 50  0000 C CNN
F 2 "kbd:MX_ALPS_PG1350_noLed" H 7500 2700 50  0001 C CNN
F 3 "" H 7500 2700 50  0000 C CNN
	1    7500 2700
	1    0    0    -1  
$EndComp
$Comp
L corne-cherry-rescue:SW_PUSH-kbd SW15
U 1 1 5BF9F06D
P 8200 2700
F 0 "SW15" H 8350 2810 50  0000 C CNN
F 1 "SW_PUSH" H 8200 2620 50  0000 C CNN
F 2 "kbd:MX_ALPS_PG1350_noLed" H 8200 2700 50  0001 C CNN
F 3 "" H 8200 2700 50  0000 C CNN
	1    8200 2700
	1    0    0    -1  
$EndComp
$Comp
L corne-cherry-rescue:SW_PUSH-kbd SW19
U 1 1 5A5E2D4A
P 8900 2700
F 0 "SW19" H 9050 2810 50  0000 C CNN
F 1 "SW_PUSH" H 8900 2620 50  0000 C CNN
F 2 "kbd:MX_ALPS_PG1350_noLed" H 8900 2700 50  0001 C CNN
F 3 "" H 8900 2700 50  0000 C CNN
	1    8900 2700
	1    0    0    -1  
$EndComp
$Comp
L corne-cherry-rescue:D-Device D11
U 1 1 5A5E2D56
P 7800 2850
F 0 "D11" H 7800 2950 50  0000 C CNN
F 1 "D" H 7800 2750 50  0000 C CNN
F 2 "kbd:D3_SMD" H 7800 2850 50  0001 C CNN
F 3 "" H 7800 2850 50  0001 C CNN
	1    7800 2850
	0    -1   -1   0   
$EndComp
$Comp
L corne-cherry-rescue:D-Device D15
U 1 1 5A5E2D5C
P 8500 2850
F 0 "D15" H 8500 2950 50  0000 C CNN
F 1 "D" H 8500 2750 50  0000 C CNN
F 2 "kbd:D3_SMD" H 8500 2850 50  0001 C CNN
F 3 "" H 8500 2850 50  0001 C CNN
	1    8500 2850
	0    -1   -1   0   
$EndComp
$Comp
L corne-cherry-rescue:D-Device D19
U 1 1 5BF9F070
P 9200 2850
F 0 "D19" H 9200 2950 50  0000 C CNN
F 1 "D" H 9200 2750 50  0000 C CNN
F 2 "kbd:D3_SMD" H 9200 2850 50  0001 C CNN
F 3 "" H 9200 2850 50  0001 C CNN
	1    9200 2850
	0    -1   -1   0   
$EndComp
$Comp
L corne-cherry-rescue:SW_PUSH-kbd SW2
U 1 1 5BF9F071
P 5400 2700
F 0 "SW2" H 5550 2810 50  0000 C CNN
F 1 "SW_PUSH" H 5400 2620 50  0000 C CNN
F 2 "kbd:MX_ALPS_PG1350_noLed" H 5400 2700 50  0001 C CNN
F 3 "" H 5400 2700 50  0000 C CNN
	1    5400 2700
	1    0    0    -1  
$EndComp
$Comp
L corne-cherry-rescue:D-Device D2
U 1 1 5A5E2D74
P 5700 2850
F 0 "D2" H 5700 2950 50  0000 C CNN
F 1 "D" H 5700 2750 50  0000 C CNN
F 2 "kbd:D3_SMD" H 5700 2850 50  0001 C CNN
F 3 "" H 5700 2850 50  0001 C CNN
	1    5700 2850
	0    -1   -1   0   
$EndComp
$Comp
L corne-cherry-rescue:SW_PUSH-kbd SW6
U 1 1 5A5E35B1
P 6100 3300
F 0 "SW6" H 6250 3410 50  0000 C CNN
F 1 "SW_PUSH" H 6100 3220 50  0000 C CNN
F 2 "kbd:MX_ALPS_PG1350_noLed" H 6100 3300 50  0001 C CNN
F 3 "" H 6100 3300 50  0000 C CNN
	1    6100 3300
	1    0    0    -1  
$EndComp
$Comp
L corne-cherry-rescue:D-Device D6
U 1 1 5A5E35B7
P 6400 3450
F 0 "D6" H 6400 3550 50  0000 C CNN
F 1 "D" H 6400 3350 50  0000 C CNN
F 2 "kbd:D3_SMD" H 6400 3450 50  0001 C CNN
F 3 "" H 6400 3450 50  0001 C CNN
	1    6400 3450
	0    -1   -1   0   
$EndComp
$Comp
L corne-cherry-rescue:SW_PUSH-kbd SW9
U 1 1 5A5E35BD
P 6800 3300
F 0 "SW9" H 6950 3410 50  0000 C CNN
F 1 "SW_PUSH" H 6800 3220 50  0000 C CNN
F 2 "kbd:MX_ALPS_PG1350_noLed" H 6800 3300 50  0001 C CNN
F 3 "" H 6800 3300 50  0000 C CNN
	1    6800 3300
	1    0    0    -1  
$EndComp
$Comp
L corne-cherry-rescue:D-Device D9
U 1 1 5A5E35C3
P 7100 3450
F 0 "D9" H 7100 3550 50  0000 C CNN
F 1 "D" H 7100 3350 50  0000 C CNN
F 2 "kbd:D3_SMD" H 7100 3450 50  0001 C CNN
F 3 "" H 7100 3450 50  0001 C CNN
	1    7100 3450
	0    -1   -1   0   
$EndComp
$Comp
L corne-cherry-rescue:SW_PUSH-kbd SW12
U 1 1 5A5E35C9
P 7500 3300
F 0 "SW12" H 7650 3410 50  0000 C CNN
F 1 "SW_PUSH" H 7500 3220 50  0000 C CNN
F 2 "kbd:MX_ALPS_PG1350_noLed" H 7500 3300 50  0001 C CNN
F 3 "" H 7500 3300 50  0000 C CNN
	1    7500 3300
	1    0    0    -1  
$EndComp
$Comp
L corne-cherry-rescue:SW_PUSH-kbd SW16
U 1 1 5A5E35CF
P 8200 3300
F 0 "SW16" H 8350 3410 50  0000 C CNN
F 1 "SW_PUSH" H 8200 3220 50  0000 C CNN
F 2 "kbd:MX_ALPS_PG1350_noLed" H 8200 3300 50  0001 C CNN
F 3 "" H 8200 3300 50  0000 C CNN
	1    8200 3300
	1    0    0    -1  
$EndComp
$Comp
L corne-cherry-rescue:SW_PUSH-kbd SW20
U 1 1 5A5E35D5
P 8900 3300
F 0 "SW20" H 9050 3410 50  0000 C CNN
F 1 "SW_PUSH" H 8900 3220 50  0000 C CNN
F 2 "kbd:MX_ALPS_PG1350_noLed" H 8900 3300 50  0001 C CNN
F 3 "" H 8900 3300 50  0000 C CNN
	1    8900 3300
	1    0    0    -1  
$EndComp
$Comp
L corne-cherry-rescue:D-Device D12
U 1 1 5A5E35E1
P 7800 3450
F 0 "D12" H 7800 3550 50  0000 C CNN
F 1 "D" H 7800 3350 50  0000 C CNN
F 2 "kbd:D3_SMD" H 7800 3450 50  0001 C CNN
F 3 "" H 7800 3450 50  0001 C CNN
	1    7800 3450
	0    -1   -1   0   
$EndComp
$Comp
L corne-cherry-rescue:D-Device D16
U 1 1 5A5E35E7
P 8500 3450
F 0 "D16" H 8500 3550 50  0000 C CNN
F 1 "D" H 8500 3350 50  0000 C CNN
F 2 "kbd:D3_SMD" H 8500 3450 50  0001 C CNN
F 3 "" H 8500 3450 50  0001 C CNN
	1    8500 3450
	0    -1   -1   0   
$EndComp
$Comp
L corne-cherry-rescue:D-Device D20
U 1 1 5A5E35ED
P 9200 3450
F 0 "D20" H 9200 3550 50  0000 C CNN
F 1 "D" H 9200 3350 50  0000 C CNN
F 2 "kbd:D3_SMD" H 9200 3450 50  0001 C CNN
F 3 "" H 9200 3450 50  0001 C CNN
	1    9200 3450
	0    -1   -1   0   
$EndComp
$Comp
L corne-cherry-rescue:SW_PUSH-kbd SW3
U 1 1 5A5E35F9
P 5400 3300
F 0 "SW3" H 5550 3410 50  0000 C CNN
F 1 "SW_PUSH" H 5400 3220 50  0000 C CNN
F 2 "kbd:MX_ALPS_PG1350_noLed" H 5400 3300 50  0001 C CNN
F 3 "" H 5400 3300 50  0000 C CNN
	1    5400 3300
	1    0    0    -1  
$EndComp
$Comp
L corne-cherry-rescue:D-Device D3
U 1 1 5BF9F073
P 5700 3450
F 0 "D3" H 5700 3550 50  0000 C CNN
F 1 "D" H 5700 3350 50  0000 C CNN
F 2 "kbd:D3_SMD" H 5700 3450 50  0001 C CNN
F 3 "" H 5700 3450 50  0001 C CNN
	1    5700 3450
	0    -1   -1   0   
$EndComp
$Comp
L corne-cherry-rescue:SW_PUSH-kbd SW17
U 1 1 5A5E37A4
P 8200 3900
F 0 "SW17" H 8350 4010 50  0000 C CNN
F 1 "SW_PUSH" H 8200 3820 50  0000 C CNN
F 2 "kbd:MX_ALPS_PG1350_noLed" H 8200 3900 50  0001 C CNN
F 3 "" H 8200 3900 50  0000 C CNN
	1    8200 3900
	1    0    0    -1  
$EndComp
$Comp
L corne-cherry-rescue:D-Device D17
U 1 1 5BF9F075
P 8500 4050
F 0 "D17" H 8500 4150 50  0000 C CNN
F 1 "D" H 8500 3950 50  0000 C CNN
F 2 "kbd:D3_SMD" H 8500 4050 50  0001 C CNN
F 3 "" H 8500 4050 50  0001 C CNN
	1    8500 4050
	0    -1   -1   0   
$EndComp
$Comp
L corne-cherry-rescue:SW_PUSH-kbd SW21
U 1 1 5A5E37B0
P 8900 3900
F 0 "SW21" H 9050 4010 50  0000 C CNN
F 1 "SW_PUSH" H 8900 3820 50  0000 C CNN
F 2 "kbd:MX_ALPS_PG1350_noLed_1.75u" H 8900 3900 50  0001 C CNN
F 3 "" H 8900 3900 50  0000 C CNN
	1    8900 3900
	1    0    0    -1  
$EndComp
$Comp
L corne-cherry-rescue:D-Device D21
U 1 1 5A5E37B6
P 9200 4050
F 0 "D21" H 9200 4150 50  0000 C CNN
F 1 "D" H 9200 3950 50  0000 C CNN
F 2 "kbd:D3_SMD" H 9200 4050 50  0001 C CNN
F 3 "" H 9200 4050 50  0001 C CNN
	1    9200 4050
	0    -1   -1   0   
$EndComp
$Comp
L corne-cherry-rescue:SW_PUSH-kbd SW13
U 1 1 5A5E37EC
P 7500 3900
F 0 "SW13" H 7650 4010 50  0000 C CNN
F 1 "SW_PUSH" H 7500 3820 50  0000 C CNN
F 2 "kbd:MX_ALPS_PG1350_noLed" H 7500 3900 50  0001 C CNN
F 3 "" H 7500 3900 50  0000 C CNN
	1    7500 3900
	1    0    0    -1  
$EndComp
$Comp
L corne-cherry-rescue:D-Device D13
U 1 1 5A5E37F2
P 7800 4050
F 0 "D13" H 7800 4150 50  0000 C CNN
F 1 "D" H 7800 3950 50  0000 C CNN
F 2 "kbd:D3_SMD" H 7800 4050 50  0001 C CNN
F 3 "" H 7800 4050 50  0001 C CNN
	1    7800 4050
	0    -1   -1   0   
$EndComp
Text GLabel 5800 1950 1    60   Input ~ 0
col1
Text GLabel 5100 1950 1    60   Input ~ 0
col0
Text GLabel 6500 1950 1    60   Input ~ 0
col2
Text GLabel 7200 1950 1    60   Input ~ 0
col3
Text GLabel 7900 1950 1    60   Input ~ 0
col4
Text GLabel 8600 1950 1    60   Input ~ 0
col5
Text GLabel 5550 2400 0    60   Input ~ 0
row0
Text GLabel 5550 3000 0    60   Input ~ 0
row1
Text GLabel 5550 3600 0    60   Input ~ 0
row2
Text GLabel 7650 4200 0    60   Input ~ 0
row3
$Comp
L corne-cherry-rescue:SK6812MINI-kbd L6
U 1 1 5A7737BA
P 11375 3625
F 0 "L6" H 11375 3625 59  0000 C CNN
F 1 "SK6812MINI" H 11375 3575 16  0000 C CNN
F 2 "kbd:SK6812MINI_rev" H 11375 3625 60  0001 C CNN
F 3 "" H 11375 3625 60  0001 C CNN
	1    11375 3625
	1    0    0    -1  
$EndComp
$Comp
L corne-cherry-rescue:SK6812MINI-kbd L9
U 1 1 5A77395F
P 11975 3625
F 0 "L9" H 11975 3625 59  0000 C CNN
F 1 "SK6812MINI" H 11975 3575 16  0000 C CNN
F 2 "kbd:SK6812MINI_rev" H 11975 3625 60  0001 C CNN
F 3 "" H 11975 3625 60  0001 C CNN
	1    11975 3625
	-1   0    0    1   
$EndComp
$Comp
L corne-cherry-rescue:SK6812MINI-kbd L14
U 1 1 5A77468D
P 12575 3625
F 0 "L14" H 12575 3625 59  0000 C CNN
F 1 "SK6812MINI" H 12575 3575 16  0000 C CNN
F 2 "kbd:SK6812MINI_rev" H 12575 3625 60  0001 C CNN
F 3 "" H 12575 3625 60  0001 C CNN
	1    12575 3625
	1    0    0    -1  
$EndComp
$Comp
L corne-cherry-rescue:SK6812MINI-kbd L18
U 1 1 5A774838
P 13175 3625
F 0 "L18" H 13175 3625 59  0000 C CNN
F 1 "SK6812MINI" H 13175 3575 16  0000 C CNN
F 2 "kbd:SK6812MINI_rev" H 13175 3625 60  0001 C CNN
F 3 "" H 13175 3625 60  0001 C CNN
	1    13175 3625
	-1   0    0    1   
$EndComp
$Comp
L corne-cherry-rescue:SK6812MINI-kbd L24
U 1 1 5A7749E7
P 13775 3625
F 0 "L24" H 13775 3625 59  0000 C CNN
F 1 "SK6812MINI" H 13775 3575 16  0000 C CNN
F 2 "kbd:SK6812MINI_rev" H 13775 3625 60  0001 C CNN
F 3 "" H 13775 3625 60  0001 C CNN
	1    13775 3625
	1    0    0    -1  
$EndComp
$Comp
L corne-cherry-rescue:SK6812MINI-kbd L1
U 1 1 5A774B99
P 10775 3625
F 0 "L1" H 10775 3625 59  0000 C CNN
F 1 "SK6812MINI" H 10775 3575 16  0000 C CNN
F 2 "kbd:SK6812MINI_rev" H 10775 3625 60  0001 C CNN
F 3 "" H 10775 3625 60  0001 C CNN
	1    10775 3625
	-1   0    0    1   
$EndComp
$Comp
L corne-cherry-rescue:SK6812MINI-kbd L7
U 1 1 5A774F4E
P 11375 4125
F 0 "L7" H 11375 4125 59  0000 C CNN
F 1 "SK6812MINI" H 11375 4075 16  0000 C CNN
F 2 "kbd:SK6812MINI_rev" H 11375 4125 60  0001 C CNN
F 3 "" H 11375 4125 60  0001 C CNN
	1    11375 4125
	1    0    0    -1  
$EndComp
$Comp
L corne-cherry-rescue:SK6812MINI-kbd L10
U 1 1 5A774F54
P 11975 4125
F 0 "L10" H 11975 4125 59  0000 C CNN
F 1 "SK6812MINI" H 11975 4075 16  0000 C CNN
F 2 "kbd:SK6812MINI_rev" H 11975 4125 60  0001 C CNN
F 3 "" H 11975 4125 60  0001 C CNN
	1    11975 4125
	-1   0    0    1   
$EndComp
$Comp
L corne-cherry-rescue:SK6812MINI-kbd L15
U 1 1 5A774F5A
P 12575 4125
F 0 "L15" H 12575 4125 59  0000 C CNN
F 1 "SK6812MINI" H 12575 4075 16  0000 C CNN
F 2 "kbd:SK6812MINI_rev" H 12575 4125 60  0001 C CNN
F 3 "" H 12575 4125 60  0001 C CNN
	1    12575 4125
	1    0    0    -1  
$EndComp
$Comp
L corne-cherry-rescue:SK6812MINI-kbd L19
U 1 1 5A774F60
P 13175 4125
F 0 "L19" H 13175 4125 59  0000 C CNN
F 1 "SK6812MINI" H 13175 4075 16  0000 C CNN
F 2 "kbd:SK6812MINI_rev" H 13175 4125 60  0001 C CNN
F 3 "" H 13175 4125 60  0001 C CNN
	1    13175 4125
	-1   0    0    1   
$EndComp
$Comp
L corne-cherry-rescue:SK6812MINI-kbd L25
U 1 1 5A774F66
P 13775 4125
F 0 "L25" H 13775 4125 59  0000 C CNN
F 1 "SK6812MINI" H 13775 4075 16  0000 C CNN
F 2 "kbd:SK6812MINI_rev" H 13775 4125 60  0001 C CNN
F 3 "" H 13775 4125 60  0001 C CNN
	1    13775 4125
	1    0    0    -1  
$EndComp
$Comp
L corne-cherry-rescue:SK6812MINI-kbd L2
U 1 1 5A774F6C
P 10775 4125
F 0 "L2" H 10775 4125 59  0000 C CNN
F 1 "SK6812MINI" H 10775 4075 16  0000 C CNN
F 2 "kbd:SK6812MINI_rev" H 10775 4125 60  0001 C CNN
F 3 "" H 10775 4125 60  0001 C CNN
	1    10775 4125
	-1   0    0    1   
$EndComp
$Comp
L corne-cherry-rescue:SK6812MINI-kbd L8
U 1 1 5A775150
P 11375 4625
F 0 "L8" H 11375 4625 59  0000 C CNN
F 1 "SK6812MINI" H 11375 4575 16  0000 C CNN
F 2 "kbd:SK6812MINI_rev" H 11375 4625 60  0001 C CNN
F 3 "" H 11375 4625 60  0001 C CNN
	1    11375 4625
	1    0    0    -1  
$EndComp
$Comp
L corne-cherry-rescue:SK6812MINI-kbd L11
U 1 1 5A775156
P 11975 4625
F 0 "L11" H 11975 4625 59  0000 C CNN
F 1 "SK6812MINI" H 11975 4575 16  0000 C CNN
F 2 "kbd:SK6812MINI_rev" H 11975 4625 60  0001 C CNN
F 3 "" H 11975 4625 60  0001 C CNN
	1    11975 4625
	-1   0    0    1   
$EndComp
$Comp
L corne-cherry-rescue:SK6812MINI-kbd L16
U 1 1 5A77515C
P 12575 4625
F 0 "L16" H 12575 4625 59  0000 C CNN
F 1 "SK6812MINI" H 12575 4575 16  0000 C CNN
F 2 "kbd:SK6812MINI_rev" H 12575 4625 60  0001 C CNN
F 3 "" H 12575 4625 60  0001 C CNN
	1    12575 4625
	1    0    0    -1  
$EndComp
$Comp
L corne-cherry-rescue:SK6812MINI-kbd L20
U 1 1 5A775162
P 13175 4625
F 0 "L20" H 13175 4625 59  0000 C CNN
F 1 "SK6812MINI" H 13175 4575 16  0000 C CNN
F 2 "kbd:SK6812MINI_rev" H 13175 4625 60  0001 C CNN
F 3 "" H 13175 4625 60  0001 C CNN
	1    13175 4625
	-1   0    0    1   
$EndComp
$Comp
L corne-cherry-rescue:SK6812MINI-kbd L26
U 1 1 5A775168
P 13775 4625
F 0 "L26" H 13775 4625 59  0000 C CNN
F 1 "SK6812MINI" H 13775 4575 16  0000 C CNN
F 2 "kbd:SK6812MINI_rev" H 13775 4625 60  0001 C CNN
F 3 "" H 13775 4625 60  0001 C CNN
	1    13775 4625
	1    0    0    -1  
$EndComp
$Comp
L corne-cherry-rescue:SK6812MINI-kbd L3
U 1 1 5A77516E
P 10775 4625
F 0 "L3" H 10775 4625 59  0000 C CNN
F 1 "SK6812MINI" H 10775 4575 16  0000 C CNN
F 2 "kbd:SK6812MINI_rev" H 10775 4625 60  0001 C CNN
F 3 "" H 10775 4625 60  0001 C CNN
	1    10775 4625
	-1   0    0    1   
$EndComp
$Comp
L corne-cherry-rescue:SK6812MINI-kbd L21
U 1 1 5A775174
P 13175 5125
F 0 "L21" H 13175 5125 59  0000 C CNN
F 1 "SK6812MINI" H 13175 5075 16  0000 C CNN
F 2 "kbd:SK6812MINI_rev" H 13175 5125 60  0001 C CNN
F 3 "" H 13175 5125 60  0001 C CNN
	1    13175 5125
	-1   0    0    1   
$EndComp
$Comp
L corne-cherry-rescue:SK6812MINI-kbd L27
U 1 1 5A77517A
P 13775 5125
F 0 "L27" H 13775 5125 59  0000 C CNN
F 1 "SK6812MINI" H 13775 5075 16  0000 C CNN
F 2 "kbd:SK6812MINI_rev" H 13775 5125 60  0001 C CNN
F 3 "" H 13775 5125 60  0001 C CNN
	1    13775 5125
	1    0    0    -1  
$EndComp
$Comp
L corne-cherry-rescue:SK6812MINI-kbd L17
U 1 1 5A775192
P 12575 5125
F 0 "L17" H 12575 5125 59  0000 C CNN
F 1 "SK6812MINI" H 12575 5075 16  0000 C CNN
F 2 "kbd:SK6812MINI_rev" H 12575 5125 60  0001 C CNN
F 3 "" H 12575 5125 60  0001 C CNN
	1    12575 5125
	1    0    0    -1  
$EndComp
NoConn ~ 10975 4725
$Comp
L corne-cherry-rescue:VCC-power #PWR0101
U 1 1 5A939D19
P 14075 3375
F 0 "#PWR0101" H 14075 3225 50  0001 C CNN
F 1 "VCC" H 14075 3525 50  0000 C CNN
F 2 "" H 14075 3375 50  0001 C CNN
F 3 "" H 14075 3375 50  0001 C CNN
	1    14075 3375
	1    0    0    -1  
$EndComp
$Comp
L corne-cherry-rescue:VCC-power #PWR0102
U 1 1 5A939EB6
P 12875 3375
F 0 "#PWR0102" H 12875 3225 50  0001 C CNN
F 1 "VCC" H 12875 3525 50  0000 C CNN
F 2 "" H 12875 3375 50  0001 C CNN
F 3 "" H 12875 3375 50  0001 C CNN
	1    12875 3375
	1    0    0    -1  
$EndComp
$Comp
L corne-cherry-rescue:VCC-power #PWR0103
U 1 1 5A93A2E2
P 11675 3375
F 0 "#PWR0103" H 11675 3225 50  0001 C CNN
F 1 "VCC" H 11675 3525 50  0000 C CNN
F 2 "" H 11675 3375 50  0001 C CNN
F 3 "" H 11675 3375 50  0001 C CNN
	1    11675 3375
	1    0    0    -1  
$EndComp
$Comp
L corne-cherry-rescue:VCC-power #PWR0104
U 1 1 5A93A47F
P 10475 3375
F 0 "#PWR0104" H 10475 3225 50  0001 C CNN
F 1 "VCC" H 10475 3525 50  0000 C CNN
F 2 "" H 10475 3375 50  0001 C CNN
F 3 "" H 10475 3375 50  0001 C CNN
	1    10475 3375
	1    0    0    -1  
$EndComp
$Comp
L corne-cherry-rescue:GND-power #PWR0105
U 1 1 5A93B0DB
P 13475 5375
F 0 "#PWR0105" H 13475 5125 50  0001 C CNN
F 1 "GND" H 13475 5225 50  0000 C CNN
F 2 "" H 13475 5375 50  0001 C CNN
F 3 "" H 13475 5375 50  0001 C CNN
	1    13475 5375
	1    0    0    -1  
$EndComp
$Comp
L corne-cherry-rescue:GND-power #PWR0106
U 1 1 5A93B401
P 12275 5375
F 0 "#PWR0106" H 12275 5125 50  0001 C CNN
F 1 "GND" H 12275 5225 50  0000 C CNN
F 2 "" H 12275 5375 50  0001 C CNN
F 3 "" H 12275 5375 50  0001 C CNN
	1    12275 5375
	1    0    0    -1  
$EndComp
$Comp
L corne-cherry-rescue:GND-power #PWR0107
U 1 1 5A93C05D
P 11075 4875
F 0 "#PWR0107" H 11075 4625 50  0001 C CNN
F 1 "GND" H 11075 4725 50  0000 C CNN
F 2 "" H 11075 4875 50  0001 C CNN
F 3 "" H 11075 4875 50  0001 C CNN
	1    11075 4875
	1    0    0    -1  
$EndComp
$Comp
L corne-cherry-rescue:SK6812MINI-kbd L22
U 1 1 5AD785A7
P 13775 2225
F 0 "L22" H 13775 2225 59  0000 C CNN
F 1 "SK6812MINI" H 13775 2175 16  0000 C CNN
F 2 "kbd:SK6812MINI_underglow_rev" H 13775 2225 60  0001 C CNN
F 3 "" H 13775 2225 60  0001 C CNN
	1    13775 2225
	1    0    0    -1  
$EndComp
$Comp
L corne-cherry-rescue:SK6812MINI-kbd L12
U 1 1 5AD7881D
P 12575 2225
F 0 "L12" H 12575 2225 59  0000 C CNN
F 1 "SK6812MINI" H 12575 2175 16  0000 C CNN
F 2 "kbd:SK6812MINI_underglow_rev" H 12575 2225 60  0001 C CNN
F 3 "" H 12575 2225 60  0001 C CNN
	1    12575 2225
	1    0    0    -1  
$EndComp
$Comp
L corne-cherry-rescue:SK6812MINI-kbd L4
U 1 1 5AD78A03
P 11375 2225
F 0 "L4" H 11375 2225 59  0000 C CNN
F 1 "SK6812MINI" H 11375 2175 16  0000 C CNN
F 2 "kbd:SK6812MINI_underglow_rev" H 11375 2225 60  0001 C CNN
F 3 "" H 11375 2225 60  0001 C CNN
	1    11375 2225
	1    0    0    -1  
$EndComp
$Comp
L corne-cherry-rescue:SK6812MINI-kbd L23
U 1 1 5AD78CF3
P 13775 2800
F 0 "L23" H 13775 2800 59  0000 C CNN
F 1 "SK6812MINI" H 13775 2750 16  0000 C CNN
F 2 "kbd:SK6812MINI_underglow_rev" H 13775 2800 60  0001 C CNN
F 3 "" H 13775 2800 60  0001 C CNN
	1    13775 2800
	-1   0    0    1   
$EndComp
$Comp
L corne-cherry-rescue:SK6812MINI-kbd L13
U 1 1 5AD78CF9
P 12575 2800
F 0 "L13" H 12575 2800 59  0000 C CNN
F 1 "SK6812MINI" H 12575 2750 16  0000 C CNN
F 2 "kbd:SK6812MINI_underglow_rev" H 12575 2800 60  0001 C CNN
F 3 "" H 12575 2800 60  0001 C CNN
	1    12575 2800
	-1   0    0    1   
$EndComp
$Comp
L corne-cherry-rescue:SK6812MINI-kbd L5
U 1 1 5AD78CFF
P 11375 2800
F 0 "L5" H 11375 2800 59  0000 C CNN
F 1 "SK6812MINI" H 11375 2750 16  0000 C CNN
F 2 "kbd:SK6812MINI_underglow_rev" H 11375 2800 60  0001 C CNN
F 3 "" H 11375 2800 60  0001 C CNN
	1    11375 2800
	-1   0    0    1   
$EndComp
Text GLabel 13975 2325 2    60   Input ~ 0
LED
Connection ~ 7800 4200
Connection ~ 8500 4200
Wire Wire Line
	7650 4200 7800 4200
Wire Wire Line
	5550 3600 5700 3600
Wire Wire Line
	5550 3000 5700 3000
Wire Wire Line
	5550 2400 5700 2400
Wire Wire Line
	8600 1950 8600 2100
Wire Wire Line
	7900 1950 7900 2100
Wire Wire Line
	7200 1950 7200 2100
Wire Wire Line
	6500 1950 6500 2100
Wire Wire Line
	5800 1950 5800 2100
Wire Wire Line
	5100 1950 5100 2100
Connection ~ 8600 2100
Connection ~ 7900 2100
Connection ~ 6500 2100
Connection ~ 5800 2100
Connection ~ 5100 2100
Connection ~ 5100 2700
Connection ~ 8600 3300
Connection ~ 8600 2700
Connection ~ 7900 3300
Connection ~ 7900 2700
Connection ~ 7200 3300
Connection ~ 7200 2100
Connection ~ 7200 2700
Connection ~ 6500 2700
Connection ~ 5800 2700
Connection ~ 5700 3600
Connection ~ 6400 3600
Connection ~ 7100 3600
Connection ~ 7800 3600
Connection ~ 8500 3600
Connection ~ 5700 3000
Connection ~ 6400 3000
Connection ~ 7100 3000
Connection ~ 7800 3000
Connection ~ 8500 3000
Connection ~ 5700 2400
Connection ~ 6400 2400
Connection ~ 7100 2400
Connection ~ 7800 2400
Connection ~ 8500 2400
Wire Wire Line
	13575 5025 13575 4875
Wire Wire Line
	13575 4875 13975 4875
Wire Wire Line
	13975 4875 13975 4725
Wire Wire Line
	13575 4525 13575 4375
Wire Wire Line
	13575 4375 13975 4375
Wire Wire Line
	13975 4375 13975 4225
Wire Wire Line
	13575 4025 13575 3875
Wire Wire Line
	13575 3875 13975 3875
Wire Wire Line
	13975 3875 13975 3725
Wire Wire Line
	12975 4025 12975 3875
Wire Wire Line
	12975 3875 13375 3875
Wire Wire Line
	13375 3875 13375 3725
Wire Wire Line
	12975 4525 12975 4375
Wire Wire Line
	12975 4375 13375 4375
Wire Wire Line
	13375 4375 13375 4225
Wire Wire Line
	12975 5025 12975 4875
Wire Wire Line
	12975 4875 13375 4875
Wire Wire Line
	13375 4875 13375 4725
Wire Wire Line
	12375 5025 12375 4875
Wire Wire Line
	12375 4875 12775 4875
Wire Wire Line
	12775 4875 12775 4725
Wire Wire Line
	12375 4525 12375 4375
Wire Wire Line
	12375 4375 12775 4375
Wire Wire Line
	12775 4375 12775 4225
Wire Wire Line
	12375 4025 12375 3875
Wire Wire Line
	12375 3875 12775 3875
Wire Wire Line
	12775 3875 12775 3725
Wire Wire Line
	11775 4025 11775 3875
Wire Wire Line
	11775 3875 12175 3875
Wire Wire Line
	12175 3875 12175 3725
Wire Wire Line
	11775 4525 11775 4375
Wire Wire Line
	11775 4375 12175 4375
Wire Wire Line
	12175 4375 12175 4225
Wire Wire Line
	11175 4525 11175 4375
Wire Wire Line
	11175 4375 11575 4375
Wire Wire Line
	11575 4375 11575 4225
Wire Wire Line
	11175 4025 11175 3875
Wire Wire Line
	11175 3875 11575 3875
Wire Wire Line
	11575 3875 11575 3725
Wire Wire Line
	10575 4025 10575 3875
Wire Wire Line
	10575 3875 10975 3875
Wire Wire Line
	10975 3875 10975 3725
Wire Wire Line
	10575 4525 10575 4375
Wire Wire Line
	10575 4375 10975 4375
Wire Wire Line
	10975 4375 10975 4225
Wire Wire Line
	13575 3525 13575 3375
Wire Wire Line
	13575 3375 12975 3375
Wire Wire Line
	12975 3375 12975 3525
Wire Wire Line
	12375 3525 12375 3375
Wire Wire Line
	12375 3375 11775 3375
Wire Wire Line
	11775 3375 11775 3525
Wire Wire Line
	11175 3525 11175 3375
Wire Wire Line
	11175 3375 10575 3375
Wire Wire Line
	10575 3375 10575 3525
Wire Wire Line
	13375 5225 13375 5375
Wire Wire Line
	13375 5375 12775 5375
Wire Wire Line
	12775 5375 12775 5225
Wire Wire Line
	12175 4725 12175 4875
Wire Wire Line
	12175 4875 11575 4875
Wire Wire Line
	11575 4875 11575 4725
Wire Wire Line
	14075 5025 13975 5025
Wire Wire Line
	14075 3375 14075 3525
Wire Wire Line
	13975 3525 14075 3525
Connection ~ 14075 3525
Wire Wire Line
	13975 4025 14075 4025
Connection ~ 14075 4025
Wire Wire Line
	13975 4525 14075 4525
Connection ~ 14075 4525
Wire Wire Line
	12875 3375 12875 3525
Wire Wire Line
	12875 5225 12975 5225
Wire Wire Line
	12875 4725 12975 4725
Connection ~ 12875 4725
Wire Wire Line
	12875 4225 12975 4225
Connection ~ 12875 4225
Wire Wire Line
	12875 3725 12975 3725
Connection ~ 12875 3725
Wire Wire Line
	11675 3375 11675 3525
Wire Wire Line
	11675 4725 11775 4725
Wire Wire Line
	11775 4225 11675 4225
Connection ~ 11675 4225
Wire Wire Line
	11775 3725 11675 3725
Connection ~ 11675 3725
Wire Wire Line
	12775 3525 12875 3525
Connection ~ 12875 3525
Wire Wire Line
	12775 4025 12875 4025
Connection ~ 12875 4025
Wire Wire Line
	12775 4525 12875 4525
Connection ~ 12875 4525
Wire Wire Line
	12775 5025 12875 5025
Connection ~ 12875 5025
Wire Wire Line
	11575 3525 11675 3525
Connection ~ 11675 3525
Wire Wire Line
	11575 4025 11675 4025
Connection ~ 11675 4025
Wire Wire Line
	11575 4525 11675 4525
Connection ~ 11675 4525
Wire Wire Line
	10475 3375 10475 3725
Wire Wire Line
	10575 3725 10475 3725
Connection ~ 10475 3725
Wire Wire Line
	10575 4225 10475 4225
Connection ~ 10475 4225
Wire Wire Line
	10475 4725 10575 4725
Wire Wire Line
	13475 3525 13475 3725
Wire Wire Line
	13375 3525 13475 3525
Wire Wire Line
	13575 3725 13475 3725
Connection ~ 13475 3725
Wire Wire Line
	13375 4025 13475 4025
Connection ~ 13475 4025
Wire Wire Line
	13575 4225 13475 4225
Connection ~ 13475 4225
Wire Wire Line
	13375 4525 13475 4525
Connection ~ 13475 4525
Wire Wire Line
	13575 4725 13475 4725
Connection ~ 13475 4725
Wire Wire Line
	13375 5025 13475 5025
Connection ~ 13475 5025
Wire Wire Line
	13575 5225 13475 5225
Connection ~ 13475 5225
Wire Wire Line
	12275 3525 12275 3725
Wire Wire Line
	12375 5225 12275 5225
Connection ~ 12275 5225
Wire Wire Line
	12375 4725 12275 4725
Connection ~ 12275 4725
Wire Wire Line
	12175 4525 12275 4525
Connection ~ 12275 4525
Wire Wire Line
	12375 4225 12275 4225
Connection ~ 12275 4225
Wire Wire Line
	12175 4025 12275 4025
Connection ~ 12275 4025
Wire Wire Line
	12375 3725 12275 3725
Connection ~ 12275 3725
Wire Wire Line
	12175 3525 12275 3525
Wire Wire Line
	11075 3525 11075 3725
Wire Wire Line
	10975 3525 11075 3525
Wire Wire Line
	11175 3725 11075 3725
Connection ~ 11075 3725
Wire Wire Line
	10975 4025 11075 4025
Connection ~ 11075 4025
Wire Wire Line
	11175 4225 11075 4225
Connection ~ 11075 4225
Wire Wire Line
	10975 4525 11075 4525
Connection ~ 11075 4525
Wire Wire Line
	11175 4725 11075 4725
Connection ~ 11075 4725
Wire Wire Line
	11575 2125 11575 2000
Wire Wire Line
	11575 2000 12775 2000
Wire Wire Line
	12775 2125 12775 2000
Connection ~ 12775 2000
Wire Wire Line
	13975 2125 13975 2000
Connection ~ 13975 2000
Wire Wire Line
	11175 2900 11175 3075
Wire Wire Line
	11175 3075 12375 3075
Wire Wire Line
	13575 2900 13575 3075
Connection ~ 13575 3075
Wire Wire Line
	12375 2900 12375 3075
Connection ~ 12375 3075
Wire Wire Line
	13975 2525 13975 2700
Wire Wire Line
	10850 2525 11175 2525
Wire Wire Line
	13575 2325 13575 2525
Connection ~ 13575 2525
Wire Wire Line
	12375 2325 12375 2525
Connection ~ 12375 2525
Wire Wire Line
	11175 2325 11175 2525
Connection ~ 11175 2525
Wire Wire Line
	13575 2125 13200 2125
Wire Wire Line
	13200 2125 13200 2325
Wire Wire Line
	13200 2325 12775 2325
Wire Wire Line
	12375 2125 11975 2125
Wire Wire Line
	11975 2125 11975 2325
Wire Wire Line
	11975 2325 11575 2325
Wire Wire Line
	11175 2125 11050 2125
Wire Wire Line
	11050 2125 11050 2700
Wire Wire Line
	11050 2700 11175 2700
Wire Wire Line
	11575 2700 11575 2525
Connection ~ 11575 2525
Wire Wire Line
	12775 2700 12775 2525
Connection ~ 12775 2525
Wire Wire Line
	11575 2900 12000 2900
Wire Wire Line
	12000 2900 12000 2700
Wire Wire Line
	12000 2700 12375 2700
Wire Wire Line
	12775 2900 13200 2900
Wire Wire Line
	13200 2900 13200 2700
Wire Wire Line
	13200 2700 13575 2700
Wire Wire Line
	13975 2900 14225 2900
Wire Wire Line
	14225 2900 14225 5225
Wire Wire Line
	14225 5225 13975 5225
$Comp
L corne-cherry-rescue:VCC-power #PWR0108
U 1 1 5AD7B57B
P 14375 2000
F 0 "#PWR0108" H 14375 1850 50  0001 C CNN
F 1 "VCC" H 14375 2150 50  0000 C CNN
F 2 "" H 14375 2000 50  0001 C CNN
F 3 "" H 14375 2000 50  0001 C CNN
	1    14375 2000
	1    0    0    -1  
$EndComp
$Comp
L corne-cherry-rescue:VCC-power #PWR0109
U 1 1 5AD7B694
P 14425 3075
F 0 "#PWR0109" H 14425 2925 50  0001 C CNN
F 1 "VCC" H 14425 3225 50  0000 C CNN
F 2 "" H 14425 3075 50  0001 C CNN
F 3 "" H 14425 3075 50  0001 C CNN
	1    14425 3075
	1    0    0    -1  
$EndComp
$Comp
L corne-cherry-rescue:GND-power #PWR0110
U 1 1 5AD7B7AD
P 10850 2525
F 0 "#PWR0110" H 10850 2275 50  0001 C CNN
F 1 "GND" H 10850 2375 50  0000 C CNN
F 2 "" H 10850 2525 50  0001 C CNN
F 3 "" H 10850 2525 50  0001 C CNN
	1    10850 2525
	1    0    0    -1  
$EndComp
Wire Wire Line
	7800 4200 8500 4200
Wire Wire Line
	8500 4200 9200 4200
Wire Wire Line
	8600 2100 8600 2700
Wire Wire Line
	7900 2100 7900 2700
Wire Wire Line
	6500 2100 6500 2700
Wire Wire Line
	5800 2100 5800 2700
Wire Wire Line
	5100 2100 5100 2700
Wire Wire Line
	5100 2700 5100 3300
Wire Wire Line
	8600 3300 8600 3900
Wire Wire Line
	8600 2700 8600 3300
Wire Wire Line
	7900 3300 7900 3900
Wire Wire Line
	7900 2700 7900 3300
Wire Wire Line
	7200 3300 7200 3900
Wire Wire Line
	7200 2100 7200 2700
Wire Wire Line
	7200 2700 7200 3300
Wire Wire Line
	6500 2700 6500 3300
Wire Wire Line
	5800 2700 5800 3300
Wire Wire Line
	5700 3600 6400 3600
Wire Wire Line
	6400 3600 7100 3600
Wire Wire Line
	7100 3600 7800 3600
Wire Wire Line
	7800 3600 8500 3600
Wire Wire Line
	8500 3600 9200 3600
Wire Wire Line
	5700 3000 6400 3000
Wire Wire Line
	6400 3000 7100 3000
Wire Wire Line
	7100 3000 7800 3000
Wire Wire Line
	7800 3000 8500 3000
Wire Wire Line
	8500 3000 9200 3000
Wire Wire Line
	5700 2400 6400 2400
Wire Wire Line
	6400 2400 7100 2400
Wire Wire Line
	7100 2400 7800 2400
Wire Wire Line
	7800 2400 8500 2400
Wire Wire Line
	8500 2400 9200 2400
Wire Wire Line
	14075 3525 14075 4025
Wire Wire Line
	14075 4025 14075 4525
Wire Wire Line
	14075 4525 14075 5025
Wire Wire Line
	12875 4725 12875 5025
Wire Wire Line
	12875 4225 12875 4525
Wire Wire Line
	12875 3725 12875 4025
Wire Wire Line
	11675 4225 11675 4525
Wire Wire Line
	11675 3725 11675 4025
Wire Wire Line
	12875 3525 12875 3725
Wire Wire Line
	12875 4025 12875 4225
Wire Wire Line
	12875 4525 12875 4725
Wire Wire Line
	12875 5025 12875 5225
Wire Wire Line
	11675 3525 11675 3725
Wire Wire Line
	11675 4025 11675 4225
Wire Wire Line
	11675 4525 11675 4725
Wire Wire Line
	10475 3725 10475 4225
Wire Wire Line
	10475 4225 10475 4725
Wire Wire Line
	13475 3725 13475 4025
Wire Wire Line
	13475 4025 13475 4225
Wire Wire Line
	13475 4225 13475 4525
Wire Wire Line
	13475 4525 13475 4725
Wire Wire Line
	13475 4725 13475 5025
Wire Wire Line
	13475 5025 13475 5225
Wire Wire Line
	13475 5225 13475 5375
Wire Wire Line
	12275 5225 12275 5375
Wire Wire Line
	12275 4725 12275 5225
Wire Wire Line
	12275 4525 12275 4725
Wire Wire Line
	12275 4225 12275 4525
Wire Wire Line
	12275 4025 12275 4225
Wire Wire Line
	12275 3725 12275 4025
Wire Wire Line
	11075 3725 11075 4025
Wire Wire Line
	11075 4025 11075 4225
Wire Wire Line
	11075 4225 11075 4525
Wire Wire Line
	11075 4525 11075 4725
Wire Wire Line
	11075 4725 11075 4875
Wire Wire Line
	12775 2000 13975 2000
Wire Wire Line
	13975 2000 14375 2000
Wire Wire Line
	13575 3075 14425 3075
Wire Wire Line
	12375 3075 13575 3075
Wire Wire Line
	13575 2525 13975 2525
Wire Wire Line
	12375 2525 12775 2525
Wire Wire Line
	11175 2525 11575 2525
Wire Wire Line
	11575 2525 12375 2525
Wire Wire Line
	12775 2525 13575 2525
$Comp
L redox_rev1-cache:Device_Battery_Cell BT_LEFT1
U 1 1 5C0219D5
P 2300 6000
F 0 "BT_LEFT1" H 2418 6096 50  0000 L CNN
F 1 "Device_Battery_Cell" H 2418 6005 50  0000 L CNN
F 2 "redox_w_footprints:BatteryHolder_Keystone_3034_1x20mm" V 2300 6060 50  0001 C CNN
F 3 "" V 2300 6060 50  0001 C CNN
	1    2300 6000
	1    0    0    -1  
$EndComp
Text GLabel 2800 1350 2    50   Input ~ 0
SWCLK
Text GLabel 2800 1450 2    50   Input ~ 0
SWDIO
Text GLabel 900  1050 0    50   Input ~ 0
row3
Text GLabel 900  1150 0    50   Input ~ 0
row2
Text GLabel 900  1250 0    50   Input ~ 0
row1
Text GLabel 1300 2500 3    50   Input ~ 0
col0
Text GLabel 1400 2500 3    50   Input ~ 0
col1
Text GLabel 1800 2500 3    50   Input ~ 0
col4
Text GLabel 1600 2500 3    50   Input ~ 0
col2
Text GLabel 1700 2500 3    50   Input ~ 0
col3
Text GLabel 1900 2500 3    50   Input ~ 0
col5
$Comp
L redox_rev1-cache:power_VCC #PWR0111
U 1 1 5C114870
P 900 2050
F 0 "#PWR0111" H 900 1900 50  0001 C CNN
F 1 "power_VCC" V 918 2178 50  0000 L CNN
F 2 "" H 900 2050 50  0001 C CNN
F 3 "" H 900 2050 50  0001 C CNN
	1    900  2050
	0    -1   -1   0   
$EndComp
$Comp
L redox_rev1-cache:power_GND #PWR0112
U 1 1 5C15EA95
P 900 1950
F 0 "#PWR0112" H 900 1700 50  0001 C CNN
F 1 "power_GND" V 905 1823 50  0000 R CNN
F 2 "" H 900 1950 50  0001 C CNN
F 3 "" H 900 1950 50  0001 C CNN
	1    900  1950
	0    1    1    0   
$EndComp
$Comp
L redox_rev1-cache:core51822b_Core51822B U_RIGHT2
U 1 1 5C16E205
P 1950 3700
F 0 "U_RIGHT2" H 1950 4587 60  0000 C CNN
F 1 "core51822b_Core51822B" H 1950 4481 60  0000 C CNN
F 2 "redox_w_footprints:MY-YJ-14015-Module" H 1950 3800 60  0001 C CNN
F 3 "" H 1950 3800 60  0001 C CNN
	1    1950 3700
	1    0    0    -1  
$EndComp
Text GLabel 2900 3600 2    50   Input ~ 0
SWCLK
Text GLabel 2900 3700 2    50   Input ~ 0
SWDIO
Text GLabel 2900 3300 2    50   Input ~ 0
row3
Text GLabel 2900 3400 2    50   Input ~ 0
row2
Text GLabel 2900 3500 2    50   Input ~ 0
row1
Text GLabel 1900 4750 3    50   Input ~ 0
col5
Text GLabel 2000 4750 3    50   Input ~ 0
col4
Text GLabel 2100 4750 3    50   Input ~ 0
col3
Text GLabel 2200 4750 3    50   Input ~ 0
col2
Text GLabel 2400 4750 3    50   Input ~ 0
col1
Text GLabel 2500 4750 3    50   Input ~ 0
col0
$Comp
L redox_rev1-cache:power_VCC #PWR0113
U 1 1 5C16E216
P 1000 4300
F 0 "#PWR0113" H 1000 4150 50  0001 C CNN
F 1 "power_VCC" V 1018 4428 50  0000 L CNN
F 2 "" H 1000 4300 50  0001 C CNN
F 3 "" H 1000 4300 50  0001 C CNN
	1    1000 4300
	0    -1   -1   0   
$EndComp
$Comp
L redox_rev1-cache:power_GND #PWR0114
U 1 1 5C16E21C
P 1000 4200
F 0 "#PWR0114" H 1000 3950 50  0001 C CNN
F 1 "power_GND" V 1005 4073 50  0000 R CNN
F 2 "" H 1000 4200 50  0001 C CNN
F 3 "" H 1000 4200 50  0001 C CNN
	1    1000 4200
	0    1    1    0   
$EndComp
$Comp
L redox_rev1-cache:Connector_Conn_01x04_Male J_PROG_PORT1
U 1 1 5C2EFD07
P 2350 7100
F 0 "J_PROG_PORT1" H 2456 7378 50  0000 C CNN
F 1 "Conn_01_X04_MALE" H 2456 7287 50  0000 C CNN
F 2 "redox_w_footprints:PinHeader_1x04_P2.54mm_Horizontal" H 2350 7100 50  0001 C CNN
F 3 "" H 2350 7100 50  0001 C CNN
	1    2350 7100
	1    0    0    -1  
$EndComp
$Comp
L redox_rev1-cache:power_VCC #PWR0115
U 1 1 5C30F1B8
P 2550 7000
F 0 "#PWR0115" H 2550 6850 50  0001 C CNN
F 1 "power_VCC" V 2567 7128 50  0000 L CNN
F 2 "" H 2550 7000 50  0001 C CNN
F 3 "" H 2550 7000 50  0001 C CNN
	1    2550 7000
	0    1    1    0   
$EndComp
Text GLabel 2550 7100 2    50   Input ~ 0
SWCLK
Text GLabel 2550 7200 2    50   Input ~ 0
SWDIO
$Comp
L redox_rev1-cache:power_GND #PWR0116
U 1 1 5C31E74A
P 2550 7300
F 0 "#PWR0116" H 2550 7050 50  0001 C CNN
F 1 "power_GND" V 2555 7172 50  0000 R CNN
F 2 "" H 2550 7300 50  0001 C CNN
F 3 "" H 2550 7300 50  0001 C CNN
	1    2550 7300
	0    -1   -1   0   
$EndComp
$Comp
L redox_rev1-cache:Device_Battery_Cell BT_RIGHT1
U 1 1 5C377512
P 3600 6000
F 0 "BT_RIGHT1" H 3718 6096 50  0000 L CNN
F 1 "Device_Battery_Cell" H 3718 6005 50  0000 L CNN
F 2 "redox_w_footprints:BatteryHolder_Keystone_3034_1x20mm" V 3600 6060 50  0001 C CNN
F 3 "" V 3600 6060 50  0001 C CNN
	1    3600 6000
	1    0    0    -1  
$EndComp
$Comp
L redox_rev1-cache:Switch_SW_SPDT SW_RIGHT1
U 1 1 5C3B3007
P 3600 5600
F 0 "SW_RIGHT1" V 3646 5412 50  0000 R CNN
F 1 "Switch_SW_SPDT" V 3555 5412 50  0000 R CNN
F 2 "Buttons_Switches_THT:SW_DIP_x1_W7.62mm_Slide_LowProfile" H 3600 5600 50  0001 C CNN
F 3 "" H 3600 5600 50  0001 C CNN
	1    3600 5600
	0    -1   -1   0   
$EndComp
$Comp
L redox_rev1-cache:Switch_SW_SPDT SW_LEFT1
U 1 1 5C3B3133
P 2300 5600
F 0 "SW_LEFT1" V 2346 5412 50  0000 R CNN
F 1 "Switch_SW_SPDT" V 2255 5412 50  0000 R CNN
F 2 "Buttons_Switches_THT:SW_DIP_x1_W7.62mm_Slide_LowProfile" H 2300 5600 50  0001 C CNN
F 3 "" H 2300 5600 50  0001 C CNN
	1    2300 5600
	0    -1   -1   0   
$EndComp
$Comp
L redox_rev1-cache:power_GND #PWR0117
U 1 1 5C3B3AB3
P 2300 6100
F 0 "#PWR0117" H 2300 5850 50  0001 C CNN
F 1 "power_GND" H 2305 5927 50  0000 C CNN
F 2 "" H 2300 6100 50  0001 C CNN
F 3 "" H 2300 6100 50  0001 C CNN
	1    2300 6100
	1    0    0    -1  
$EndComp
$Comp
L redox_rev1-cache:power_GND #PWR0118
U 1 1 5C3B3BBC
P 3600 6100
F 0 "#PWR0118" H 3600 5850 50  0001 C CNN
F 1 "power_GND" H 3605 5927 50  0000 C CNN
F 2 "" H 3600 6100 50  0001 C CNN
F 3 "" H 3600 6100 50  0001 C CNN
	1    3600 6100
	1    0    0    -1  
$EndComp
Text GLabel 900  1850 0    50   Input ~ 0
row0
NoConn ~ 2900 4300
NoConn ~ 2900 3900
NoConn ~ 2900 3800
NoConn ~ 2900 3200
NoConn ~ 1000 3300
NoConn ~ 1000 3400
NoConn ~ 1000 3500
NoConn ~ 1000 3600
NoConn ~ 1000 3700
NoConn ~ 1000 3800
NoConn ~ 1000 3900
NoConn ~ 1000 4000
NoConn ~ 1000 4100
NoConn ~ 1700 4750
NoConn ~ 1800 4750
NoConn ~ 2300 4750
NoConn ~ 2000 2500
NoConn ~ 2100 2500
NoConn ~ 2800 2050
NoConn ~ 2800 1950
NoConn ~ 2800 1850
NoConn ~ 2800 1750
NoConn ~ 2800 1650
NoConn ~ 2800 1550
NoConn ~ 2800 1250
NoConn ~ 2800 1150
NoConn ~ 2800 1050
NoConn ~ 2800 950 
$Comp
L redox_rev1-cache:power_GND #PWR0119
U 1 1 5C6200F9
P 900 950
F 0 "#PWR0119" H 900 700 50  0001 C CNN
F 1 "power_GND" V 905 823 50  0000 R CNN
F 2 "" H 900 950 50  0001 C CNN
F 3 "" H 900 950 50  0001 C CNN
	1    900  950 
	0    1    1    0   
$EndComp
$Comp
L redox_rev1-cache:power_GND #PWR0120
U 1 1 5C62041D
P 1000 3200
F 0 "#PWR0120" H 1000 2950 50  0001 C CNN
F 1 "power_GND" V 1005 3073 50  0000 R CNN
F 2 "" H 1000 3200 50  0001 C CNN
F 3 "" H 1000 3200 50  0001 C CNN
	1    1000 3200
	0    1    1    0   
$EndComp
NoConn ~ 1500 2500
NoConn ~ 13650 5600
$Comp
L redox_rev1-cache:power_VCC #PWR0121
U 1 1 5C1C673C
P 3500 5400
F 0 "#PWR0121" H 3500 5250 50  0001 C CNN
F 1 "power_VCC" H 3517 5573 50  0000 C CNN
F 2 "" H 3500 5400 50  0001 C CNN
F 3 "" H 3500 5400 50  0001 C CNN
	1    3500 5400
	1    0    0    -1  
$EndComp
$Comp
L redox_rev1-cache:power_VCC #PWR0122
U 1 1 5C1D5D19
P 2200 5400
F 0 "#PWR0122" H 2200 5250 50  0001 C CNN
F 1 "power_VCC" H 2217 5573 50  0000 C CNN
F 2 "" H 2200 5400 50  0001 C CNN
F 3 "" H 2200 5400 50  0001 C CNN
	1    2200 5400
	1    0    0    -1  
$EndComp
NoConn ~ 2400 5400
NoConn ~ 3700 5400
$Comp
L redox_rev1-cache:core51822b_Core51822B U_RIGHT1
U 1 1 5C022796
P 1850 1450
F 0 "U_RIGHT1" H 1850 2337 60  0000 C CNN
F 1 "core51822b_Core51822B" H 1850 2231 60  0000 C CNN
F 2 "redox_w_footprints:MY-YJ-14015-Module" H 1850 1550 60  0001 C CNN
F 3 "" H 1850 1550 60  0001 C CNN
	1    1850 1450
	1    0    0    -1  
$EndComp
Text GLabel 2900 4100 2    50   Input ~ 0
row0
$EndSCHEMATC
